18:33:48 - Initializing network service ...
18:33:48 - Initializing network service ... completed.
18:33:48 - Initializing complete.
18:33:49 - compType: 'Micromedical' is not a known compType
18:33:49 - Error initializating the system, going into simulation mode.
18:33:49 - Error: Unable to create capture from camera 0
18:34:55 - Grabber loop finished.
18:34:55 - Process loop finished.
18:34:55 - Process loop finished.
18:34:55 - Process loop finished.
18:34:55 - Process loop finished.
18:34:55 - Output loop finished.
