17:15:52 - Initializing network service ...
17:15:52 - Initializing network service ... completed.
17:15:52 - Initializing complete.
17:15:55 - compType: 'Micromedical' is not a known compType
17:15:56 - Error initializating the system, going into simulation mode.
17:15:56 - Error: Unable to create capture from camera 0
17:16:29 - Grabber loop finished.
17:16:29 - Process loop finished.
17:16:29 - Process loop finished.
17:16:29 - Process loop finished.
17:16:29 - Process loop finished.
17:16:29 - Output loop finished.
