15:46:23 - Initializing network service ...
15:46:23 - Initializing network service ... completed.
15:46:23 - Initializing complete.
15:46:25 - compType: 'Micromedical' is not a known compType
15:46:25 - Error initializating the system, going into simulation mode.
15:46:25 - Error: Unable to create capture from camera 0
15:46:49 - Grabber loop finished.
15:46:49 - Process loop finished.
15:46:49 - Process loop finished.
15:46:49 - Process loop finished.
15:46:49 - Process loop finished.
15:46:49 - Output loop finished.
