15:04:17 - Initializing network service ...
15:04:17 - Initializing network service ... completed.
15:04:17 - Initializing complete.
15:04:21 - Verifying grabbing system.
15:04:21 - Running camera callback.
15:04:21 - Camera reports 0
15:06:45 - 2018-09-25-15:06:45.597 14258 M: KEYPRESS D: 5
15:06:45 - 2018-09-25-15:06:45.727 14270 M: KEYPRESS D: 4
15:06:51 - 0: L (0.00,0.00) +/- (0.00,0.00), R (0.00,0.00) +/- (0.00,0.00))
15:06:51 - 0 0 0 0 0 0 0 0 0 
15:06:53 - An error occured, cannot finalize calibration implmentation.
15:06:53 - Calibration loop finished.
15:07:53 - 0: L (262.76,107.12) +/- (0.42,0.30), R (275.19,95.55) +/- (0.42,0.51))
15:07:54 - 262.7628 0 0 0 0 0 0 0 0 
15:08:01 - 1: L (224.78,104.87) +/- (0.32,0.03), R (236.16,95.32) +/- (0.52,0.03))
15:08:01 - 262.7628 224.7778 0 0 0 0 0 0 0 
15:08:08 - 2: L (182.82,106.04) +/- (0.28,0.07), R (195.55,99.77) +/- (0.29,0.08))
15:08:09 - 262.7628 224.7778 182.8225 0 0 0 0 0 0 
15:08:14 - 3: L (265.92,133.35) +/- (0.46,0.19), R (274.92,121.35) +/- (0.58,0.06))
15:08:15 - 262.7628 224.7778 182.8225 265.9183 0 0 0 0 0 
15:08:23 - 4: L (226.03,133.63) +/- (0.89,0.39), R (232.32,125.64) +/- (0.46,0.33))
15:08:25 - 262.7628 224.7778 182.8225 265.9183 226.0345 0 0 0 0 
15:08:31 - 5: L (181.96,134.27) +/- (1.95,0.26), R (191.94,129.11) +/- (0.17,0.11))
15:08:32 - 262.7628 224.7778 182.8225 265.9183 226.0345 181.9557 0 0 0 
15:08:37 - 6: L (266.46,166.13) +/- (0.39,0.06), R (277.93,154.97) +/- (0.76,0.08))
15:08:39 - 262.7628 224.7778 182.8225 265.9183 226.0345 181.9557 266.4577 0 0 
15:08:44 - 7: L (226.23,166.95) +/- (0.70,0.04), R (236.11,157.93) +/- (0.33,0.09))
15:08:46 - 262.7628 224.7778 182.8225 265.9183 226.0345 181.9557 266.4577 226.2301 0 
15:08:51 - 8: L (181.22,168.67) +/- (0.54,0.06), R (197.15,161.49) +/- (0.40,0.05))
15:09:08 - Calibration finished
15:09:08 - Calibration loop finished.
15:28:40 - Finished EyeCollection`1 consumer  loop : 108244 frames queued; Queued: 36330-144573, Saved: 36330-144573
15:28:40 - Finished EyeTrackerDataAndImages consumer  loop : 108244 frames queued; Queued: 36330-144573, Saved: 36330-144573
15:28:40 - Finished EyeTrackerEvent consumer  loop : 0 frames queued; Queued: -1--1, Saved: -1--1
15:30:10 - FATAL ERROR: FlyCapture2Managed.FC2Exception: Low level failure reading register 0x70008. Error: 0x15.
   at FlyCapture2Managed.ManagedCameraBase.ReadRegister(UInt32 address)
   at OculomotorLab.VOG.ImageGrabbing.CameraEyePointGreyLabyrinth.ReadSensors() in c:\VOG\Labyrinth VOG Software - MVI Working Version - Testing Software Trigger\labyrinth\LabryinthVOG\ImageGrabbing\CameraEyePointGreyLabyrinth.cs:line 710
   at OculomotorLab.VOG.ImageGrabbing.CameraEyePointGreyLabyrinth.HeadSensorLabyrinth.GrabHeadData(Boolean SoftwareTriggerOn) in c:\VOG\Labyrinth VOG Software - MVI Working Version - Testing Software Trigger\labyrinth\LabryinthVOG\HeadTracking\HeadSensorLabyrinth.cs:line 62
   at OculomotorLab.VOG.EyeTrackerHeadTracker.TrackingLoop() in C:\VOG\Labyrinth VOG Software - MVI Working Version - Testing Software Trigger\source\VOGLib\HeadTracking\EyeTrackerHeadTracker.cs:line 235
15:30:13 - Error details: lastRawFrameNumber: 153539, currentFrameNumber: 0
15:30:13 - Error grabbing: Frame counter is not consistently growing!.
15:30:13 - FATAL ERROR: System.InvalidOperationException: Frame counter is not consistently growing!.
   at OculomotorLab.VOG.ImageGrabbing.CameraEyePointGreyLabyrinth.GrabImageEye() in c:\VOG\Labyrinth VOG Software - MVI Working Version - Testing Software Trigger\labyrinth\LabryinthVOG\ImageGrabbing\CameraEyePointGreyLabyrinth.cs:line 639
   at OculomotorLab.VOG.EyeTrackerImageGrabber.GrabImages() in C:\VOG\Labyrinth VOG Software - MVI Working Version - Testing Software Trigger\source\VOGLib\EyeTrackerImageGrabber.cs:line 552
   at OculomotorLab.VOG.EyeTrackerImageGrabber.GrabLoop() in C:\VOG\Labyrinth VOG Software - MVI Working Version - Testing Software Trigger\source\VOGLib\EyeTrackerImageGrabber.cs:line 478
