16:12:25 - Initializing network service ...
16:12:25 - Initializing network service ... completed.
16:12:25 - Initializing complete.
17:35:00 - Verifying grabbing system.
17:35:00 - Running camera callback.
17:35:01 - Camera reports 0
17:35:41 - 2017-02-01-17:35:41.702 4063 M: KEYPRESS D: 
17:35:42 - 2017-02-01-17:35:42.136 4106 M: KEYPRESS D: 8
17:37:26 - 0: L (350.19,164.89) +/- (0.19,0.14), R (312.88,151.66) +/- (0.23,0.16))
17:37:26 - 350.1927 0 0 0 0 0 0 0 0 
17:37:32 - 1: L (322.65,163.09) +/- (0.07,0.04), R (280.13,146.72) +/- (0.08,0.04))
17:37:32 - 350.1927 322.6477 0 0 0 0 0 0 0 
17:37:38 - 2: L (293.84,163.41) +/- (0.27,0.20), R (250.29,147.52) +/- (0.12,0.13))
17:37:38 - 350.1927 322.6477 293.8364 0 0 0 0 0 0 
17:37:43 - 3: L (311.34,174.04) +/- (12608.95,4379.98), R (280.13,165.46) +/- (9322.33,3744.48))
17:37:43 - 350.1927 322.6477 293.8364 311.3388 0 0 0 0 0 
17:38:14 - An error occured, cannot finalize calibration implmentation.
17:38:14 - Calibration loop finished.
17:38:19 - 0: L (349.07,168.07) +/- (0.05,0.09), R (310.28,156.11) +/- (0.05,0.07))
17:38:19 - 349.0667 0 0 0 0 0 0 0 0 
17:38:25 - 1: L (321.11,166.21) +/- (0.19,0.28), R (279.89,153.65) +/- (0.08,0.43))
17:38:25 - 349.0667 321.1097 0 0 0 0 0 0 0 
17:38:31 - 2: L (293.02,166.90) +/- (0.08,0.10), R (248.27,151.62) +/- (0.45,0.03))
17:38:31 - 349.0667 321.1097 293.0193 0 0 0 0 0 0 
17:38:37 - 3: L (351.14,193.53) +/- (0.11,0.03), R (307.81,180.62) +/- (0.20,0.07))
17:38:37 - 349.0667 321.1097 293.0193 351.1358 0 0 0 0 0 
17:38:43 - 4: L (322.80,191.42) +/- (0.56,0.23), R (278.40,179.69) +/- (0.14,0.03))
17:38:43 - 349.0667 321.1097 293.0193 351.1358 322.7985 0 0 0 0 
17:38:48 - 5: L (294.69,192.01) +/- (0.09,0.04), R (248.62,179.47) +/- (0.04,0.08))
17:38:49 - 349.0667 321.1097 293.0193 351.1358 322.7985 294.6896 0 0 0 
17:38:54 - 6: L (350.85,219.06) +/- (0.08,0.06), R (306.44,207.60) +/- (0.06,0.05))
17:38:54 - 349.0667 321.1097 293.0193 351.1358 322.7985 294.6896 350.8452 0 0 
17:39:00 - 7: L (324.81,218.14) +/- (1.02,0.13), R (277.31,206.26) +/- (0.19,0.17))
17:39:00 - 349.0667 321.1097 293.0193 351.1358 322.7985 294.6896 350.8452 324.8123 0 
17:39:05 - 8: L (295.67,217.79) +/- (0.08,0.04), R (248.56,206.03) +/- (0.03,0.02))
17:39:05 - 349.0667 321.1097 293.0193 351.1358 322.7985 294.6896 350.8452 324.8123 295.6669 
17:39:14 - Calibration finished
17:39:14 - Calibration loop finished.
17:48:22 - Finished EyeCollection`1 consumer  loop : 53845 frames queued; Queued: 26226-80070, Saved: 26226-80070
17:48:22 - Finished EyeTrackerDataAndImages consumer  loop : 53844 frames queued; Queued: 26226-80069, Saved: 26226-80069
17:48:22 - Finished EyeTrackerEvent consumer  loop : 0 frames queued; Queued: -1--1, Saved: -1--1
18:09:34 - Finished EyeCollection`1 consumer  loop : 25924 frames queued; Queued: 181335-207258, Saved: 181335-207258
18:09:34 - Finished EyeTrackerDataAndImages consumer  loop : 25922 frames queued; Queued: 181335-207256, Saved: 181335-207256
18:09:34 - Finished EyeTrackerEvent consumer  loop : 0 frames queued; Queued: -1--1, Saved: -1--1
18:10:05 - Finished head tracker loop.
18:34:22 - Grabber loop finished.
18:34:22 - Process loop finished.
18:34:22 - Process loop finished.
18:34:22 - Process loop finished.
18:34:22 - Process loop finished.
18:34:22 - Output loop finished.
