12:21:08 - Initializing network service ...
12:21:08 - Initializing network service ... completed.
12:21:08 - Initializing complete.
12:21:09 - Verifying grabbing system.
12:21:09 - Running camera callback.
12:21:10 - Camera reports 49
12:21:12 - Finished head tracker loop.
12:21:15 - Grabber loop finished.
12:21:15 - Process loop finished.
12:21:15 - Process loop finished.
12:21:15 - Process loop finished.
12:21:15 - Process loop finished.
12:21:15 - Output loop finished.
