17:59:32 - Initializing network service ...
17:59:32 - Initializing network service ... completed.
17:59:32 - Initializing complete.
17:59:35 - Verifying grabbing system.
17:59:35 - Running camera callback.
17:59:35 - Camera reports 0
18:00:09 - Error details: lastRawFrameNumber: 3382, currentFrameNumber: 0
18:00:09 - Error grabbing: Frame counter is not consistently growing!.
18:00:09 - FATAL ERROR: FlyCapture2Managed.FC2Exception: Low level failure reading register 0x1100. Error: 0x15.
   at FlyCapture2Managed.ManagedCameraBase.ReadRegister(UInt32 address)
   at OculomotorLab.VOG.ImageGrabbing.CameraEyePointGreyLabyrinth.ReadSensors() in c:\VOG\Local_VOG_with_CamCalib_Emgu_2.4.10_v2 - LatestFlyCapture - New Calibration - New Goggles - Sync Line - Copy\labyrinth\LabryinthVOG\ImageGrabbing\CameraEyePointGreyLabyrinth.cs:line 696
   at OculomotorLab.VOG.ImageGrabbing.CameraEyePointGreyLabyrinth.HeadSensorLabyrinth.GrabHeadData() in c:\VOG\Local_VOG_with_CamCalib_Emgu_2.4.10_v2 - LatestFlyCapture - New Calibration - New Goggles - Sync Line - Copy\labyrinth\LabryinthVOG\HeadTracking\HeadSensorLabyrinth.cs:line 62
   at OculomotorLab.VOG.EyeTrackerHeadTracker.TrackingLoop() in c:\VOG\Local_VOG_with_CamCalib_Emgu_2.4.10_v2 - LatestFlyCapture - New Calibration - New Goggles - Sync Line - Copy\source\VOGLib\HeadTracking\EyeTrackerHeadTracker.cs:line 232
18:00:09 - FATAL ERROR: System.InvalidOperationException: Frame counter is not consistently growing!.
   at OculomotorLab.VOG.ImageGrabbing.CameraEyePointGreyLabyrinth.GrabImageEye() in c:\VOG\Local_VOG_with_CamCalib_Emgu_2.4.10_v2 - LatestFlyCapture - New Calibration - New Goggles - Sync Line - Copy\labyrinth\LabryinthVOG\ImageGrabbing\CameraEyePointGreyLabyrinth.cs:line 639
   at OculomotorLab.VOG.EyeTrackerImageGrabber.GrabImages() in c:\VOG\Local_VOG_with_CamCalib_Emgu_2.4.10_v2 - LatestFlyCapture - New Calibration - New Goggles - Sync Line - Copy\source\VOGLib\EyeTrackerImageGrabber.cs:line 552
   at OculomotorLab.VOG.EyeTrackerImageGrabber.GrabLoop() in c:\VOG\Local_VOG_with_CamCalib_Emgu_2.4.10_v2 - LatestFlyCapture - New Calibration - New Goggles - Sync Line - Copy\source\VOGLib\EyeTrackerImageGrabber.cs:line 478
