16:39:24 - Initializing network service ...
16:39:25 - Initializing network service ... completed.
16:39:25 - Initializing complete.
16:40:06 - Verifying grabbing system.
16:40:06 - Running camera callback.
16:40:06 - Camera reports 0
16:40:39 - Finished head tracker loop.
