11:25:00 - Initializing network service ...
11:25:00 - Initializing network service ... completed.
11:25:00 - Initializing complete.
11:25:01 - Verifying grabbing system.
11:25:01 - Running camera callback.
11:25:01 - Camera reports 0
11:25:08 - Finished head tracker loop.
11:25:12 - Grabber loop finished.
11:25:12 - Process loop finished.
11:25:12 - Process loop finished.
11:25:12 - Process loop finished.
11:25:12 - Process loop finished.
11:25:12 - Output loop finished.
