13:01:22 - Initializing network service ...
13:01:23 - Initializing network service ... completed.
13:01:23 - Initializing complete.
13:01:56 - Verifying grabbing system.
13:01:56 - Camera reports 0
13:01:56 - 1: 0.00,0.00,0.00
13:01:56 - 2: 0.21,0.64,-0.63
13:01:56 - 3: 0.20,0.63,-0.79
13:01:56 - 4: 0.15,0.60,-0.81
13:02:01 - Finished head tracker loop.
13:02:10 - Error in EyeTrackerSettingsForm: Object reference not set to an instance of an object.
13:02:13 - Verifying grabbing system.
13:02:13 - Camera reports 0
13:02:13 - 514: 0.32,0.89,-0.67
13:02:13 - 515: 0.18,0.52,-1.01
13:02:13 - 516: 0.34,0.53,-0.69
13:02:13 - 517: 0.27,0.73,-0.56
