17:14:32 - Initializing network service ...
17:14:33 - Initializing network service ... completed.
17:14:33 - Initializing complete.
17:14:37 - Waiting for camera...
17:14:37 - Verifying grabbing system.
17:14:37 - Running camera callback.
