12:08:17 - Initializing network service ...
12:08:17 - Initializing network service ... completed.
12:08:18 - Initializing complete.
12:08:23 - Verifying grabbing system.
12:08:23 - Running camera callback.
12:08:30 - Finished head tracker loop.
12:08:38 - Error initializating the system, going into simulation mode.
12:08:38 - Object reference not set to an instance of an object.
12:08:41 - Grabber loop finished.
12:08:41 - Process loop finished.
12:08:41 - Process loop finished.
12:08:41 - Process loop finished.
12:08:41 - Process loop finished.
12:08:41 - Output loop finished.
