18:18:21 - Initializing network service ...
18:18:22 - Initializing network service ... completed.
18:18:22 - Initializing complete.
18:18:25 - Verifying grabbing system.
18:18:25 - Running camera callback.
18:18:26 - Camera reports 0
18:18:31 - Finished head tracker loop.
