15:52:45 - Initializing network service ...
15:52:45 - Initializing network service ... completed.
15:52:45 - Initializing complete.
15:52:49 - Verifying grabbing system.
15:52:49 - Running camera callback.
15:52:49 - 2016-10-18-15:52:49.869 0 M: KEYPRESS D: 1
15:52:49 - Camera reports 1
15:53:00 - Finished head tracker loop.
15:53:29 - Verifying grabbing system.
15:53:29 - Running camera callback.
15:53:29 - Camera reports 0
16:02:45 - Finished head tracker loop.
16:05:50 - Verifying grabbing system.
16:05:51 - Running camera callback.
16:05:51 - Camera reports 0
16:08:18 - Finished head tracker loop.
10:40:05 - Grabber loop finished.
10:40:05 - Process loop finished.
10:40:05 - Process loop finished.
10:40:05 - Process loop finished.
10:40:05 - Process loop finished.
10:40:05 - Output loop finished.
