14:59:15 - Initializing network service ...
14:59:15 - Initializing network service ... completed.
14:59:16 - Initializing complete.
15:00:09 - Verifying grabbing system.
15:00:10 - Running camera callback.
15:00:10 - Camera reports 0
15:04:02 - 0: L (293.20,173.94) +/- (0.10,0.15), R (317.54,128.49) +/- (0.21,0.07))
15:04:02 - 293.2024 0 0 0 0 0 0 0 0 
15:04:07 - 1: L (255.77,171.94) +/- (0.13,0.28), R (280.39,127.17) +/- (0.09,0.10))
15:04:07 - 293.2024 255.767 0 0 0 0 0 0 0 
15:04:12 - 2: L (218.60,173.47) +/- (0.09,0.29), R (242.42,129.38) +/- (0.16,0.11))
15:04:12 - 293.2024 255.767 218.5999 0 0 0 0 0 0 
15:04:17 - 3: L (292.01,206.18) +/- (0.46,0.02), R (318.45,160.02) +/- (0.27,0.03))
15:04:17 - 293.2024 255.767 218.5999 292.0136 0 0 0 0 0 
15:04:22 - 4: L (254.42,203.46) +/- (0.17,0.08), R (281.09,158.38) +/- (0.27,0.18))
15:04:22 - 293.2024 255.767 218.5999 292.0136 254.4155 0 0 0 0 
15:04:29 - 5: L (216.07,204.87) +/- (0.27,0.22), R (242.40,160.18) +/- (0.33,0.15))
15:04:29 - 293.2024 255.767 218.5999 292.0136 254.4155 216.0713 0 0 0 
15:04:35 - 6: L (286.65,238.79) +/- (0.15,0.07), R (318.32,193.31) +/- (0.21,0.04))
15:04:35 - 293.2024 255.767 218.5999 292.0136 254.4155 216.0713 286.6537 0 0 
15:04:40 - 7: L (249.44,238.14) +/- (0.28,0.13), R (282.11,191.87) +/- (0.23,0.05))
15:04:40 - 293.2024 255.767 218.5999 292.0136 254.4155 216.0713 286.6537 249.4432 0 
15:04:46 - 8: L (215.61,237.95) +/- (0.01,0.14), R (244.36,192.39) +/- (0.06,0.19))
15:04:46 - 293.2024 255.767 218.5999 292.0136 254.4155 216.0713 286.6537 249.4432 215.6145 
15:04:57 - Calibration finished
15:04:57 - Calibration loop finished.
15:14:11 - Finished EyeCollection`1 consumer  loop : 48078 frames queued; Queued: 35980-84057, Saved: 35980-84057
15:14:11 - Finished EyeTrackerDataAndImages consumer  loop : 48077 frames queued; Queued: 35980-84056, Saved: 35980-84056
15:14:11 - Finished EyeTrackerEvent consumer  loop : 0 frames queued; Queued: -1--1, Saved: -1--1
15:14:34 - Finished head tracker loop.
15:57:32 - Error initializating the system, going into simulation mode.
15:57:32 - Object reference not set to an instance of an object.
15:57:35 - Grabber loop finished.
15:57:35 - Process loop finished.
15:57:35 - Process loop finished.
15:57:35 - Process loop finished.
15:57:35 - Process loop finished.
15:57:35 - Output loop finished.
