12:33:51 - Initializing network service ...
12:33:52 - Error starting service: There is already a listener on IP endpoint 0.0.0.0:9000. This could happen if there is another application already listening on this endpoint or if you have multiple service endpoints in your service host with the same IP endpoint but with incompatible binding configurations.
12:33:52 - Initializing network service ... completed.
12:33:52 - Initializing complete.
12:33:54 - Verifying grabbing system.
12:33:54 - Running camera callback.
12:33:54 - Camera reports 0
12:33:59 - Calibration finished
12:33:59 - Calibration loop finished.
12:34:18 - Finished head tracker loop.
12:34:18 - Error details: lastRawFrameNumber: 2416, currentFrameNumber: 0
12:34:22 - Grabber loop finished.
12:34:22 - Process loop finished.
12:34:22 - Process loop finished.
12:34:22 - Process loop finished.
12:34:22 - Process loop finished.
12:34:22 - Output loop finished.
