17:41:25 - Initializing network service ...
17:41:25 - Initializing network service ... completed.
17:41:25 - Initializing complete.
17:49:31 - 2017-07-11-17:49:31.996 0 M: KEYPRESS D: 
17:49:32 - 2017-07-11-17:49:32.410 0 M: KEYPRESS D: 8
17:50:30 - Verifying grabbing system.
17:50:30 - Running camera callback.
17:50:30 - Camera reports 0
17:51:30 - 0: L (322.10,153.92) +/- (0.42,0.10), R (217.95,96.30) +/- (0.50,0.16))
17:51:30 - 322.0958 0 0 0 0 0 0 0 0 
17:51:36 - 1: L (295.79,152.17) +/- (0.52,0.07), R (188.94,95.50) +/- (0.25,0.06))
17:51:36 - 322.0958 295.7914 0 0 0 0 0 0 0 
17:51:43 - 2: L (268.55,153.12) +/- (0.71,0.05), R (161.23,97.16) +/- (0.34,0.02))
17:51:43 - 322.0958 295.7914 268.5522 0 0 0 0 0 0 
17:51:49 - 3: L (325.39,176.61) +/- (0.40,0.03), R (217.13,118.19) +/- (0.26,0.02))
17:51:49 - 322.0958 295.7914 268.5522 325.3924 0 0 0 0 0 
17:51:55 - 4: L (297.06,174.78) +/- (0.43,0.02), R (189.48,118.12) +/- (0.52,0.02))
17:51:55 - 322.0958 295.7914 268.5522 325.3924 297.0591 0 0 0 0 
17:52:02 - 5: L (269.32,175.43) +/- (0.12,0.02), R (160.94,119.30) +/- (0.10,0.06))
17:52:02 - 322.0958 295.7914 268.5522 325.3924 297.0591 269.3175 0 0 0 
17:52:08 - 6: L (324.18,199.09) +/- (0.59,0.04), R (217.93,141.32) +/- (0.70,0.04))
17:52:08 - 322.0958 295.7914 268.5522 325.3924 297.0591 269.3175 324.1785 0 0 
17:52:14 - 7: L (297.58,197.80) +/- (0.11,0.04), R (190.04,140.81) +/- (0.24,0.04))
17:52:14 - 322.0958 295.7914 268.5522 325.3924 297.0591 269.3175 324.1785 297.5816 0 
17:52:20 - 8: L (271.06,197.82) +/- (0.43,0.03), R (162.92,140.93) +/- (0.33,0.05))
17:52:20 - 322.0958 295.7914 268.5522 325.3924 297.0591 269.3175 324.1785 297.5816 271.0632 
17:52:33 - Calibration finished
17:52:33 - Calibration loop finished.
18:09:02 - Finished EyeCollection`1 consumer  loop : 94893 frames queued; Queued: 15234-110126, Saved: 15234-110126
18:09:02 - Finished EyeTrackerDataAndImages consumer  loop : 94892 frames queued; Queued: 15234-110125, Saved: 15234-110125
18:09:02 - Finished EyeTrackerEvent consumer  loop : 0 frames queued; Queued: -1--1, Saved: -1--1
18:09:39 - Finished head tracker loop.
18:09:47 - Grabber loop finished.
18:09:47 - Process loop finished.
18:09:47 - Process loop finished.
18:09:47 - Process loop finished.
18:09:47 - Process loop finished.
18:09:47 - Output loop finished.
