11:31:07 - Initializing network service ...
11:31:07 - Initializing network service ... completed.
11:31:07 - Initializing complete.
11:31:16 - Verifying grabbing system.
11:31:16 - Running camera callback.
11:31:16 - Waiting for camera...
11:31:16 - Camera reports 0
11:31:29 - Finished head tracker loop.
11:31:34 - Grabber loop finished.
11:31:34 - Process loop finished.
11:31:34 - Process loop finished.
11:31:34 - Process loop finished.
11:31:34 - Process loop finished.
11:31:34 - Output loop finished.
