10:14:18 - Initializing network service ...
10:14:19 - Error starting service: There is already a listener on IP endpoint 0.0.0.0:9000. This could happen if there is another application already listening on this endpoint or if you have multiple service endpoints in your service host with the same IP endpoint but with incompatible binding configurations.
10:14:19 - Initializing network service ... completed.
10:14:19 - Initializing complete.
10:42:40 - Verifying grabbing system.
10:42:40 - Running camera callback.
10:42:40 - Camera reports 1
10:42:54 - Calibration finished
10:42:54 - Calibration loop finished.
10:44:20 - Finished head tracker loop.
10:44:35 - Verifying grabbing system.
10:44:35 - Running camera callback.
10:44:35 - Camera reports 0
10:48:51 - Finished head tracker loop.
10:52:44 - Verifying grabbing system.
10:52:44 - Running camera callback.
10:52:44 - Camera reports 0
10:52:54 - Calibration finished
10:52:54 - Calibration loop finished.
11:05:02 - 2016-10-19-11:05:02.298 73715 M: KEYPRESS D: \
11:05:03 - 2016-10-19-11:05:03.218 73807 M: KEYPRESS D: 
11:05:03 - 2016-10-19-11:05:03.440 73829 M: KEYPRESS D: 8
11:06:58 - 0: L (280.38,157.04) +/- (0.55,1.05), R (229.89,143.98) +/- (0.58,0.50))
11:07:00 - 280.3842 0 0 0 0 0 0 0 0 
11:07:08 - 1: L (250.42,156.43) +/- (0.22,0.02), R (200.51,141.64) +/- (0.24,0.02))
11:07:08 - 280.3842 250.4217 0 0 0 0 0 0 0 
11:07:14 - 2: L (220.46,155.98) +/- (0.67,0.11), R (173.54,139.36) +/- (0.59,0.09))
11:07:14 - 280.3842 250.4217 220.4551 0 0 0 0 0 0 
11:07:20 - 3: L (282.23,179.40) +/- (0.21,0.02), R (225.74,167.60) +/- (0.15,0.03))
11:07:20 - 280.3842 250.4217 220.4551 282.2284 0 0 0 0 0 
11:07:26 - 4: L (252.24,178.85) +/- (0.26,0.10), R (196.30,164.30) +/- (0.27,0.07))
11:07:26 - 280.3842 250.4217 220.4551 282.2284 252.2352 0 0 0 0 
11:07:31 - 5: L (222.06,179.03) +/- (0.10,0.21), R (167.78,162.39) +/- (0.19,0.04))
11:07:31 - 280.3842 250.4217 220.4551 282.2284 252.2352 222.055 0 0 0 
11:07:36 - 6: L (283.56,204.22) +/- (0.82,0.08), R (220.19,192.96) +/- (0.54,0.04))
11:07:36 - 280.3842 250.4217 220.4551 282.2284 252.2352 222.055 283.5625 0 0 
11:07:41 - 7: L (254.40,204.10) +/- (0.28,0.05), R (191.02,189.83) +/- (0.23,0.01))
11:07:41 - 280.3842 250.4217 220.4551 282.2284 252.2352 222.055 283.5625 254.3987 0 
11:07:46 - 8: L (223.39,206.43) +/- (1.12,0.26), R (163.88,189.50) +/- (0.72,0.20))
11:07:46 - 280.3842 250.4217 220.4551 282.2284 252.2352 222.055 283.5625 254.3987 223.3909 
11:07:59 - Calibration finished
11:07:59 - Calibration loop finished.
11:32:33 - Finished EyeCollection`1 consumer  loop : 137089 frames queued; Queued: 101627-238715, Saved: 101627-238715
11:32:33 - Finished EyeTrackerDataAndImages consumer  loop : 137088 frames queued; Queued: 101627-238714, Saved: 101627-238714
11:32:33 - Finished EyeTrackerEvent consumer  loop : 0 frames queued; Queued: -1--1, Saved: -1--1
11:32:37 - Finished head tracker loop.
11:41:22 - Verifying grabbing system.
11:41:22 - Running camera callback.
11:41:23 - Camera reports 0
11:41:25 - Finished head tracker loop.
11:43:03 - Verifying grabbing system.
11:43:03 - Running camera callback.
11:43:03 - Camera reports 0
11:43:13 - 0: L (112.18,102.98) +/- (12588.47,10609.07), R (81.55,94.89) +/- (6655.09,9006.64))
11:43:13 - 112.1768 0 0 0 0 0 0 0 0 
11:43:14 - An error occured, cannot finalize calibration implmentation.
11:43:14 - Calibration loop finished.
11:45:37 - 0: L (282.73,175.16) +/- (0.36,0.13), R (230.55,160.39) +/- (0.41,0.07))
11:45:37 - 282.7317 0 0 0 0 0 0 0 0 
11:45:42 - 1: L (252.73,172.61) +/- (0.04,0.01), R (200.66,156.20) +/- (0.03,0.05))
11:45:42 - 282.7317 252.7278 0 0 0 0 0 0 0 
11:45:47 - 2: L (221.46,174.07) +/- (1.08,0.08), R (172.06,157.15) +/- (0.61,0.11))
11:45:47 - 282.7317 252.7278 221.4597 0 0 0 0 0 0 
11:45:51 - 3: L (285.47,197.22) +/- (0.17,0.14), R (223.87,184.47) +/- (0.39,0.13))
11:45:52 - 282.7317 252.7278 221.4597 285.4695 0 0 0 0 0 
11:45:56 - 4: L (256.12,194.62) +/- (0.63,0.56), R (194.55,179.94) +/- (0.61,0.52))
11:45:57 - 282.7317 252.7278 221.4597 285.4695 256.1201 0 0 0 0 
11:46:01 - 5: L (223.29,194.03) +/- (0.89,0.20), R (168.41,177.13) +/- (0.79,0.05))
11:46:01 - 282.7317 252.7278 221.4597 285.4695 256.1201 223.2864 0 0 0 
11:46:05 - 6: L (286.11,219.12) +/- (0.46,0.04), R (220.71,207.14) +/- (0.24,0.08))
11:46:05 - 282.7317 252.7278 221.4597 285.4695 256.1201 223.2864 286.1084 0 0 
11:46:10 - 7: L (257.27,218.03) +/- (0.23,0.25), R (189.99,203.65) +/- (0.37,0.32))
11:46:10 - 282.7317 252.7278 221.4597 285.4695 256.1201 223.2864 286.1084 257.2702 0 
11:46:15 - 8: L (226.83,218.63) +/- (0.13,0.05), R (162.19,202.81) +/- (0.12,0.10))
11:46:15 - 282.7317 252.7278 221.4597 285.4695 256.1201 223.2864 286.1084 257.2702 226.8326 
11:46:27 - Calibration finished
11:46:27 - Calibration loop finished.
11:56:17 - Finished EyeCollection`1 consumer  loop : 51231 frames queued; Queued: 28078-79308, Saved: 28078-79308
11:56:17 - Finished EyeTrackerDataAndImages consumer  loop : 51231 frames queued; Queued: 28078-79308, Saved: 28078-79308
11:56:17 - Finished EyeTrackerEvent consumer  loop : 0 frames queued; Queued: -1--1, Saved: -1--1
12:05:35 - Finished EyeCollection`1 consumer  loop : 54029 frames queued; Queued: 81047-135075, Saved: 81047-135075
12:05:35 - Finished EyeTrackerDataAndImages consumer  loop : 54029 frames queued; Queued: 81047-135075, Saved: 81047-135075
12:05:35 - Finished EyeTrackerEvent consumer  loop : 0 frames queued; Queued: -1--1, Saved: -1--1
12:05:53 - Finished head tracker loop.
12:07:59 - Verifying grabbing system.
12:07:59 - Running camera callback.
12:07:59 - Camera reports 0
12:08:06 - 0: L (242.63,210.68) +/- (363.74,346.31), R (182.51,195.37) +/- (586.76,315.37))
12:08:06 - 242.6349 0 0 0 0 0 0 0 0 
12:08:07 - An error occured, cannot finalize calibration implmentation.
12:08:07 - Calibration loop finished.
12:14:40 - 0: L (271.11,166.95) +/- (146.43,0.88), R (223.82,135.21) +/- (148.17,1.00))
12:14:40 - 271.1093 0 0 0 0 0 0 0 0 
12:14:44 - 1: L (263.44,163.98) +/- (0.45,0.74), R (216.07,133.74) +/- (0.28,0.23))
12:14:44 - 271.1093 263.4355 0 0 0 0 0 0 0 
12:14:47 - An error occured, cannot finalize calibration implmentation.
12:14:47 - Calibration loop finished.
12:14:52 - 0: L (293.43,161.99) +/- (0.59,0.55), R (245.85,135.66) +/- (1.42,0.23))
12:14:52 - 293.4297 0 0 0 0 0 0 0 0 
12:14:57 - 1: L (261.12,158.29) +/- (0.75,0.10), R (214.11,131.86) +/- (0.64,0.08))
12:14:57 - 293.4297 261.1188 0 0 0 0 0 0 0 
12:15:02 - 2: L (228.08,156.07) +/- (1.03,0.15), R (184.18,130.08) +/- (0.79,0.06))
12:15:02 - 293.4297 261.1188 228.0842 0 0 0 0 0 0 
12:15:06 - 3: L (294.26,181.65) +/- (0.68,0.12), R (240.55,160.03) +/- (0.77,0.07))
12:15:06 - 293.4297 261.1188 228.0842 294.2624 0 0 0 0 0 
12:15:11 - 4: L (262.57,178.26) +/- (0.65,0.08), R (208.62,154.69) +/- (0.71,0.25))
12:15:11 - 293.4297 261.1188 228.0842 294.2624 262.5704 0 0 0 0 
12:15:16 - 5: L (229.68,176.51) +/- (0.17,0.10), R (178.22,150.91) +/- (0.17,0.05))
12:15:16 - 293.4297 261.1188 228.0842 294.2624 262.5704 229.677 0 0 0 
12:15:21 - 6: L (294.93,205.83) +/- (0.04,0.03), R (232.73,184.11) +/- (0.46,0.06))
12:15:21 - 293.4297 261.1188 228.0842 294.2624 262.5704 229.677 294.9295 0 0 
12:15:26 - 7: L (266.18,202.25) +/- (0.14,0.01), R (200.35,180.09) +/- (0.19,0.02))
12:15:26 - 293.4297 261.1188 228.0842 294.2624 262.5704 229.677 294.9295 266.1805 0 
12:15:30 - 8: L (235.51,202.56) +/- (0.29,0.01), R (170.32,177.84) +/- (0.03,0.03))
12:15:30 - 293.4297 261.1188 228.0842 294.2624 262.5704 229.677 294.9295 266.1805 235.5138 
12:15:42 - Calibration finished
12:15:42 - Calibration loop finished.
12:22:05 - Finished EyeCollection`1 consumer  loop : 34579 frames queued; Queued: 49992-84570, Saved: 49992-84570
12:22:05 - Finished EyeTrackerDataAndImages consumer  loop : 34579 frames queued; Queued: 49992-84570, Saved: 49992-84570
12:22:05 - Finished EyeTrackerEvent consumer  loop : 0 frames queued; Queued: -1--1, Saved: -1--1
12:28:12 - Finished EyeCollection`1 consumer  loop : 35776 frames queued; Queued: 85379-121154, Saved: 85379-121154
12:28:12 - Finished EyeTrackerDataAndImages consumer  loop : 35776 frames queued; Queued: 85379-121154, Saved: 85379-121154
12:28:12 - Finished EyeTrackerEvent consumer  loop : 0 frames queued; Queued: -1--1, Saved: -1--1
12:38:02 - 0: L (117.73,100.19) +/- (14140.34,10240.28), R (84.30,88.03) +/- (7250.62,7905.65))
12:38:03 - 117.7292 0 0 0 0 0 0 0 0 
12:38:03 - An error occured, cannot finalize calibration implmentation.
12:38:03 - Calibration loop finished.
12:38:54 - 0: L (283.11,167.30) +/- (0.60,0.19), R (236.11,140.00) +/- (0.39,0.35))
12:38:55 - 283.1142 0 0 0 0 0 0 0 0 
12:38:59 - 1: L (252.21,164.39) +/- (0.08,0.03), R (205.59,135.48) +/- (0.08,0.02))
12:38:59 - 283.1142 252.2136 0 0 0 0 0 0 0 
12:39:04 - 2: L (218.81,163.36) +/- (0.16,0.06), R (176.53,133.59) +/- (0.11,0.07))
12:39:04 - 283.1142 252.2136 218.8073 0 0 0 0 0 0 
12:39:08 - 3: L (286.67,188.53) +/- (0.14,0.07), R (228.67,161.81) +/- (0.48,0.04))
12:39:08 - 283.1142 252.2136 218.8073 286.6672 0 0 0 0 0 
12:39:13 - 4: L (254.34,185.64) +/- (0.04,0.05), R (198.76,156.96) +/- (0.31,0.07))
12:39:13 - 283.1142 252.2136 218.8073 286.6672 254.3388 0 0 0 0 
12:39:18 - 5: L (221.63,186.50) +/- (0.34,0.05), R (168.59,155.11) +/- (0.14,0.12))
12:39:18 - 283.1142 252.2136 218.8073 286.6672 254.3388 221.63 0 0 0 
12:39:22 - 6: L (287.47,214.54) +/- (0.53,0.07), R (224.16,186.93) +/- (0.49,0.07))
12:39:22 - 283.1142 252.2136 218.8073 286.6672 254.3388 221.63 287.4688 0 0 
12:39:26 - 7: L (254.08,212.22) +/- (0.45,0.09), R (193.24,183.01) +/- (0.43,0.04))
12:39:27 - 283.1142 252.2136 218.8073 286.6672 254.3388 221.63 287.4688 254.0784 0 
12:39:31 - 8: L (223.04,212.91) +/- (0.94,0.04), R (163.97,180.80) +/- (0.83,0.04))
12:39:31 - 283.1142 252.2136 218.8073 286.6672 254.3388 221.63 287.4688 254.0784 223.0359 
12:39:44 - Calibration finished
12:39:44 - Calibration loop finished.
12:47:04 - Finished EyeCollection`1 consumer  loop : 39233 frames queued; Queued: 195143-234375, Saved: 195143-234375
12:47:04 - Finished EyeTrackerDataAndImages consumer  loop : 39233 frames queued; Queued: 195143-234375, Saved: 195143-234375
12:47:04 - Finished EyeTrackerEvent consumer  loop : 0 frames queued; Queued: -1--1, Saved: -1--1
12:53:03 - Finished EyeCollection`1 consumer  loop : 35525 frames queued; Queued: 234644-270168, Saved: 234644-270168
12:53:03 - Finished EyeTrackerDataAndImages consumer  loop : 35525 frames queued; Queued: 234644-270168, Saved: 234644-270168
12:53:03 - Finished EyeTrackerEvent consumer  loop : 0 frames queued; Queued: -1--1, Saved: -1--1
12:53:25 - Finished head tracker loop.
14:08:46 - Error initializating the system, going into simulation mode.
14:08:46 - Object reference not set to an instance of an object.
14:08:50 - Grabber loop finished.
14:08:50 - Process loop finished.
14:08:50 - Process loop finished.
14:08:50 - Process loop finished.
14:08:50 - Process loop finished.
14:08:50 - Output loop finished.
