17:15:02 - Initializing network service ...
17:15:02 - Initializing network service ... completed.
17:15:02 - Initializing complete.
17:15:14 - Error initializating the system, going into simulation mode.
17:15:14 - Object reference not set to an instance of an object.
