18:47:58 - Initializing network service ...
18:47:58 - Initializing network service ... completed.
18:47:58 - Initializing complete.
18:48:00 - Verifying grabbing system.
18:48:00 - Running camera callback.
18:48:14 - Camera reports 1
18:48:30 - Finished head tracker loop.
18:48:32 - Grabber loop finished.
18:48:32 - Process loop finished.
18:48:32 - Process loop finished.
18:48:32 - Process loop finished.
18:48:32 - Process loop finished.
18:48:32 - Output loop finished.
