08:11:41 - Initializing network service ...
08:11:41 - Initializing network service ... completed.
08:11:42 - Initializing complete.
08:11:58 - Verifying grabbing system.
08:11:58 - Running camera callback.
08:11:58 - Camera reports 0
08:12:03 - Finished head tracker loop.
08:37:31 - Verifying grabbing system.
08:37:31 - Running camera callback.
08:37:32 - Camera reports 0
08:40:47 - 2017-08-09-08:40:47.766 19395 M: KEYPRESS D: 
08:40:47 - 2017-08-09-08:40:47.816 19400 M: KEYPRESS D: 3
08:43:02 - 0: L (348.94,135.39) +/- (14322.11,2471.02), R (295.43,109.26) +/- (7052.89,679.51))
08:43:02 - 348.9353 0 0 0 0 0 0 0 0 
08:43:03 - An error occured, cannot finalize calibration implmentation.
08:43:03 - Calibration loop finished.
08:43:13 - 0: L (357.73,156.61) +/- (0.10,0.10), R (296.36,119.88) +/- (0.14,0.20))
08:43:13 - 357.7261 0 0 0 0 0 0 0 0 
08:43:23 - 1: L (328.80,156.88) +/- (0.05,0.06), R (264.94,121.82) +/- (0.08,0.08))
08:43:23 - 357.7261 328.8042 0 0 0 0 0 0 0 
08:43:30 - 2: L (300.32,158.37) +/- (0.07,0.04), R (233.47,124.65) +/- (0.09,0.06))
08:43:40 - 3: L (359.29,181.21) +/- (0.08,0.13), R (298.16,146.93) +/- (0.11,0.06))
08:43:46 - 4: L (330.80,181.90) +/- (0.11,0.07), R (266.66,148.10) +/- (0.63,0.49))
08:43:53 - 5: L (301.95,183.01) +/- (0.07,0.11), R (236.87,150.66) +/- (0.07,0.12))
08:44:02 - 6: L (360.55,206.44) +/- (0.06,0.05), R (300.25,174.00) +/- (0.16,0.24))
08:44:08 - 7: L (333.25,206.72) +/- (0.04,0.04), R (269.07,177.39) +/- (0.21,0.12))
08:44:15 - 8: L (304.46,208.06) +/- (0.12,0.13), R (238.89,178.97) +/- (0.19,0.17))
08:44:24 - 357.7261 328.8042 300.3179 359.2852 330.7972 301.9456 360.5489 333.2523 304.4594 
08:44:26 - Calibration finished
08:44:26 - Calibration loop finished.
08:57:35 - Finished EyeCollection`1 consumer  loop : 56443 frames queued; Queued: 62823-119265, Saved: 62823-119265
08:57:35 - Finished EyeTrackerDataAndImages consumer  loop : 56443 frames queued; Queued: 62823-119265, Saved: 62823-119265
08:57:35 - Finished EyeTrackerEvent consumer  loop : 0 frames queued; Queued: -1--1, Saved: -1--1
09:00:47 - Finished EyeCollection`1 consumer  loop : 16529 frames queued; Queued: 121824-138352, Saved: 121824-138352
09:00:47 - Finished EyeTrackerDataAndImages consumer  loop : 16529 frames queued; Queued: 121824-138352, Saved: 121824-138352
09:00:47 - Finished EyeTrackerEvent consumer  loop : 0 frames queued; Queued: -1--1, Saved: -1--1
09:04:10 - Finished EyeCollection`1 consumer  loop : 19294 frames queued; Queued: 139154-158447, Saved: 139154-158447
09:04:10 - Finished EyeTrackerDataAndImages consumer  loop : 19293 frames queued; Queued: 139154-158446, Saved: 139154-158446
09:04:10 - Finished EyeTrackerEvent consumer  loop : 0 frames queued; Queued: -1--1, Saved: -1--1
09:09:53 - Finished EyeCollection`1 consumer  loop : 32854 frames queued; Queued: 159537-192390, Saved: 159537-192390
09:09:53 - Finished EyeTrackerDataAndImages consumer  loop : 32852 frames queued; Queued: 159537-192388, Saved: 159537-192388
09:09:53 - Finished EyeTrackerEvent consumer  loop : 0 frames queued; Queued: -1--1, Saved: -1--1
09:16:50 - Finished EyeCollection`1 consumer  loop : 37840 frames queued; Queued: 195889-233728, Saved: 195889-233728
09:16:50 - Finished EyeTrackerDataAndImages consumer  loop : 37838 frames queued; Queued: 195889-233726, Saved: 195889-233726
09:16:50 - Finished EyeTrackerEvent consumer  loop : 0 frames queued; Queued: -1--1, Saved: -1--1
09:22:57 - Finished EyeCollection`1 consumer  loop : 34698 frames queued; Queued: 235433-270130, Saved: 235433-270130
09:22:57 - Finished EyeTrackerDataAndImages consumer  loop : 34696 frames queued; Queued: 235433-270128, Saved: 235433-270128
09:22:57 - Finished EyeTrackerEvent consumer  loop : 0 frames queued; Queued: -1--1, Saved: -1--1
09:30:03 - Calibration finished
09:30:03 - Calibration loop finished.
09:31:10 - Calibration finished
09:31:10 - Calibration loop finished.
09:31:11 - Calibration finished
09:31:11 - Calibration loop finished.
09:41:53 - Finished EyeCollection`1 consumer  loop : 111010 frames queued; Queued: 271670-382679, Saved: 271670-382679
09:41:53 - Finished EyeTrackerDataAndImages consumer  loop : 111000 frames queued; Queued: 271670-382669, Saved: 271670-382669
09:41:53 - Finished EyeTrackerEvent consumer  loop : 0 frames queued; Queued: -1--1, Saved: -1--1
09:51:15 - Finished EyeCollection`1 consumer  loop : 32550 frames queued; Queued: 405894-438443, Saved: 405894-438443
09:51:15 - Finished EyeTrackerDataAndImages consumer  loop : 32548 frames queued; Queued: 405894-438441, Saved: 405894-438441
09:51:15 - Finished EyeTrackerEvent consumer  loop : 0 frames queued; Queued: -1--1, Saved: -1--1
09:56:03 - Finished EyeCollection`1 consumer  loop : 28050 frames queued; Queued: 438951-467000, Saved: 438951-467000
09:56:03 - Finished EyeTrackerDataAndImages consumer  loop : 28049 frames queued; Queued: 438951-466999, Saved: 438951-466999
09:56:03 - Finished EyeTrackerEvent consumer  loop : 0 frames queued; Queued: -1--1, Saved: -1--1
10:02:03 - Finished EyeCollection`1 consumer  loop : 22156 frames queued; Queued: 480508-502663, Saved: 480508-502663
10:02:03 - Finished EyeTrackerDataAndImages consumer  loop : 22152 frames queued; Queued: 480508-502659, Saved: 480508-502659
10:02:03 - Finished EyeTrackerEvent consumer  loop : 0 frames queued; Queued: -1--1, Saved: -1--1
10:08:26 - Finished EyeCollection`1 consumer  loop : 37431 frames queued; Queued: 503176-540606, Saved: 503176-540606
10:08:26 - Finished EyeTrackerDataAndImages consumer  loop : 37430 frames queued; Queued: 503176-540605, Saved: 503176-540605
10:08:26 - Finished EyeTrackerEvent consumer  loop : 0 frames queued; Queued: -1--1, Saved: -1--1
10:24:13 - Finished EyeCollection`1 consumer  loop : 47187 frames queued; Queued: 587310-634496, Saved: 587310-634496
10:24:13 - Finished EyeTrackerDataAndImages consumer  loop : 47185 frames queued; Queued: 587310-634494, Saved: 587310-634494
10:24:13 - Finished EyeTrackerEvent consumer  loop : 0 frames queued; Queued: -1--1, Saved: -1--1
10:28:30 - Finished EyeCollection`1 consumer  loop : 23451 frames queued; Queued: 636501-659951, Saved: 636501-659951
10:28:30 - Finished EyeTrackerDataAndImages consumer  loop : 23448 frames queued; Queued: 636501-659948, Saved: 636501-659948
10:28:30 - Finished EyeTrackerEvent consumer  loop : 0 frames queued; Queued: -1--1, Saved: -1--1
10:34:59 - Finished EyeCollection`1 consumer  loop : 38367 frames queued; Queued: 660124-698490, Saved: 660124-698490
10:34:59 - Finished EyeTrackerDataAndImages consumer  loop : 38364 frames queued; Queued: 660124-698487, Saved: 660124-698487
10:34:59 - Finished EyeTrackerEvent consumer  loop : 0 frames queued; Queued: -1--1, Saved: -1--1
10:39:09 - Finished EyeCollection`1 consumer  loop : 23982 frames queued; Queued: 699244-723225, Saved: 699244-723225
10:39:09 - Finished EyeTrackerDataAndImages consumer  loop : 23981 frames queued; Queued: 699244-723224, Saved: 699244-723224
10:39:09 - Finished EyeTrackerEvent consumer  loop : 0 frames queued; Queued: -1--1, Saved: -1--1
10:45:22 - Finished head tracker loop.
16:06:36 - Verifying grabbing system.
16:06:36 - Running camera callback.
16:06:36 - Camera reports 0
16:08:51 - 0: L (317.42,167.57) +/- (161.43,1521.16), R (253.08,143.80) +/- (193.17,1237.51))
16:08:51 - 317.4179 0 0 0 0 0 0 0 0 
16:08:52 - An error occured, cannot finalize calibration implmentation.
16:08:52 - Calibration loop finished.
16:09:05 - 0: L (352.43,104.79) +/- (0.04,0.02), R (291.98,80.65) +/- (0.06,0.07))
16:09:11 - 1: L (324.40,104.91) +/- (0.15,0.03), R (260.87,81.99) +/- (0.14,0.16))
16:09:11 - 352.4275 324.4023 0 0 0 0 0 0 0 
16:09:16 - An error occured, cannot finalize calibration implmentation.
16:09:16 - Calibration loop finished.
16:09:22 - 0: L (353.28,104.81) +/- (0.13,0.02), R (292.57,80.63) +/- (0.14,0.03))
16:09:23 - 353.2849 0 0 0 0 0 0 0 0 
16:09:28 - 1: L (324.78,104.61) +/- (0.07,0.03), R (261.84,81.47) +/- (0.12,0.03))
16:09:28 - 353.2849 324.7847 0 0 0 0 0 0 0 
16:09:34 - 2: L (296.16,107.51) +/- (0.13,0.07), R (231.00,85.56) +/- (0.02,0.30))
16:09:35 - 353.2849 324.7847 296.1596 0 0 0 0 0 0 
16:09:40 - 3: L (355.42,128.95) +/- (0.09,0.32), R (294.59,107.00) +/- (0.11,0.17))
16:09:41 - 353.2849 324.7847 296.1596 355.4241 0 0 0 0 0 
16:09:47 - 4: L (327.00,129.11) +/- (0.05,0.14), R (263.32,108.17) +/- (0.36,0.55))
16:09:48 - 353.2849 324.7847 296.1596 355.4241 326.9972 0 0 0 0 
16:09:54 - 5: L (298.77,131.13) +/- (0.12,0.16), R (233.56,112.40) +/- (0.17,0.15))
16:09:54 - 353.2849 324.7847 296.1596 355.4241 326.9972 298.7694 0 0 0 
16:10:00 - 6: L (357.05,152.88) +/- (0.12,0.10), R (296.27,133.91) +/- (0.18,0.14))
16:10:00 - 353.2849 324.7847 296.1596 355.4241 326.9972 298.7694 357.0453 0 0 
16:10:06 - 7: L (329.82,153.98) +/- (0.17,0.11), R (266.65,136.73) +/- (0.21,0.12))
16:10:07 - 353.2849 324.7847 296.1596 355.4241 326.9972 298.7694 357.0453 329.8158 0 
16:10:13 - 8: L (302.47,155.91) +/- (0.07,0.05), R (236.50,139.85) +/- (0.10,0.07))
16:10:14 - 353.2849 324.7847 296.1596 355.4241 326.9972 298.7694 357.0453 329.8158 302.4673 
16:10:21 - Calibration finished
16:10:21 - Calibration loop finished.
16:16:18 - Finished EyeCollection`1 consumer  loop : 29067 frames queued; Queued: 28624-57690, Saved: 28624-57690
16:16:18 - Finished EyeTrackerDataAndImages consumer  loop : 29066 frames queued; Queued: 28624-57689, Saved: 28624-57689
16:16:18 - Finished EyeTrackerEvent consumer  loop : 0 frames queued; Queued: -1--1, Saved: -1--1
16:19:59 - Finished EyeCollection`1 consumer  loop : 19102 frames queued; Queued: 60553-79654, Saved: 60553-79654
16:19:59 - Finished EyeTrackerDataAndImages consumer  loop : 19100 frames queued; Queued: 60553-79652, Saved: 60553-79652
16:19:59 - Finished EyeTrackerEvent consumer  loop : 0 frames queued; Queued: -1--1, Saved: -1--1
16:26:46 - 0: L (326.68,125.05) +/- (599.70,909.50), R (265.76,107.06) +/- (875.61,1017.66))
16:26:47 - 326.6839 0 0 0 0 0 0 0 0 
16:26:52 - An error occured, cannot finalize calibration implmentation.
16:26:52 - Calibration loop finished.
16:26:57 - 0: L (354.20,101.49) +/- (0.67,0.64), R (294.99,81.19) +/- (0.23,0.06))
16:26:57 - 354.1994 0 0 0 0 0 0 0 0 
16:27:03 - 1: L (324.33,102.32) +/- (0.10,0.03), R (261.27,83.09) +/- (0.16,0.08))
16:27:04 - 354.1994 324.3326 0 0 0 0 0 0 0 
16:27:09 - 2: L (293.68,104.17) +/- (0.23,0.13), R (228.18,86.18) +/- (0.36,0.11))
16:27:10 - 354.1994 324.3326 293.6767 0 0 0 0 0 0 
16:27:16 - 3: L (357.33,127.97) +/- (0.24,0.03), R (297.42,108.52) +/- (0.18,0.17))
16:27:16 - 354.1994 324.3326 293.6767 357.3318 0 0 0 0 0 
16:27:21 - 4: L (327.02,126.93) +/- (0.08,0.06), R (264.53,110.15) +/- (0.06,0.09))
16:27:23 - 354.1994 324.3326 293.6767 357.3318 327.0191 0 0 0 0 
16:27:28 - 5: L (297.05,130.22) +/- (0.12,0.08), R (231.56,114.47) +/- (0.16,0.06))
16:27:29 - 354.1994 324.3326 293.6767 357.3318 327.0191 297.0494 0 0 0 
16:27:34 - 6: L (359.13,153.93) +/- (0.08,0.06), R (299.47,138.91) +/- (0.19,0.09))
16:27:35 - 354.1994 324.3326 293.6767 357.3318 327.0191 297.0494 359.1299 0 0 
16:27:40 - 7: L (330.26,153.89) +/- (0.06,0.26), R (266.88,140.35) +/- (0.05,0.12))
16:27:41 - 354.1994 324.3326 293.6767 357.3318 327.0191 297.0494 359.1299 330.2592 0 
16:27:47 - 8: L (300.60,156.46) +/- (0.57,0.03), R (235.43,143.58) +/- (0.37,0.08))
16:27:49 - 354.1994 324.3326 293.6767 357.3318 327.0191 297.0494 359.1299 330.2592 300.5953 
16:27:55 - Calibration finished
16:27:55 - Calibration loop finished.
16:35:51 - Finished EyeCollection`1 consumer  loop : 41111 frames queued; Queued: 132877-173987, Saved: 132877-173987
16:35:51 - Finished EyeTrackerDataAndImages consumer  loop : 41109 frames queued; Queued: 132877-173985, Saved: 132877-173985
16:35:51 - Finished EyeTrackerEvent consumer  loop : 0 frames queued; Queued: -1--1, Saved: -1--1
16:43:17 - Finished EyeCollection`1 consumer  loop : 41681 frames queued; Queued: 176486-218166, Saved: 176486-218166
16:43:17 - Finished EyeTrackerDataAndImages consumer  loop : 41680 frames queued; Queued: 176486-218165, Saved: 176486-218165
16:43:17 - Finished EyeTrackerEvent consumer  loop : 0 frames queued; Queued: -1--1, Saved: -1--1
16:54:38 - Finished EyeCollection`1 consumer  loop : 34722 frames queued; Queued: 250941-285662, Saved: 250941-285662
16:54:38 - Finished EyeTrackerDataAndImages consumer  loop : 34720 frames queued; Queued: 250941-285660, Saved: 250941-285660
16:54:38 - Finished EyeTrackerEvent consumer  loop : 0 frames queued; Queued: -1--1, Saved: -1--1
17:00:41 - Finished EyeCollection`1 consumer  loop : 33873 frames queued; Queued: 287741-321613, Saved: 287741-321613
17:00:41 - Finished EyeTrackerDataAndImages consumer  loop : 33872 frames queued; Queued: 287741-321612, Saved: 287741-321612
17:00:41 - Finished EyeTrackerEvent consumer  loop : 0 frames queued; Queued: -1--1, Saved: -1--1
17:02:28 - Error details: lastRawFrameNumber: 332234, currentFrameNumber: 0
17:02:28 - Error grabbing: Frame counter is not consistently growing!.
17:02:28 - FATAL ERROR: FlyCapture2Managed.FC2Exception: Low level failure reading register 0x70008. Error: 0x15.
   at FlyCapture2Managed.ManagedCameraBase.ReadRegister(UInt32 address)
   at OculomotorLab.VOG.ImageGrabbing.CameraEyePointGreyLabyrinth.ReadSensors() in c:\VOG\Labyrinth VOG Software - MVI Working Version - Testing Software Trigger\labyrinth\LabryinthVOG\ImageGrabbing\CameraEyePointGreyLabyrinth.cs:line 710
   at OculomotorLab.VOG.ImageGrabbing.CameraEyePointGreyLabyrinth.HeadSensorLabyrinth.GrabHeadData(Boolean SoftwareTriggerOn) in c:\VOG\Labyrinth VOG Software - MVI Working Version - Testing Software Trigger\labyrinth\LabryinthVOG\HeadTracking\HeadSensorLabyrinth.cs:line 62
   at OculomotorLab.VOG.EyeTrackerHeadTracker.TrackingLoop() in c:\VOG\Labyrinth VOG Software - MVI Working Version - Testing Software Trigger\source\VOGLib\HeadTracking\EyeTrackerHeadTracker.cs:line 235
17:02:28 - FATAL ERROR: System.InvalidOperationException: Frame counter is not consistently growing!.
   at OculomotorLab.VOG.ImageGrabbing.CameraEyePointGreyLabyrinth.GrabImageEye() in c:\VOG\Labyrinth VOG Software - MVI Working Version - Testing Software Trigger\labyrinth\LabryinthVOG\ImageGrabbing\CameraEyePointGreyLabyrinth.cs:line 639
   at OculomotorLab.VOG.EyeTrackerImageGrabber.GrabImages() in c:\VOG\Labyrinth VOG Software - MVI Working Version - Testing Software Trigger\source\VOGLib\EyeTrackerImageGrabber.cs:line 552
   at OculomotorLab.VOG.EyeTrackerImageGrabber.GrabLoop() in c:\VOG\Labyrinth VOG Software - MVI Working Version - Testing Software Trigger\source\VOGLib\EyeTrackerImageGrabber.cs:line 478
