16:53:23 - Initializing network service ...
16:53:24 - Initializing network service ... completed.
16:53:24 - Initializing complete.
16:53:29 - Verifying grabbing system.
16:53:29 - Running camera callback.
16:53:29 - Camera reports 0
16:53:32 - Finished head tracker loop.
