16:09:13 - Initializing network service ...
16:09:15 - Initializing network service ... completed.
16:09:15 - Initializing complete.
16:09:19 - Waiting for camera...
16:09:19 - Verifying grabbing system.
16:09:19 - Running camera callback.
16:09:19 - Camera reports 0
16:09:25 - 0: L (234.37,214.09) +/- (25.32,14.96), R (269.83,116.14) +/- (26.97,14.85))
16:09:25 - 234.3717 0 0 0 0 0 0 0 0 
16:09:27 - 1: L (213.18,213.72) +/- (0.04,0.26), R (245.88,114.44) +/- (0.05,0.25))
16:09:27 - 234.3717 213.1774 0 0 0 0 0 0 0 
16:09:30 - 2: L (401.37,196.69) +/- (10732.17,92.94), R (221.12,113.77) +/- (0.23,0.23))
16:09:30 - 234.3717 213.1774 401.3672 0 0 0 0 0 0 
16:09:33 - 3: L (240.15,235.45) +/- (0.04,0.20), R (270.82,138.62) +/- (0.05,0.15))
16:09:33 - 234.3717 213.1774 401.3672 240.1498 0 0 0 0 0 
16:09:35 - 4: L (215.20,234.86) +/- (0.06,0.05), R (245.71,136.72) +/- (0.05,0.10))
16:09:35 - 234.3717 213.1774 401.3672 240.1498 215.2016 0 0 0 0 
16:09:38 - 5: L (189.96,236.27) +/- (0.03,0.09), R (220.30,137.15) +/- (0.03,0.17))
16:09:38 - 234.3717 213.1774 401.3672 240.1498 215.2016 189.9564 0 0 0 
16:09:41 - 6: L (239.72,255.64) +/- (0.32,0.18), R (273.26,160.40) +/- (0.11,0.14))
16:09:41 - 234.3717 213.1774 401.3672 240.1498 215.2016 189.9564 239.7173 0 0 
16:09:44 - 7: L (215.08,248.26) +/- (0.20,2.92), R (249.05,149.66) +/- (0.54,4.43))
16:09:44 - 234.3717 213.1774 401.3672 240.1498 215.2016 189.9564 239.7173 215.0779 0 
16:09:47 - 8: L (190.87,253.98) +/- (0.23,0.13), R (223.27,154.39) +/- (0.10,0.51))
16:09:50 - 234.3717 213.1774 401.3672 240.1498 215.2016 189.9564 239.7173 215.0779 190.8727 
16:09:52 - Calibration error: Error using dlmwrite (line 130)
Could not open file C:\VOG\Data\Scripts\Calibration\SESSION-2016Aug07-160950_Polynomial.txt
16:11:57 - Error details: lastRawFrameNumber: 341466, currentFrameNumber: 0
16:11:57 - Error grabbing: Frame counter is not consistently growing!.
16:11:57 - FATAL ERROR: FlyCapture2Managed.FC2Exception: Low level failure reading register 0x70100. Error: 0x15.
   at FlyCapture2Managed.ManagedCameraBase.ReadRegister(UInt32 address)
   at OculomotorLab.VOG.ImageGrabbing.CameraEyePointGreyLabyrinth.ReadSensors() in c:\VOG\Local_VOG_with_CamCalib_Emgu_2.4.10_v2 - LatestFlyCapture\labyrinth\LabryinthVOG\ImageGrabbing\CameraEyePointGreyLabyrinth.cs:line 754
   at OculomotorLab.VOG.ImageGrabbing.CameraEyePointGreyLabyrinth.HeadSensorLabyrinth.GrabHeadData() in c:\VOG\Local_VOG_with_CamCalib_Emgu_2.4.10_v2 - LatestFlyCapture\labyrinth\LabryinthVOG\HeadTracking\HeadSensorLabyrinth.cs:line 61
   at OculomotorLab.VOG.EyeTrackerHeadTracker.TrackingLoop() in c:\VOG\Local_VOG_with_CamCalib_Emgu_2.4.10_v2 - LatestFlyCapture - New Calibration\source\VOGLib\HeadTracking\EyeTrackerHeadTracker.cs:line 230
16:11:57 - FATAL ERROR: System.InvalidOperationException: Frame counter is not consistently growing!.
   at OculomotorLab.VOG.ImageGrabbing.CameraEyePointGreyLabyrinth.GrabImageEye() in c:\VOG\Local_VOG_with_CamCalib_Emgu_2.4.10_v2 - LatestFlyCapture\labyrinth\LabryinthVOG\ImageGrabbing\CameraEyePointGreyLabyrinth.cs:line 625
   at OculomotorLab.VOG.EyeTrackerImageGrabber.GrabImages() in c:\VOG\Local_VOG_with_CamCalib_Emgu_2.4.10_v2 - LatestFlyCapture - New Calibration\source\VOGLib\EyeTrackerImageGrabber.cs:line 552
   at OculomotorLab.VOG.EyeTrackerImageGrabber.GrabLoop() in c:\VOG\Local_VOG_with_CamCalib_Emgu_2.4.10_v2 - LatestFlyCapture - New Calibration\source\VOGLib\EyeTrackerImageGrabber.cs:line 478
