14:41:59 - Initializing network service ...
14:41:59 - Initializing network service ... completed.
14:41:59 - Initializing complete.
14:42:06 - Verifying grabbing system.
14:42:07 - Running camera callback.
14:42:07 - Camera reports 0
14:52:12 - Finished EyeCollection`1 consumer  loop : 53692 frames queued; Queued: 6330-60021, Saved: 6330-60021
14:52:12 - Finished EyeTrackerDataAndImages consumer  loop : 53690 frames queued; Queued: 6330-60019, Saved: 6330-60019
14:52:12 - Finished EyeTrackerEvent consumer  loop : 0 frames queued; Queued: -1--1, Saved: -1--1
17:08:40 - Finished head tracker loop.
17:08:43 - Grabber loop finished.
17:08:43 - Process loop finished.
17:08:43 - Process loop finished.
17:08:43 - Process loop finished.
17:08:43 - Process loop finished.
17:08:43 - Output loop finished.
