16:38:41 - Initializing network service ...
16:38:42 - Error starting service: There is already a listener on IP endpoint 0.0.0.0:9000. This could happen if there is another application already listening on this endpoint or if you have multiple service endpoints in your service host with the same IP endpoint but with incompatible binding configurations.
16:38:42 - Initializing network service ... completed.
16:38:42 - Initializing complete.
16:38:44 - Verifying grabbing system.
16:38:44 - Running camera callback.
16:39:05 - Camera reports 0
16:45:40 - 0: L (206.84,227.00) +/- (0.09,0.06), R (278.42,166.23) +/- (0.03,0.05))
16:45:40 - 206.8354 0 0 0 0 
16:45:44 - 1: L (180.22,253.22) +/- (0.10,0.05), R (250.98,188.51) +/- (0.34,1.72))
16:45:44 - 206.8354 180.2217 0 0 0 
16:45:48 - 2: L (206.43,276.79) +/- (0.25,0.05), R (276.88,216.58) +/- (0.13,0.11))
16:45:48 - 206.8354 180.2217 206.4256 0 0 
16:45:52 - 3: L (234.22,250.46) +/- (0.07,0.11), R (303.11,193.91) +/- (0.31,1.41))
16:45:52 - 206.8354 180.2217 206.4256 234.2211 0 
16:45:56 - 4: L (207.75,250.00) +/- (0.01,0.06), R (276.81,189.77) +/- (0.06,0.11))
16:45:56 - Calibration finished
16:45:56 - Calibration loop finished.
16:45:56 - 206.8354 180.2217 206.4256 234.2211 207.7527 
16:46:26 - Finished EyeCollection`1 consumer  loop : 2133 frames queued; Queued: 41938-44070, Saved: 41938-44070
16:46:26 - Finished EyeTrackerDataAndImages consumer  loop : 2130 frames queued; Queued: 41938-44067, Saved: 41938-44067
16:46:26 - Finished EyeTrackerEvent consumer  loop : 0 frames queued; Queued: -1--1, Saved: -1--1
16:48:18 - 0: L (261.09,194.44) +/- (0.07,0.04), R (329.14,165.35) +/- (0.04,0.05))
16:48:18 - 261.0873 0 0 0 0 
16:48:23 - 1: L (231.24,216.79) +/- (0.10,0.11), R (297.86,185.73) +/- (0.13,0.06))
16:48:23 - 261.0873 231.2381 0 0 0 
16:48:27 - 2: L (254.17,244.84) +/- (0.19,0.05), R (319.44,214.49) +/- (0.09,0.05))
16:48:28 - 261.0873 231.2381 254.172 0 0 
16:48:32 - 3: L (284.08,219.70) +/- (0.49,1.38), R (351.41,193.69) +/- (0.09,0.06))
16:48:32 - 261.0873 231.2381 254.172 284.0817 0 
16:48:36 - 4: L (258.14,217.53) +/- (0.04,0.02), R (324.57,187.89) +/- (0.07,0.17))
16:48:36 - Calibration finished
16:48:36 - 261.0873 231.2381 254.172 284.0817 258.1376 
16:48:36 - Calibration loop finished.
16:48:52 - 0: L (261.50,193.19) +/- (0.20,0.05), R (329.48,163.93) +/- (0.07,0.06))
16:48:52 - 261.5019 0 0 0 0 
16:48:57 - 1: L (231.35,215.56) +/- (0.08,0.03), R (297.68,183.91) +/- (0.09,0.40))
16:48:57 - 261.5019 231.3495 0 0 0 
16:49:02 - 2: L (254.69,244.80) +/- (0.06,0.04), R (319.77,214.44) +/- (0.06,0.02))
16:49:02 - 261.5019 231.3495 254.6915 0 0 
16:49:07 - 3: L (284.05,219.03) +/- (0.30,0.63), R (351.45,193.44) +/- (0.04,0.09))
16:49:07 - 261.5019 231.3495 254.6915 284.0532 0 
16:49:11 - 4: L (259.14,217.45) +/- (0.04,0.05), R (323.53,188.00) +/- (0.05,0.12))
16:49:11 - Calibration finished
16:49:11 - Calibration loop finished.
16:49:11 - 261.5019 231.3495 254.6915 284.0532 259.1443 
16:49:44 - Finished EyeCollection`1 consumer  loop : 2367 frames queued; Queued: 61534-63900, Saved: 61534-63900
16:49:44 - Finished EyeTrackerDataAndImages consumer  loop : 2364 frames queued; Queued: 61534-63897, Saved: 61534-63897
16:49:44 - Finished EyeTrackerEvent consumer  loop : 0 frames queued; Queued: -1--1, Saved: -1--1
16:50:32 - 0: L (243.46,195.87) +/- (0.15,0.09), R (313.35,160.23) +/- (0.15,0.06))
16:50:32 - 243.4649 0 0 0 0 
16:50:37 - 1: L (224.79,227.08) +/- (0.25,0.05), R (292.44,190.53) +/- (0.09,0.06))
16:50:37 - 243.4649 224.7877 0 0 0 
16:50:42 - 2: L (257.54,242.59) +/- (0.12,0.18), R (325.90,211.50) +/- (0.10,0.77))
16:50:42 - 243.4649 224.7877 257.541 0 0 
16:51:03 - An error occured, cannot finalize calibration implmentation.
16:51:03 - Calibration loop finished.
16:51:08 - 0: L (245.71,199.48) +/- (0.07,0.19), R (315.27,168.00) +/- (0.08,0.10))
16:51:08 - 245.7127 0 0 0 0 
16:51:12 - 1: L (225.61,230.00) +/- (0.24,0.24), R (294.50,196.01) +/- (0.19,0.20))
16:51:12 - 245.7127 225.6067 0 0 0 
16:51:16 - 2: L (257.76,245.74) +/- (0.06,0.22), R (325.46,214.56) +/- (0.03,0.10))
16:51:16 - 245.7127 225.6067 257.7633 0 0 
16:51:20 - 3: L (277.19,214.12) +/- (0.39,1.14), R (346.22,184.92) +/- (0.02,0.20))
16:51:20 - 245.7127 225.6067 257.7633 277.1879 0 
16:51:24 - 4: L (252.76,221.96) +/- (0.06,0.03), R (318.43,189.25) +/- (0.03,0.10))
16:51:24 - Calibration finished
16:51:25 - Calibration loop finished.
16:51:25 - 245.7127 225.6067 257.7633 277.1879 252.7608 
16:51:57 - Finished EyeCollection`1 consumer  loop : 2303 frames queued; Queued: 74891-77193, Saved: 74891-77193
16:51:57 - Finished EyeTrackerDataAndImages consumer  loop : 2302 frames queued; Queued: 74891-77192, Saved: 74891-77192
16:51:57 - Finished EyeTrackerEvent consumer  loop : 0 frames queued; Queued: -1--1, Saved: -1--1
16:53:11 - Finished head tracker loop.
