13:38:09 - Initializing network service ...
13:38:10 - Error starting service: There is already a listener on IP endpoint 0.0.0.0:9000. This could happen if there is another application already listening on this endpoint or if you have multiple service endpoints in your service host with the same IP endpoint but with incompatible binding configurations.
13:38:10 - Initializing network service ... completed.
13:38:10 - Initializing complete.
13:38:31 - Verifying grabbing system.
13:38:31 - Running camera callback.
13:38:32 - Camera reports 0
13:38:50 - 0: L (298.85,127.69) +/- (0.06,0.05), R (312.25,84.49) +/- (0.19,0.08))
13:38:50 - 298.8486 0 0 0 0 0 0 0 0 
13:38:56 - 1: L (269.05,125.90) +/- (0.26,0.05), R (280.30,86.71) +/- (0.49,0.05))
13:38:57 - 298.8486 269.0455 0 0 0 0 0 0 0 
13:39:02 - 2: L (238.83,126.14) +/- (0.15,0.05), R (249.34,89.80) +/- (0.10,0.20))
13:39:02 - 298.8486 269.0455 238.8267 0 0 0 0 0 0 
13:39:09 - 3: L (299.72,151.90) +/- (0.09,0.05), R (313.74,112.69) +/- (0.02,0.21))
13:39:09 - 298.8486 269.0455 238.8267 299.7249 0 0 0 0 0 
13:39:16 - 4: L (269.84,151.48) +/- (0.12,0.09), R (281.52,113.22) +/- (0.11,0.12))
13:39:16 - 298.8486 269.0455 238.8267 299.7249 269.8397 0 0 0 0 
13:39:23 - 5: L (240.05,150.76) +/- (0.50,0.18), R (250.65,116.72) +/- (0.16,0.31))
13:39:23 - 298.8486 269.0455 238.8267 299.7249 269.8397 240.046 0 0 0 
13:39:30 - 6: L (299.50,176.09) +/- (0.05,0.03), R (313.25,139.28) +/- (0.10,0.07))
13:39:31 - 298.8486 269.0455 238.8267 299.7249 269.8397 240.046 299.504 0 0 
13:39:37 - 7: L (271.22,175.84) +/- (0.43,0.06), R (282.86,140.70) +/- (0.12,0.12))
13:39:37 - 298.8486 269.0455 238.8267 299.7249 269.8397 240.046 299.504 271.2233 0 
13:39:44 - 8: L (241.60,177.25) +/- (0.05,0.03), R (251.60,142.79) +/- (0.17,0.11))
13:39:44 - 298.8486 269.0455 238.8267 299.7249 269.8397 240.046 299.504 271.2233 241.6034 
13:39:59 - Calibration finished
13:39:59 - Calibration loop finished.
13:56:39 - Finished EyeCollection`1 consumer  loop : 97824 frames queued; Queued: 9975-107798, Saved: 9975-107798
13:56:39 - Finished EyeTrackerDataAndImages consumer  loop : 97823 frames queued; Queued: 9975-107797, Saved: 9975-107797
13:56:39 - Finished EyeTrackerEvent consumer  loop : 0 frames queued; Queued: -1--1, Saved: -1--1
14:03:10 - Finished EyeCollection`1 consumer  loop : 34420 frames queued; Queued: 112092-146511, Saved: 112092-146511
14:03:10 - Finished EyeTrackerDataAndImages consumer  loop : 34416 frames queued; Queued: 112092-146507, Saved: 112092-146507
14:03:10 - Finished EyeTrackerEvent consumer  loop : 0 frames queued; Queued: -1--1, Saved: -1--1
14:03:31 - Finished head tracker loop.
14:03:41 - Grabber loop finished.
14:03:41 - Process loop finished.
14:03:41 - Process loop finished.
14:03:41 - Process loop finished.
14:03:41 - Process loop finished.
14:03:41 - Output loop finished.
