20:48:27 - Initializing network service ...
20:48:27 - Initializing network service ... completed.
20:48:27 - Initializing complete.
20:48:29 - Verifying grabbing system.
20:48:29 - Running camera callback.
20:48:43 - Camera reports 0
20:48:46 - Finished head tracker loop.
20:48:47 - Error details: lastRawFrameNumber: 10138, currentFrameNumber: 0
20:48:49 - Grabber loop finished.
20:48:49 - Process loop finished.
20:48:49 - Process loop finished.
20:48:49 - Process loop finished.
20:48:49 - Process loop finished.
20:48:49 - Output loop finished.
