16:57:54 - Initializing network service ...
16:57:54 - Initializing network service ... completed.
16:57:54 - Initializing complete.
16:58:05 - Verifying grabbing system.
16:58:05 - Running camera callback.
16:58:05 - Camera reports 0
17:01:09 - 0: L (155.57,84.73) +/- (23008.72,7177.58), R (222.95,83.75) +/- (16336.57,2518.06))
17:01:09 - 155.5695 0 0 0 0 0 0 0 0 
17:01:10 - An error occured, cannot finalize calibration implmentation.
17:01:10 - Calibration loop finished.
17:01:22 - 2017-12-09-17:01:22.611 19689 M: KEYPRESS D: 5
17:01:22 - 2017-12-09-17:01:22.701 19699 M: KEYPRESS D: 3
17:01:39 - 0: L (320.67,122.27) +/- (0.42,0.36), R (324.61,90.09) +/- (0.03,0.05))
17:01:40 - 320.6693 0 0 0 0 0 0 0 0 
17:01:57 - 1: L (284.07,120.22) +/- (1.84,0.90), R (285.60,87.99) +/- (0.62,4.06))
17:02:01 - 320.6693 284.065 0 0 0 0 0 0 0 
17:02:07 - 2: L (246.24,121.77) +/- (0.54,3.83), R (247.46,92.94) +/- (0.26,4.38))
17:02:22 - 3: L (323.52,154.76) +/- (1.31,0.15), R (323.17,121.68) +/- (0.34,0.05))
17:02:28 - 4: L (287.33,151.45) +/- (0.30,0.07), R (282.91,119.79) +/- (0.02,0.08))
17:02:54 - 5: L (249.45,148.05) +/- (0.45,0.79), R (202.05,119.10) +/- (6569.15,1967.43))
17:02:57 - 320.6693 284.065 246.2389 323.5176 287.325 249.4468 0 0 0 
17:03:10 - An error occured, cannot finalize calibration implmentation.
17:03:10 - Calibration loop finished.
17:03:23 - 0: L (313.45,123.35) +/- (1.38,0.58), R (317.45,89.95) +/- (0.03,0.08))
17:03:26 - 313.4458 0 0 0 0 0 0 0 0 
17:03:39 - 1: L (278.52,119.73) +/- (0.34,0.07), R (277.94,89.01) +/- (0.40,0.11))
17:03:40 - 313.4458 278.5181 0 0 0 0 0 0 0 
17:03:50 - 2: L (241.24,121.12) +/- (0.87,0.05), R (238.60,92.60) +/- (1.01,0.13))
17:03:52 - 313.4458 278.5181 241.2418 0 0 0 0 0 0 
17:04:04 - 3: L (317.91,153.31) +/- (1.57,0.37), R (314.19,118.88) +/- (0.41,0.25))
17:04:05 - 313.4458 278.5181 241.2418 317.9062 0 0 0 0 0 
17:04:12 - 4: L (281.12,149.81) +/- (0.62,0.20), R (275.90,119.44) +/- (0.49,0.37))
17:04:13 - 313.4458 278.5181 241.2418 317.9062 281.1242 0 0 0 0 
17:04:20 - 5: L (243.26,147.00) +/- (0.10,0.24), R (236.21,116.63) +/- (3.27,3.77))
17:04:22 - 313.4458 278.5181 241.2418 317.9062 281.1242 243.2568 0 0 0 
17:04:28 - 6: L (318.44,184.11) +/- (1.06,0.28), R (312.66,148.79) +/- (0.02,0.09))
17:04:29 - 313.4458 278.5181 241.2418 317.9062 281.1242 243.2568 318.4448 0 0 
17:04:35 - 7: L (283.07,181.32) +/- (0.57,0.20), R (274.25,149.46) +/- (0.11,0.08))
17:04:36 - 313.4458 278.5181 241.2418 317.9062 281.1242 243.2568 318.4448 283.0676 0 
17:04:43 - 8: L (246.68,179.55) +/- (0.29,2.21), R (233.35,154.21) +/- (3.38,0.79))
17:05:19 - Calibration error: Retrieving the COM class factory for component with CLSID {85D82C3B-DECC-4209-9F3C-5A9E683C0373} failed due to the following error: 80080005 Server execution failed (Exception from HRESULT: 0x80080005 (CO_E_SERVER_EXEC_FAILURE)).
17:06:35 - 313.4458 278.5181 241.2418 317.9062 281.1242 243.2568 318.4448 283.0676 246.6765 
17:07:01 - An error occured, cannot finalize calibration implmentation.
17:07:01 - Calibration loop finished.
17:07:21 - 0: L (315.26,121.45) +/- (2.07,3.00), R (318.11,91.70) +/- (0.42,0.25))
17:07:22 - 315.2629 0 0 0 0 0 0 0 0 
17:07:28 - 1: L (278.44,118.22) +/- (0.31,0.05), R (279.31,88.36) +/- (0.54,0.85))
17:07:29 - 315.2629 278.4395 0 0 0 0 0 0 0 
17:07:35 - 2: L (243.58,118.43) +/- (0.17,0.04), R (239.42,87.91) +/- (3.54,5.45))
17:07:37 - 315.2629 278.4395 243.584 0 0 0 0 0 0 
17:07:42 - 3: L (319.50,151.16) +/- (0.52,0.24), R (315.97,120.15) +/- (0.18,0.03))
17:07:48 - 4: L (281.99,148.09) +/- (1.34,0.05), R (276.47,119.28) +/- (0.46,0.14))
17:07:54 - 5: L (243.72,146.94) +/- (0.17,0.09), R (236.03,119.90) +/- (2.70,0.94))
17:07:57 - 315.2629 278.4395 243.584 319.4994 281.9942 243.7172 0 0 0 
17:08:01 - 6: L (318.89,182.42) +/- (0.24,0.03), R (313.61,150.06) +/- (0.37,0.13))
17:08:08 - 7: L (285.03,181.58) +/- (3.93,1.50), R (268.16,150.61) +/- (14.60,0.58))
17:08:13 - 8: L (246.62,177.99) +/- (0.67,0.59), R (236.41,152.31) +/- (0.43,0.13))
17:08:24 - Calibration finished
17:08:24 - Calibration loop finished.
17:08:26 - 315.2629 278.4395 243.584 319.4994 281.9942 243.7172 318.8898 285.0308 246.6242 
17:31:51 - Finished head tracker loop.
17:45:08 - Grabber loop finished.
17:45:08 - Process loop finished.
17:45:08 - Process loop finished.
17:45:08 - Process loop finished.
17:45:08 - Process loop finished.
17:45:08 - Output loop finished.
