13:59:58 - Initializing network service ...
13:59:58 - Initializing network service ... completed.
13:59:58 - Initializing complete.
14:00:05 - 2018-02-15-14:00:05.499 0 M: KEYPRESS D: 
14:00:06 - 2018-02-15-14:00:06.059 0 M: KEYPRESS D: 2
14:01:54 - Verifying grabbing system.
14:01:54 - Running camera callback.
14:01:54 - Camera reports 0
14:02:02 - 0: L (291.93,148.44) +/- (0.08,0.07), R (261.40,117.45) +/- (0.22,1.81))
14:02:02 - 291.9286 0 0 0 0 0 0 0 0 
14:02:07 - 1: L (264.83,146.02) +/- (0.05,0.05), R (233.87,117.35) +/- (0.03,0.01))
14:02:08 - 291.9286 264.8306 0 0 0 0 0 0 0 
14:02:12 - 2: L (237.03,145.66) +/- (0.03,0.05), R (206.27,118.70) +/- (0.04,0.01))
14:02:12 - 291.9286 264.8306 237.0348 0 0 0 0 0 0 
14:02:17 - 3: L (293.45,169.59) +/- (0.03,0.03), R (259.36,139.38) +/- (0.04,0.02))
14:02:19 - 291.9286 264.8306 237.0348 293.4545 0 0 0 0 0 
14:02:23 - 4: L (266.14,167.48) +/- (0.05,0.01), R (231.93,138.26) +/- (0.09,0.07))
14:02:23 - 291.9286 264.8306 237.0348 293.4545 266.1354 0 0 0 0 
14:02:28 - 5: L (238.37,167.26) +/- (0.03,0.05), R (204.28,139.88) +/- (0.11,0.02))
14:02:28 - 291.9286 264.8306 237.0348 293.4545 266.1354 238.3651 0 0 0 
14:02:33 - 6: L (293.01,191.36) +/- (0.09,0.03), R (257.98,161.47) +/- (0.11,0.04))
14:02:33 - 291.9286 264.8306 237.0348 293.4545 266.1354 238.3651 293.0146 0 0 
14:02:38 - 7: L (267.36,189.67) +/- (0.05,0.05), R (229.64,160.21) +/- (0.11,0.08))
14:02:38 - 291.9286 264.8306 237.0348 293.4545 266.1354 238.3651 293.0146 267.3586 0 
14:02:43 - 8: L (239.50,190.46) +/- (0.04,0.04), R (203.46,161.72) +/- (0.04,0.04))
14:02:44 - 291.9286 264.8306 237.0348 293.4545 266.1354 238.3651 293.0146 267.3586 239.4955 
14:02:52 - Calibration finished
14:02:52 - Calibration loop finished.
14:03:27 - Finished EyeCollection`1 consumer  loop : 529 frames queued; Queued: 8646-9174, Saved: 8646-9174
14:03:27 - Finished EyeTrackerDataAndImages consumer  loop : 529 frames queued; Queued: 8646-9174, Saved: 8646-9174
14:03:27 - Finished EyeTrackerEvent consumer  loop : 0 frames queued; Queued: -1--1, Saved: -1--1
14:03:32 - 0: L (237.05,240.19) +/- (41.96,2478.21), R (216.67,212.20) +/- (280.00,2997.70))
14:03:32 - 237.0537 0 0 0 0 0 0 0 0 
14:03:33 - An error occured, cannot finalize calibration implmentation.
14:03:33 - Calibration loop finished.
14:03:42 - 0: L (292.15,147.07) +/- (0.17,0.05), R (259.50,114.82) +/- (0.13,2.00))
14:03:42 - 292.1456 0 0 0 0 0 0 0 0 
14:03:47 - 1: L (266.20,144.58) +/- (0.20,0.01), R (231.46,115.38) +/- (0.05,0.02))
14:03:47 - 292.1456 266.2021 0 0 0 0 0 0 0 
14:03:52 - 2: L (237.96,145.13) +/- (0.05,0.08), R (204.84,117.49) +/- (0.06,0.18))
14:03:52 - 292.1456 266.2021 237.9588 0 0 0 0 0 0 
14:03:56 - 3: L (294.15,168.73) +/- (0.06,0.45), R (257.84,137.91) +/- (0.10,0.35))
14:03:57 - 292.1456 266.2021 237.9588 294.1501 0 0 0 0 0 
14:04:02 - 4: L (266.72,167.52) +/- (0.03,0.02), R (230.90,137.73) +/- (0.12,0.02))
14:04:02 - 292.1456 266.2021 237.9588 294.1501 266.7161 0 0 0 0 
14:04:07 - 5: L (239.19,166.85) +/- (0.10,0.02), R (202.93,138.59) +/- (0.31,0.03))
14:04:07 - 292.1456 266.2021 237.9588 294.1501 266.7161 239.1883 0 0 0 
14:04:13 - 6: L (293.89,191.46) +/- (0.12,0.02), R (256.79,160.77) +/- (0.04,0.04))
14:04:13 - 292.1456 266.2021 237.9588 294.1501 266.7161 239.1883 293.8945 0 0 
14:04:18 - 7: L (267.88,189.63) +/- (0.05,0.03), R (229.24,159.56) +/- (0.06,0.09))
14:04:18 - 292.1456 266.2021 237.9588 294.1501 266.7161 239.1883 293.8945 267.8793 0 
14:04:23 - 8: L (240.06,190.07) +/- (0.06,0.02), R (202.57,160.31) +/- (0.02,0.02))
14:04:36 - Calibration finished
14:04:37 - Calibration loop finished.
14:04:55 - Finished EyeCollection`1 consumer  loop : 527 frames queued; Queued: 17388-17914, Saved: 17388-17914
14:04:55 - Finished EyeTrackerDataAndImages consumer  loop : 526 frames queued; Queued: 17388-17913, Saved: 17388-17913
14:04:55 - Finished EyeTrackerEvent consumer  loop : 0 frames queued; Queued: -1--1, Saved: -1--1
14:04:59 - 292.1456 266.2021 237.9588 294.1501 266.7161 239.1883 293.8945 267.8793 240.061 
14:05:00 - 0: L (243.77,236.31) +/- (130.25,2183.39), R (221.80,207.22) +/- (537.70,2592.47))
14:05:00 - 243.7676 0 0 0 0 0 0 0 0 
14:05:01 - An error occured, cannot finalize calibration implmentation.
14:05:01 - Calibration loop finished.
14:05:12 - 0: L (292.05,148.25) +/- (0.02,0.07), R (259.10,116.80) +/- (0.08,0.39))
14:05:12 - 292.0524 0 0 0 0 0 0 0 0 
14:05:17 - 1: L (265.27,146.69) +/- (0.02,0.01), R (231.73,116.92) +/- (0.13,0.06))
14:05:17 - 292.0524 265.2683 0 0 0 0 0 0 0 
14:05:21 - 2: L (237.93,145.77) +/- (0.09,0.05), R (204.19,117.59) +/- (0.08,0.12))
14:05:21 - 292.0524 265.2683 237.9349 0 0 0 0 0 0 
14:05:26 - 3: L (293.22,170.24) +/- (0.01,0.02), R (257.89,138.92) +/- (0.03,0.02))
14:05:26 - 292.0524 265.2683 237.9349 293.2211 0 0 0 0 0 
14:05:31 - 4: L (266.70,167.92) +/- (0.01,0.02), R (229.66,138.55) +/- (0.06,0.08))
14:05:31 - 292.0524 265.2683 237.9349 293.2211 266.7047 0 0 0 0 
14:05:35 - 5: L (238.56,168.22) +/- (0.09,0.03), R (202.79,140.10) +/- (0.04,0.03))
14:05:36 - 292.0524 265.2683 237.9349 293.2211 266.7047 238.5646 0 0 0 
14:05:40 - 6: L (292.96,191.56) +/- (0.03,0.03), R (256.57,161.67) +/- (0.02,0.11))
14:05:40 - 292.0524 265.2683 237.9349 293.2211 266.7047 238.5646 292.9616 0 0 
14:05:45 - 7: L (267.37,190.76) +/- (0.08,0.02), R (228.26,160.49) +/- (0.04,0.05))
14:05:46 - 292.0524 265.2683 237.9349 293.2211 266.7047 238.5646 292.9616 267.3675 0 
14:05:51 - 8: L (240.03,190.81) +/- (0.04,0.03), R (201.97,162.42) +/- (0.07,0.11))
14:05:51 - 292.0524 265.2683 237.9349 293.2211 266.7047 238.5646 292.9616 267.3675 240.0259 
14:05:59 - Calibration finished
14:05:59 - Calibration loop finished.
14:06:13 - Finished EyeCollection`1 consumer  loop : 592 frames queued; Queued: 25068-25659, Saved: 25068-25659
14:06:13 - Finished EyeTrackerDataAndImages consumer  loop : 591 frames queued; Queued: 25068-25658, Saved: 25068-25658
14:06:13 - Finished EyeTrackerEvent consumer  loop : 0 frames queued; Queued: -1--1, Saved: -1--1
14:09:26 - 0: L (237.01,212.12) +/- (107.62,449.63), R (212.40,184.63) +/- (209.11,524.01))
14:09:26 - 237.0083 0 0 0 0 0 0 0 0 
14:09:28 - Finished EyeCollection`1 consumer  loop : 4853 frames queued; Queued: 40197-45049, Saved: 40197-45049
14:09:29 - Finished EyeTrackerDataAndImages consumer  loop : 4853 frames queued; Queued: 40197-45049, Saved: 40197-45049
14:09:29 - Finished EyeTrackerEvent consumer  loop : 0 frames queued; Queued: -1--1, Saved: -1--1
14:09:31 - An error occured, cannot finalize calibration implmentation.
14:09:31 - Calibration loop finished.
14:09:42 - 0: L (293.49,147.91) +/- (0.03,0.02), R (261.05,117.70) +/- (0.18,0.07))
14:09:42 - 293.4902 0 0 0 0 0 0 0 0 
14:09:46 - 1: L (266.58,145.15) +/- (0.11,0.05), R (233.24,116.52) +/- (0.07,0.01))
14:09:46 - 293.4902 266.5781 0 0 0 0 0 0 0 
14:09:51 - 2: L (239.21,145.75) +/- (0.08,0.06), R (205.22,118.21) +/- (0.12,0.03))
14:09:51 - 293.4902 266.5781 239.207 0 0 0 0 0 0 
14:09:57 - 3: L (295.30,169.39) +/- (0.06,0.06), R (259.27,138.53) +/- (0.04,0.08))
14:09:57 - 293.4902 266.5781 239.207 295.295 0 0 0 0 0 
14:10:02 - 4: L (268.18,166.93) +/- (0.05,0.05), R (230.93,137.43) +/- (0.05,0.01))
14:10:02 - 293.4902 266.5781 239.207 295.295 268.1767 0 0 0 0 
14:10:07 - 5: L (239.67,168.01) +/- (0.05,0.09), R (203.40,140.42) +/- (0.02,0.15))
14:10:08 - 293.4902 266.5781 239.207 295.295 268.1767 239.672 0 0 0 
14:10:13 - 6: L (295.80,192.92) +/- (0.08,0.02), R (256.97,161.46) +/- (0.04,0.08))
14:10:13 - 293.4902 266.5781 239.207 295.295 268.1767 239.672 295.8028 0 0 
14:10:18 - 7: L (268.88,190.86) +/- (0.04,0.13), R (229.24,160.95) +/- (0.05,0.08))
14:10:18 - 293.4902 266.5781 239.207 295.295 268.1767 239.672 295.8028 268.8828 0 
14:10:22 - 8: L (240.69,191.16) +/- (0.11,0.07), R (202.82,161.40) +/- (0.04,0.11))
14:10:22 - 293.4902 266.5781 239.207 295.295 268.1767 239.672 295.8028 268.8828 240.6911 
14:10:33 - Calibration finished
14:10:33 - Calibration loop finished.
14:10:56 - Finished EyeCollection`1 consumer  loop : 713 frames queued; Queued: 53054-53766, Saved: 53054-53766
14:10:56 - Finished EyeTrackerDataAndImages consumer  loop : 710 frames queued; Queued: 53054-53763, Saved: 53054-53763
14:10:56 - Finished EyeTrackerEvent consumer  loop : 0 frames queued; Queued: -1--1, Saved: -1--1
14:11:02 - Finished head tracker loop.
15:37:41 - Grabber loop finished.
15:37:41 - Process loop finished.
15:37:41 - Process loop finished.
15:37:41 - Process loop finished.
15:37:41 - Process loop finished.
15:37:41 - Output loop finished.
