14:17:31 - Initializing network service ...
14:17:31 - Initializing network service ... completed.
14:17:32 - Initializing complete.
14:17:34 - Verifying grabbing system.
14:17:34 - Running camera callback.
14:17:34 - Camera reports 0
14:17:48 - Finished head tracker loop.
14:17:50 - Grabber loop finished.
14:17:50 - Process loop finished.
14:17:50 - Process loop finished.
14:17:50 - Process loop finished.
14:17:50 - Process loop finished.
14:17:50 - Output loop finished.
