17:30:43 - Initializing network service ...
17:30:43 - Initializing network service ... completed.
17:30:44 - Initializing complete.
17:30:46 - Verifying grabbing system.
17:30:46 - Running camera callback.
17:30:47 - Waiting for camera...
17:30:47 - Camera reports 1
17:31:39 - Finished head tracker loop.
17:45:27 - Verifying grabbing system.
17:45:28 - Running camera callback.
17:45:52 - Finished head tracker loop.
17:45:56 - Grabber loop finished.
17:45:56 - Process loop finished.
17:45:56 - Process loop finished.
17:45:56 - Process loop finished.
17:45:56 - Process loop finished.
17:45:56 - Output loop finished.
