11:45:11 - Initializing network service ...
11:45:11 - Initializing network service ... completed.
11:45:11 - Initializing complete.
11:45:14 - Grabber loop finished.
11:45:14 - Process loop finished.
11:45:14 - Process loop finished.
11:45:14 - Process loop finished.
11:45:14 - Process loop finished.
11:45:14 - Output loop finished.
