14:50:38 - Initializing network service ...
14:50:38 - Initializing network service ... completed.
14:50:38 - Initializing complete.
14:51:05 - Error initializating the system, going into simulation mode.
14:51:05 - Object reference not set to an instance of an object.
14:51:10 - Grabber loop finished.
14:51:10 - Process loop finished.
14:51:10 - Process loop finished.
14:51:10 - Process loop finished.
14:51:10 - Process loop finished.
14:51:10 - Output loop finished.
