15:32:50 - Initializing network service ...
15:32:50 - Initializing network service ... completed.
15:32:50 - Initializing complete.
15:32:55 - Grabber loop finished.
15:32:55 - Process loop finished.
15:32:55 - Process loop finished.
15:32:55 - Process loop finished.
15:32:55 - Process loop finished.
15:32:55 - Output loop finished.
