12:27:02 - Initializing network service ...
12:27:03 - Error starting service: There is already a listener on IP endpoint 0.0.0.0:9000. This could happen if there is another application already listening on this endpoint or if you have multiple service endpoints in your service host with the same IP endpoint but with incompatible binding configurations.
12:27:03 - Initializing network service ... completed.
12:27:03 - Initializing complete.
12:27:08 - Verifying grabbing system.
12:27:09 - Running camera callback.
12:27:13 - Finished head tracker loop.
12:27:15 - Verifying grabbing system.
12:27:15 - Running camera callback.
12:27:18 - Finished head tracker loop.
12:27:27 - Error initializating the system, going into simulation mode.
12:27:27 - Object reference not set to an instance of an object.
12:27:30 - Grabber loop finished.
12:27:30 - Process loop finished.
12:27:30 - Process loop finished.
12:27:30 - Process loop finished.
12:27:30 - Process loop finished.
12:27:30 - Output loop finished.
