15:27:25 - Initializing network service ...
15:27:25 - Initializing network service ... completed.
15:27:25 - Initializing complete.
15:27:28 - Verifying grabbing system.
15:27:28 - Running camera callback.
15:27:29 - Camera reports 81
15:29:30 - Finished head tracker loop.
15:29:32 - Grabber loop finished.
15:29:32 - Process loop finished.
15:29:32 - Process loop finished.
15:29:32 - Process loop finished.
15:29:32 - Process loop finished.
15:29:32 - Output loop finished.
