12:38:06 - Initializing network service ...
12:38:06 - Initializing network service ... completed.
12:38:06 - Initializing complete.
12:38:11 - Verifying grabbing system.
12:38:11 - Running camera callback.
12:38:11 - Camera reports 0
12:38:25 - Finished head tracker loop.
12:38:27 - Grabber loop finished.
12:38:27 - Process loop finished.
12:38:27 - Process loop finished.
12:38:27 - Process loop finished.
12:38:27 - Process loop finished.
12:38:27 - Output loop finished.
