11:24:09 - Initializing network service ...
11:24:10 - Initializing network service ... completed.
11:24:10 - Initializing complete.
11:24:13 - Verifying grabbing system.
11:24:13 - Running camera callback.
11:24:13 - Camera reports 0
11:37:39 - FATAL ERROR: FlyCapture2Managed.FC2Exception: Low level failure reading register 0x70008. Error: 0x15.
   at FlyCapture2Managed.ManagedCameraBase.ReadRegister(UInt32 address)
   at OculomotorLab.VOG.ImageGrabbing.CameraEyePointGreyLabyrinth.ReadSensors() in c:\VOG\Local_VOG_with_CamCalib_Emgu_2.4.10_v2 - LatestFlyCapture - New Calibration - New Goggles\labyrinth\LabryinthVOG\ImageGrabbing\CameraEyePointGreyLabyrinth.cs:line 694
   at OculomotorLab.VOG.ImageGrabbing.CameraEyePointGreyLabyrinth.HeadSensorLabyrinth.GrabHeadData() in c:\VOG\Local_VOG_with_CamCalib_Emgu_2.4.10_v2 - LatestFlyCapture - New Calibration - New Goggles\labyrinth\LabryinthVOG\HeadTracking\HeadSensorLabyrinth.cs:line 61
   at OculomotorLab.VOG.EyeTrackerHeadTracker.TrackingLoop() in c:\VOG\Local_VOG_with_CamCalib_Emgu_2.4.10_v2 - LatestFlyCapture - New Calibration - New Goggles\source\VOGLib\HeadTracking\EyeTrackerHeadTracker.cs:line 230
11:37:39 - Error details: lastRawFrameNumber: 100637, currentFrameNumber: 0
11:37:39 - Error grabbing: Frame counter is not consistently growing!.
11:37:39 - FATAL ERROR: System.InvalidOperationException: Frame counter is not consistently growing!.
   at OculomotorLab.VOG.ImageGrabbing.CameraEyePointGreyLabyrinth.GrabImageEye() in c:\VOG\Local_VOG_with_CamCalib_Emgu_2.4.10_v2 - LatestFlyCapture - New Calibration - New Goggles\labyrinth\LabryinthVOG\ImageGrabbing\CameraEyePointGreyLabyrinth.cs:line 625
   at OculomotorLab.VOG.EyeTrackerImageGrabber.GrabImages() in c:\VOG\Local_VOG_with_CamCalib_Emgu_2.4.10_v2 - LatestFlyCapture - New Calibration - New Goggles\source\VOGLib\EyeTrackerImageGrabber.cs:line 552
   at OculomotorLab.VOG.EyeTrackerImageGrabber.GrabLoop() in c:\VOG\Local_VOG_with_CamCalib_Emgu_2.4.10_v2 - LatestFlyCapture - New Calibration - New Goggles\source\VOGLib\EyeTrackerImageGrabber.cs:line 478
