12:21:51 - Initializing network service ...
12:21:52 - Initializing network service ... completed.
12:21:52 - Initializing complete.
12:22:07 - Grabber loop finished.
12:22:07 - Process loop finished.
12:22:07 - Process loop finished.
12:22:07 - Process loop finished.
12:22:07 - Process loop finished.
12:22:07 - Output loop finished.
