11:49:44 - Initializing network service ...
11:49:45 - Initializing network service ... completed.
11:49:45 - Initializing complete.
11:49:47 - Verifying grabbing system.
11:49:48 - Running camera callback.
11:49:48 - Camera reports 0
