18:09:18 - Initializing network service ...
18:09:19 - Initializing network service ... completed.
18:09:19 - Initializing complete.
18:09:29 - Verifying grabbing system.
18:09:29 - Running camera callback.
18:09:42 - Camera reports 0
18:11:02 - Calibration finished
18:11:02 - Calibration could not be saved. The folder does not exist.
18:11:02 - Calibration loop finished.
