20:18:33 - Initializing network service ...
20:18:33 - Initializing network service ... completed.
20:18:33 - Initializing complete.
20:18:35 - Verifying grabbing system.
20:18:36 - Running camera callback.
20:18:49 - Camera reports 0
20:18:59 - Finished head tracker loop.
20:19:02 - Grabber loop finished.
20:19:02 - Process loop finished.
20:19:02 - Process loop finished.
20:19:02 - Process loop finished.
20:19:02 - Process loop finished.
20:19:02 - Output loop finished.
