14:45:36 - Initializing network service ...
14:45:36 - Initializing network service ... completed.
14:45:36 - Initializing complete.
14:45:41 - Error initializating the system, going into simulation mode.
14:45:41 - Could not find file 'C:\VOG\Local_VOG_with_CamCalib_Emgu_2.4.10_v2 - LatestFlyCapture\lib\CamCalib\Map1.xml'.
14:45:52 - Grabber loop finished.
14:45:52 - Process loop finished.
14:45:52 - Process loop finished.
14:45:52 - Process loop finished.
14:45:52 - Process loop finished.
14:45:52 - Output loop finished.
