12:38:43 - Initializing network service ...
12:38:43 - Initializing network service ... completed.
12:38:43 - Initializing complete.
12:38:45 - Verifying grabbing system.
12:38:45 - Running camera callback.
12:38:45 - Camera reports 0
12:39:08 - Could not find a part of the path 'C:\Users\mrahman\Documents\VOGData\Calibration\SESSION-2015Nov30-123908.csv'.
12:39:10 - 0: L (250.17,288.18) +/- (0.09,9.46), R (266.71,293.16) +/- (0.01,1.37))
12:39:16 - Finished head tracker loop.
12:39:19 - An error occured, cannot finalize calibration implmentation.
12:39:19 - Calibration loop finished.
12:39:19 - Grabber loop finished.
12:39:19 - Process loop finished.
12:39:19 - Process loop finished.
12:39:19 - Process loop finished.
12:39:19 - Process loop finished.
12:39:19 - Output loop finished.
