15:54:40 - Initializing network service ...
15:54:40 - Initializing network service ... completed.
15:54:40 - Initializing complete.
15:58:55 - Error initializating the system, going into simulation mode.
15:58:55 - Object reference not set to an instance of an object.
15:59:01 - Grabber loop finished.
15:59:01 - Process loop finished.
15:59:01 - Process loop finished.
15:59:01 - Process loop finished.
15:59:01 - Process loop finished.
15:59:01 - Output loop finished.
