09:18:52 - Initializing network service ...
09:18:52 - Initializing network service ... completed.
09:18:52 - Initializing complete.
09:39:09 - Grabber loop finished.
09:39:09 - Process loop finished.
09:39:09 - Process loop finished.
09:39:09 - Process loop finished.
09:39:09 - Process loop finished.
09:39:09 - Output loop finished.
