12:02:45 - Initializing network service ...
12:02:45 - Initializing network service ... completed.
12:02:45 - Initializing complete.
12:02:47 - Waiting for camera...
12:02:47 - Verifying grabbing system.
12:02:47 - Running camera callback.
