09:48:40 - Initializing network service ...
09:48:40 - Initializing network service ... completed.
09:48:40 - Initializing complete.
09:48:42 - Verifying grabbing system.
09:48:42 - Running camera callback.
09:48:43 - Camera reports 0
09:48:54 - Finished head tracker loop.
09:50:15 - Verifying grabbing system.
09:50:41 - Finished head tracker loop.
17:08:54 - Grabber loop finished.
17:08:54 - Process loop finished.
17:08:54 - Process loop finished.
17:08:54 - Process loop finished.
17:08:54 - Process loop finished.
17:08:54 - Output loop finished.
