12:08:53 - Initializing network service ...
12:08:54 - Initializing network service ... completed.
12:08:54 - Initializing complete.
12:08:56 - Verifying grabbing system.
12:08:57 - Running camera callback.
12:09:07 - Finished head tracker loop.
12:09:28 - Verifying grabbing system.
12:09:28 - Running camera callback.
12:09:32 - Finished head tracker loop.
12:09:33 - Verifying grabbing system.
12:09:33 - Running camera callback.
12:09:43 - Finished head tracker loop.
12:10:08 - Verifying grabbing system.
12:10:08 - Running camera callback.
12:10:08 - Camera reports 0
12:10:14 - Finished head tracker loop.
12:10:16 - Verifying grabbing system.
12:10:16 - Running camera callback.
12:10:19 - Finished head tracker loop.
12:10:21 - Grabber loop finished.
12:10:21 - Process loop finished.
12:10:21 - Process loop finished.
12:10:21 - Process loop finished.
12:10:21 - Process loop finished.
12:10:21 - Output loop finished.
