16:09:04 - Initializing network service ...
16:09:04 - Initializing network service ... completed.
16:09:04 - Initializing complete.
16:09:11 - Verifying grabbing system.
16:09:11 - Running camera callback.
16:09:11 - Camera reports 0
16:10:44 - 0: L (293.18,159.18) +/- (0.16,0.15), R (294.94,135.60) +/- (0.10,0.19))
16:10:44 - 293.1794 0 0 0 0 0 0 0 0 
16:10:49 - 1: L (265.96,158.20) +/- (0.14,0.08), R (265.94,137.41) +/- (0.09,0.51))
16:10:49 - 293.1794 265.9591 0 0 0 0 0 0 0 
16:10:53 - 2: L (238.05,159.25) +/- (0.31,0.11), R (238.35,140.25) +/- (0.12,0.66))
16:10:54 - 293.1794 265.9591 238.0549 0 0 0 0 0 0 
16:10:58 - 3: L (293.70,178.79) +/- (0.41,0.19), R (295.92,158.70) +/- (0.06,0.36))
16:10:59 - 293.1794 265.9591 238.0549 293.7044 0 0 0 0 0 
16:11:04 - 4: L (267.31,178.89) +/- (0.06,0.05), R (267.81,162.20) +/- (19.60,7.31))
16:11:05 - 293.1794 265.9591 238.0549 293.7044 267.3066 0 0 0 0 
16:11:09 - 5: L (239.99,181.38) +/- (0.16,0.14), R (239.83,163.43) +/- (0.19,1.12))
16:11:10 - 293.1794 265.9591 238.0549 293.7044 267.3066 239.9933 0 0 0 
16:11:15 - 6: L (298.64,208.10) +/- (1.53,2.55), R (296.99,182.17) +/- (0.09,0.26))
16:11:15 - 293.1794 265.9591 238.0549 293.7044 267.3066 239.9933 298.6443 0 0 
16:11:20 - 7: L (269.69,203.68) +/- (0.04,0.28), R (266.47,188.55) +/- (2.73,6.72))
16:11:21 - 293.1794 265.9591 238.0549 293.7044 267.3066 239.9933 298.6443 269.693 0 
16:11:26 - 8: L (243.92,205.29) +/- (0.16,0.10), R (240.62,190.37) +/- (0.12,0.36))
16:11:27 - 293.1794 265.9591 238.0549 293.7044 267.3066 239.9933 298.6443 269.693 243.9231 
16:11:41 - Calibration finished
16:11:41 - Calibration loop finished.
16:29:43 - Finished EyeCollection`1 consumer  loop : 70361 frames queued; Queued: 51792-122152, Saved: 51792-122152
16:29:43 - Finished EyeTrackerDataAndImages consumer  loop : 70360 frames queued; Queued: 51792-122151, Saved: 51792-122151
16:29:43 - Finished EyeTrackerEvent consumer  loop : 0 frames queued; Queued: -1--1, Saved: -1--1
16:40:12 - Finished EyeCollection`1 consumer  loop : 57032 frames queued; Queued: 127457-184488, Saved: 127457-184488
16:40:12 - Finished EyeTrackerDataAndImages consumer  loop : 56665 frames queued; Queued: 127457-184487, Saved: 127457-184487
16:40:12 - Finished EyeTrackerEvent consumer  loop : 0 frames queued; Queued: -1--1, Saved: -1--1
16:52:31 - Finished EyeCollection`1 consumer  loop : 51613 frames queued; Queued: 206139-257751, Saved: 206139-257751
16:52:31 - Finished EyeTrackerDataAndImages consumer  loop : 51186 frames queued; Queued: 206139-257750, Saved: 206139-257750
16:52:31 - Finished EyeTrackerEvent consumer  loop : 0 frames queued; Queued: -1--1, Saved: -1--1
17:09:47 - Finished EyeCollection`1 consumer  loop : 77262 frames queued; Queued: 283114-360375, Saved: 283114-360375
17:09:47 - Finished EyeTrackerDataAndImages consumer  loop : 77261 frames queued; Queued: 283114-360374, Saved: 283114-360374
17:09:47 - Finished EyeTrackerEvent consumer  loop : 0 frames queued; Queued: -1--1, Saved: -1--1
17:24:20 - Finished EyeCollection`1 consumer  loop : 81965 frames queued; Queued: 364904-446868, Saved: 364904-446868
17:24:20 - Finished EyeTrackerDataAndImages consumer  loop : 81962 frames queued; Queued: 364904-446865, Saved: 364904-446865
17:24:20 - Finished EyeTrackerEvent consumer  loop : 0 frames queued; Queued: -1--1, Saved: -1--1
17:39:52 - Finished EyeCollection`1 consumer  loop : 56176 frames queued; Queued: 483123-539298, Saved: 483123-539298
17:39:52 - Finished EyeTrackerDataAndImages consumer  loop : 56174 frames queued; Queued: 483123-539296, Saved: 483123-539296
17:39:52 - Finished EyeTrackerEvent consumer  loop : 0 frames queued; Queued: -1--1, Saved: -1--1
17:40:08 - Finished head tracker loop.
17:45:07 - Grabber loop finished.
17:45:07 - Process loop finished.
17:45:07 - Process loop finished.
17:45:07 - Process loop finished.
17:45:07 - Process loop finished.
17:45:07 - Output loop finished.
