22:46:16 - Initializing network service ...
22:46:17 - Initializing network service ... completed.
22:46:17 - Initializing complete.
22:46:19 - Verifying grabbing system.
22:46:19 - Running camera callback.
22:46:19 - Camera reports 1
22:46:45 - Finished EyeCollection`1 consumer  loop : 336 frames queued; Queued: 464-1771, Saved: 464-1769
22:46:45 - Finished EyeTrackerDataAndImages consumer  loop : 1432 frames queued; Queued: 464-2502, Saved: 464-2502
22:46:45 - Finished EyeTrackerEvent consumer  loop : 0 frames queued; Queued: -1--1, Saved: -1--1
22:46:49 - Finished head tracker loop.
22:48:10 - Verifying grabbing system.
22:48:11 - Running camera callback.
22:48:11 - Camera reports 0
22:48:35 - Finished EyeCollection`1 consumer  loop : 352 frames queued; Queued: 1547-2039, Saved: 1547-2028
22:48:35 - Finished EyeTrackerDataAndImages consumer  loop : 855 frames queued; Queued: 1547-2401, Saved: 1547-2401
22:48:35 - Finished EyeTrackerEvent consumer  loop : 0 frames queued; Queued: -1--1, Saved: -1--1
22:50:03 - Finished EyeCollection`1 consumer  loop : 2422 frames queued; Queued: 6106-11099, Saved: 6106-11099
22:50:03 - Finished EyeTrackerDataAndImages consumer  loop : 5097 frames queued; Queued: 6106-11202, Saved: 6106-11202
22:50:03 - Finished EyeTrackerEvent consumer  loop : 0 frames queued; Queued: -1--1, Saved: -1--1
22:55:20 - Finished EyeCollection`1 consumer  loop : 10300 frames queued; Queued: 14974-42654, Saved: 14974-42598
22:55:20 - Finished EyeTrackerDataAndImages consumer  loop : 27871 frames queued; Queued: 14974-42888, Saved: 14974-42888
22:55:20 - Finished EyeTrackerEvent consumer  loop : 0 frames queued; Queued: -1--1, Saved: -1--1
23:09:10 - Error details: lastRawFrameNumber: 153293, currentFrameNumber: 0
23:09:10 - Error grabbing: Frame counter is not consistently growing!.
23:09:10 - FATAL ERROR: FlyCapture2Managed.FC2Exception: Low level failure reading register 0x1100. Error: 0x15.
   at FlyCapture2Managed.ManagedCameraBase.ReadRegister(UInt32 address)
   at OculomotorLab.VOG.ImageGrabbing.CameraEyePointGreyLabyrinth.ReadSensors() in c:\VOG\Local_VOG_with_CamCalib_Emgu_2.4.10_v2 - LatestFlyCapture - New Calibration - New Goggles\labyrinth\LabryinthVOG\ImageGrabbing\CameraEyePointGreyLabyrinth.cs:line 691
   at OculomotorLab.VOG.ImageGrabbing.CameraEyePointGreyLabyrinth.HeadSensorLabyrinth.GrabHeadData() in c:\VOG\Local_VOG_with_CamCalib_Emgu_2.4.10_v2 - LatestFlyCapture - New Calibration - New Goggles\labyrinth\LabryinthVOG\HeadTracking\HeadSensorLabyrinth.cs:line 62
   at OculomotorLab.VOG.EyeTrackerHeadTracker.TrackingLoop() in c:\VOG\Local_VOG_with_CamCalib_Emgu_2.4.10_v2 - LatestFlyCapture - New Calibration - New Goggles - Sync Line\source\VOGLib\HeadTracking\EyeTrackerHeadTracker.cs:line 232
23:09:10 - FATAL ERROR: System.InvalidOperationException: Frame counter is not consistently growing!.
   at OculomotorLab.VOG.ImageGrabbing.CameraEyePointGreyLabyrinth.GrabImageEye() in c:\VOG\Local_VOG_with_CamCalib_Emgu_2.4.10_v2 - LatestFlyCapture - New Calibration - New Goggles\labyrinth\LabryinthVOG\ImageGrabbing\CameraEyePointGreyLabyrinth.cs:line 634
   at OculomotorLab.VOG.EyeTrackerImageGrabber.GrabImages() in c:\VOG\Local_VOG_with_CamCalib_Emgu_2.4.10_v2 - LatestFlyCapture - New Calibration - New Goggles - Sync Line\source\VOGLib\EyeTrackerImageGrabber.cs:line 552
   at OculomotorLab.VOG.EyeTrackerImageGrabber.GrabLoop() in c:\VOG\Local_VOG_with_CamCalib_Emgu_2.4.10_v2 - LatestFlyCapture - New Calibration - New Goggles - Sync Line\source\VOGLib\EyeTrackerImageGrabber.cs:line 478
