17:37:35 - Initializing network service ...
17:37:35 - Initializing network service ... completed.
17:37:35 - Initializing complete.
17:37:55 - Verifying grabbing system.
17:37:55 - Running camera callback.
17:37:55 - Camera reports 0
