16:46:13 - Initializing network service ...
16:46:14 - Initializing network service ... completed.
16:46:14 - Initializing complete.
17:01:17 - Error initializating the system, going into simulation mode.
17:01:17 - Object reference not set to an instance of an object.
17:01:19 - Grabber loop finished.
17:01:19 - Process loop finished.
17:01:19 - Process loop finished.
17:01:19 - Process loop finished.
17:01:19 - Process loop finished.
17:01:19 - Output loop finished.
