15:58:40 - Initializing network service ...
15:58:40 - Initializing network service ... completed.
15:58:40 - Initializing complete.
15:58:51 - Verifying grabbing system.
15:58:51 - Running camera callback.
15:58:51 - Camera reports 0
16:00:58 - 0: L (0.00,0.00) +/- (0.00,0.00), R (65.83,142.08) +/- (6172.32,28477.45))
16:00:58 - 0 0 0 0 0 0 0 0 0 
16:00:58 - An error occured, cannot finalize calibration implmentation.
16:00:58 - Calibration loop finished.
16:01:00 - 2017-09-05-16:01:00.837 12828 M: KEYPRESS D: 
16:01:01 - 2017-09-05-16:01:01.197 12864 M: KEYPRESS D: 2
16:01:19 - 0: L (282.74,153.30) +/- (0.15,0.05), R (294.50,133.60) +/- (0.29,0.05))
16:01:19 - 282.7419 0 0 0 0 0 0 0 0 
16:01:25 - 1: L (257.71,155.55) +/- (0.02,0.17), R (265.34,134.59) +/- (0.03,0.09))
16:01:25 - 282.7419 257.7124 0 0 0 0 0 0 0 
16:01:31 - 2: L (229.75,157.46) +/- (0.07,0.02), R (236.82,136.86) +/- (0.03,0.03))
16:01:31 - 282.7419 257.7124 229.7494 0 0 0 0 0 0 
16:01:37 - 3: L (285.07,178.20) +/- (0.90,0.07), R (296.65,157.31) +/- (0.20,0.07))
16:01:37 - 282.7419 257.7124 229.7494 285.0706 0 0 0 0 0 
16:01:42 - 4: L (257.41,178.94) +/- (0.13,0.13), R (268.43,158.25) +/- (0.04,0.05))
16:01:42 - 282.7419 257.7124 229.7494 285.0706 257.4116 0 0 0 0 
16:01:48 - 5: L (229.94,181.45) +/- (0.06,0.07), R (240.05,161.63) +/- (0.10,0.10))
16:01:48 - 282.7419 257.7124 229.7494 285.0706 257.4116 229.9389 0 0 0 
16:01:54 - 6: L (284.11,203.00) +/- (0.03,0.02), R (299.64,183.41) +/- (0.17,0.04))
16:01:54 - 282.7419 257.7124 229.7494 285.0706 257.4116 229.9389 284.109 0 0 
16:02:00 - 7: L (257.64,204.06) +/- (0.06,0.15), R (270.81,184.94) +/- (0.10,0.05))
16:02:00 - 282.7419 257.7124 229.7494 285.0706 257.4116 229.9389 284.109 257.6375 0 
16:02:06 - 8: L (230.03,205.64) +/- (0.08,0.22), R (242.83,186.66) +/- (0.11,0.02))
16:02:06 - 282.7419 257.7124 229.7494 285.0706 257.4116 229.9389 284.109 257.6375 230.0335 
16:02:18 - Calibration finished
16:02:18 - Calibration loop finished.
16:08:12 - Finished EyeCollection`1 consumer  loop : 32432 frames queued; Queued: 23184-55615, Saved: 23184-55615
16:08:12 - Finished EyeTrackerDataAndImages consumer  loop : 32431 frames queued; Queued: 23184-55614, Saved: 23184-55614
16:08:12 - Finished EyeTrackerEvent consumer  loop : 0 frames queued; Queued: -1--1, Saved: -1--1
16:13:58 - Finished EyeCollection`1 consumer  loop : 30080 frames queued; Queued: 59790-89869, Saved: 59790-89869
16:13:58 - Finished EyeTrackerDataAndImages consumer  loop : 30080 frames queued; Queued: 59790-89869, Saved: 59790-89869
16:13:58 - Finished EyeTrackerEvent consumer  loop : 0 frames queued; Queued: -1--1, Saved: -1--1
16:21:40 - Finished EyeCollection`1 consumer  loop : 41953 frames queued; Queued: 93780-135732, Saved: 93780-135732
16:21:40 - Finished EyeTrackerDataAndImages consumer  loop : 41953 frames queued; Queued: 93780-135732, Saved: 93780-135732
16:21:40 - Finished EyeTrackerEvent consumer  loop : 0 frames queued; Queued: -1--1, Saved: -1--1
16:27:07 - 0: L (234.55,194.45) +/- (49.14,141.69), R (249.35,165.88) +/- (78.72,418.83))
16:27:07 - 234.5515 0 0 0 0 0 0 0 0 
16:27:08 - An error occured, cannot finalize calibration implmentation.
16:27:08 - Calibration loop finished.
16:29:11 - 0: L (298.59,158.02) +/- (0.10,0.02), R (308.09,125.13) +/- (0.10,0.09))
16:29:11 - 298.5894 0 0 0 0 0 0 0 0 
16:29:17 - 1: L (270.90,158.31) +/- (0.13,0.04), R (278.47,125.29) +/- (0.30,0.05))
16:29:17 - 298.5894 270.9005 0 0 0 0 0 0 0 
16:29:23 - 2: L (242.81,160.20) +/- (0.08,0.04), R (249.62,127.47) +/- (0.08,0.03))
16:29:23 - 298.5894 270.9005 242.8072 0 0 0 0 0 0 
16:29:30 - 3: L (298.11,181.95) +/- (0.03,0.13), R (310.70,149.28) +/- (0.05,0.05))
16:29:30 - 298.5894 270.9005 242.8072 298.1131 0 0 0 0 0 
16:29:36 - 4: L (271.07,182.64) +/- (0.17,0.07), R (281.25,150.03) +/- (0.12,0.08))
16:29:36 - 298.5894 270.9005 242.8072 298.1131 271.0652 0 0 0 0 
16:29:42 - 5: L (240.27,184.36) +/- (0.80,0.04), R (252.88,152.09) +/- (0.53,0.03))
16:29:42 - 298.5894 270.9005 242.8072 298.1131 271.0652 240.2731 0 0 0 
16:29:49 - 6: L (296.66,207.59) +/- (0.04,0.02), R (313.32,175.94) +/- (0.42,0.02))
16:29:49 - 298.5894 270.9005 242.8072 298.1131 271.0652 240.2731 296.6571 0 0 
16:29:55 - 7: L (269.75,208.32) +/- (0.17,0.04), R (284.27,176.73) +/- (0.38,0.07))
16:29:55 - 298.5894 270.9005 242.8072 298.1131 271.0652 240.2731 296.6571 269.7524 0 
16:30:01 - 8: L (241.68,210.54) +/- (0.01,0.04), R (254.75,178.92) +/- (0.14,0.03))
16:30:01 - 298.5894 270.9005 242.8072 298.1131 271.0652 240.2731 296.6571 269.7524 241.6776 
16:30:12 - Calibration finished
16:30:12 - Calibration loop finished.
16:35:57 - Finished EyeCollection`1 consumer  loop : 29901 frames queued; Queued: 190757-220657, Saved: 190757-220657
16:35:57 - Finished EyeTrackerDataAndImages consumer  loop : 29899 frames queued; Queued: 190757-220655, Saved: 190757-220655
16:35:57 - Finished EyeTrackerEvent consumer  loop : 0 frames queued; Queued: -1--1, Saved: -1--1
16:38:24 - Finished EyeCollection`1 consumer  loop : 13685 frames queued; Queued: 221517-235201, Saved: 221517-235201
16:38:24 - Finished EyeTrackerDataAndImages consumer  loop : 13685 frames queued; Queued: 221517-235201, Saved: 221517-235201
16:38:24 - Finished EyeTrackerEvent consumer  loop : 0 frames queued; Queued: -1--1, Saved: -1--1
16:40:55 - Finished EyeCollection`1 consumer  loop : 14034 frames queued; Queued: 236144-250177, Saved: 236144-250177
16:40:55 - Finished EyeTrackerDataAndImages consumer  loop : 14034 frames queued; Queued: 236144-250177, Saved: 236144-250177
16:40:55 - Finished EyeTrackerEvent consumer  loop : 0 frames queued; Queued: -1--1, Saved: -1--1
16:44:16 - Finished EyeCollection`1 consumer  loop : 14399 frames queued; Queued: 255680-270078, Saved: 255680-270078
16:44:16 - Finished EyeTrackerDataAndImages consumer  loop : 14399 frames queued; Queued: 255680-270078, Saved: 255680-270078
16:44:16 - Finished EyeTrackerEvent consumer  loop : 0 frames queued; Queued: -1--1, Saved: -1--1
16:46:39 - Finished EyeCollection`1 consumer  loop : 13276 frames queued; Queued: 270955-284230, Saved: 270955-284230
16:46:39 - Finished EyeTrackerDataAndImages consumer  loop : 13276 frames queued; Queued: 270955-284230, Saved: 270955-284230
16:46:39 - Finished EyeTrackerEvent consumer  loop : 0 frames queued; Queued: -1--1, Saved: -1--1
16:50:30 - Finished EyeCollection`1 consumer  loop : 15786 frames queued; Queued: 291329-307114, Saved: 291329-307114
16:50:30 - Finished EyeTrackerDataAndImages consumer  loop : 15786 frames queued; Queued: 291329-307114, Saved: 291329-307114
16:50:30 - Finished EyeTrackerEvent consumer  loop : 0 frames queued; Queued: -1--1, Saved: -1--1
16:58:47 - Finished EyeCollection`1 consumer  loop : 11939 frames queued; Queued: 344444-356382, Saved: 344444-356382
16:58:47 - Finished EyeTrackerDataAndImages consumer  loop : 11939 frames queued; Queued: 344444-356382, Saved: 344444-356382
16:58:47 - Finished EyeTrackerEvent consumer  loop : 0 frames queued; Queued: -1--1, Saved: -1--1
17:01:08 - Finished EyeCollection`1 consumer  loop : 11927 frames queued; Queued: 358482-370408, Saved: 358482-370408
17:01:08 - Finished EyeTrackerDataAndImages consumer  loop : 11927 frames queued; Queued: 358482-370408, Saved: 358482-370408
17:01:08 - Finished EyeTrackerEvent consumer  loop : 0 frames queued; Queued: -1--1, Saved: -1--1
17:06:42 - Finished EyeCollection`1 consumer  loop : 22416 frames queued; Queued: 381086-403501, Saved: 381086-403501
17:06:42 - Finished EyeTrackerDataAndImages consumer  loop : 22416 frames queued; Queued: 381086-403501, Saved: 381086-403501
17:06:42 - Finished EyeTrackerEvent consumer  loop : 0 frames queued; Queued: -1--1, Saved: -1--1
17:11:20 - Finished EyeCollection`1 consumer  loop : 21443 frames queued; Queued: 409633-431075, Saved: 409633-431075
17:11:20 - Finished EyeTrackerDataAndImages consumer  loop : 21442 frames queued; Queued: 409633-431074, Saved: 409633-431074
17:11:20 - Finished EyeTrackerEvent consumer  loop : 0 frames queued; Queued: -1--1, Saved: -1--1
17:15:23 - Finished EyeCollection`1 consumer  loop : 23184 frames queued; Queued: 431955-455138, Saved: 431955-455138
17:15:23 - Finished EyeTrackerDataAndImages consumer  loop : 23184 frames queued; Queued: 431955-455138, Saved: 431955-455138
17:15:23 - Finished EyeTrackerEvent consumer  loop : 0 frames queued; Queued: -1--1, Saved: -1--1
17:19:28 - Finished EyeCollection`1 consumer  loop : 23369 frames queued; Queued: 456056-479424, Saved: 456056-479424
17:19:28 - Finished EyeTrackerDataAndImages consumer  loop : 23369 frames queued; Queued: 456056-479424, Saved: 456056-479424
17:19:28 - Finished EyeTrackerEvent consumer  loop : 0 frames queued; Queued: -1--1, Saved: -1--1
17:23:44 - Finished EyeCollection`1 consumer  loop : 21579 frames queued; Queued: 483172-504750, Saved: 483172-504750
17:23:44 - Finished EyeTrackerDataAndImages consumer  loop : 21579 frames queued; Queued: 483172-504750, Saved: 483172-504750
17:23:44 - Finished EyeTrackerEvent consumer  loop : 0 frames queued; Queued: -1--1, Saved: -1--1
17:24:32 - Finished head tracker loop.
07:53:15 - Grabber loop finished.
07:53:15 - Process loop finished.
07:53:15 - Process loop finished.
07:53:15 - Process loop finished.
07:53:15 - Process loop finished.
07:53:15 - Output loop finished.
