16:17:44 - Initializing network service ...
16:17:44 - Initializing network service ... completed.
16:17:45 - Initializing complete.
16:17:52 - Verifying grabbing system.
16:17:53 - Running camera callback.
16:17:53 - Waiting for camera...
16:17:53 - Camera reports 0
16:20:22 - Finished EyeCollection`1 consumer  loop : 4963 frames queued; Queued: 9907-14869, Saved: 9907-14869
16:20:22 - Finished EyeTrackerDataAndImages consumer  loop : 3655 frames queued; Queued: 9907-14730, Saved: 9907-14730
16:20:22 - Finished EyeTrackerEvent consumer  loop : 0 frames queued; Queued: -1--1, Saved: -1--1
16:24:40 - Finished EyeCollection`1 consumer  loop : 5291 frames queued; Queued: 35426-40716, Saved: 35426-40716
16:24:40 - Finished EyeTrackerDataAndImages consumer  loop : 3891 frames queued; Queued: 35426-40568, Saved: 35426-40568
16:24:40 - Finished EyeTrackerEvent consumer  loop : 0 frames queued; Queued: -1--1, Saved: -1--1
16:25:33 - Finished EyeCollection`1 consumer  loop : 1862 frames queued; Queued: 44096-45957, Saved: 44096-45957
16:25:33 - Finished EyeTrackerDataAndImages consumer  loop : 1277 frames queued; Queued: 44096-45815, Saved: 44096-45815
16:25:33 - Finished EyeTrackerEvent consumer  loop : 0 frames queued; Queued: -1--1, Saved: -1--1
16:25:43 - Finished head tracker loop.
