12:47:34 - Initializing network service ...
12:47:35 - Initializing network service ... completed.
12:47:36 - Initializing complete.
12:47:37 - Waiting for camera...
12:47:38 - Verifying grabbing system.
12:47:38 - Running camera callback.
12:47:38 - Camera reports 0
12:47:44 - Finished head tracker loop.
12:47:47 - Grabber loop finished.
12:47:47 - Process loop finished.
12:47:47 - Process loop finished.
12:47:47 - Process loop finished.
12:47:47 - Process loop finished.
12:47:47 - Output loop finished.
