14:39:37 - Initializing network service ...
14:39:37 - Initializing network service ... completed.
14:39:37 - Initializing complete.
14:41:05 - Verifying grabbing system.
14:41:05 - Running camera callback.
14:41:05 - Camera reports 0
14:41:23 - 2017-10-12-14:41:23.493 1765 M: KEYPRESS D: 
14:41:23 - 2017-10-12-14:41:23.623 1778 M: KEYPRESS D: 
14:41:23 - 2017-10-12-14:41:23.853 1801 M: KEYPRESS D: 5
14:41:24 - 2017-10-12-14:41:24.073 1823 M: KEYPRESS D: 3
14:41:35 - 0: L (297.48,131.57) +/- (0.23,0.09), R (321.04,99.36) +/- (0.20,0.17))
14:41:35 - 297.4808 0 0 0 0 0 0 0 0 
14:41:41 - 1: L (259.53,124.75) +/- (0.04,0.09), R (283.53,95.28) +/- (0.04,0.08))
14:41:41 - 297.4808 259.5326 0 0 0 0 0 0 0 
14:41:47 - 2: L (219.83,121.43) +/- (0.40,1.82), R (243.68,97.34) +/- (0.50,0.33))
14:41:49 - 297.4808 259.5326 219.8254 0 0 0 0 0 0 
14:41:54 - 3: L (299.62,156.09) +/- (0.05,0.06), R (327.66,125.32) +/- (0.35,0.13))
14:41:56 - 297.4808 259.5326 219.8254 299.618 0 0 0 0 0 
14:42:01 - 4: L (261.45,155.27) +/- (0.03,0.03), R (286.05,127.70) +/- (0.08,0.04))
14:42:01 - 297.4808 259.5326 219.8254 299.618 261.4499 0 0 0 0 
14:42:07 - 5: L (221.73,153.07) +/- (0.29,0.27), R (245.81,128.67) +/- (0.13,0.46))
14:42:08 - 297.4808 259.5326 219.8254 299.618 261.4499 221.7285 0 0 0 
14:42:14 - 6: L (298.78,188.72) +/- (0.07,0.21), R (327.59,160.35) +/- (0.21,0.14))
14:42:15 - 297.4808 259.5326 219.8254 299.618 261.4499 221.7285 298.7826 0 0 
14:42:21 - 7: L (262.14,189.60) +/- (0.15,0.07), R (286.19,164.28) +/- (0.30,0.17))
14:42:21 - 297.4808 259.5326 219.8254 299.618 261.4499 221.7285 298.7826 262.1357 0 
14:42:27 - 8: L (222.50,186.29) +/- (0.21,0.14), R (246.26,162.48) +/- (0.15,0.10))
14:42:39 - Calibration finished
14:42:39 - Calibration loop finished.
15:00:51 - Finished EyeCollection`1 consumer  loop : 102513 frames queued; Queued: 15048-117560, Saved: 15048-117560
15:00:51 - Finished EyeTrackerDataAndImages consumer  loop : 102513 frames queued; Queued: 15048-117560, Saved: 15048-117560
15:00:51 - Finished EyeTrackerEvent consumer  loop : 0 frames queued; Queued: -1--1, Saved: -1--1
15:01:00 - Finished head tracker loop.
15:11:43 - Verifying grabbing system.
15:11:43 - Running camera callback.
15:11:43 - Camera reports 0
15:12:03 - 297.4808 259.5326 219.8254 299.618 261.4499 221.7285 298.7826 262.1357 222.4964 
15:12:08 - 0: L (177.06,131.39) +/- (11851.04,6589.47), R (199.15,122.04) +/- (14469.07,5433.60))
15:12:08 - 177.0627 0 0 0 0 0 0 0 0 
15:12:11 - An error occured, cannot finalize calibration implmentation.
15:12:11 - Calibration loop finished.
15:12:25 - 0: L (278.86,109.61) +/- (0.40,0.64), R (301.41,87.95) +/- (0.08,0.07))
15:12:25 - 278.8612 0 0 0 0 0 0 0 0 
15:12:31 - 1: L (238.93,102.19) +/- (0.72,16.90), R (262.01,87.92) +/- (0.07,0.05))
15:12:32 - 278.8612 238.9284 0 0 0 0 0 0 0 
15:12:38 - 2: L (228.50,109.95) +/- (7526.66,561.03), R (222.29,90.97) +/- (0.08,0.38))
15:12:42 - 278.8612 238.9284 228.4983 0 0 0 0 0 0 
15:13:06 - An error occured, cannot finalize calibration implmentation.
15:13:06 - Calibration loop finished.
15:13:11 - 0: L (279.62,105.94) +/- (0.20,0.06), R (302.16,83.01) +/- (0.17,0.10))
15:13:11 - 279.6192 0 0 0 0 0 0 0 0 
15:13:19 - 1: L (239.01,102.76) +/- (0.21,0.23), R (263.01,83.94) +/- (0.13,0.31))
15:13:21 - 279.6192 239.0067 0 0 0 0 0 0 0 
15:13:28 - 2: L (198.74,105.36) +/- (0.48,0.34), R (222.06,90.09) +/- (0.16,0.75))
15:13:29 - 279.6192 239.0067 198.7364 0 0 0 0 0 0 
15:13:36 - 3: L (282.58,135.24) +/- (0.11,0.03), R (306.86,113.08) +/- (0.21,0.08))
15:13:37 - 279.6192 239.0067 198.7364 282.5811 0 0 0 0 0 
15:13:43 - 4: L (242.84,134.80) +/- (0.34,0.19), R (264.27,117.06) +/- (0.51,0.32))
15:13:45 - 279.6192 239.0067 198.7364 282.5811 242.8428 0 0 0 0 
15:14:02 - 5: L (203.41,139.83) +/- (0.07,0.17), R (223.02,124.95) +/- (0.14,0.23))
15:14:03 - 279.6192 239.0067 198.7364 282.5811 242.8428 203.4118 0 0 0 
15:14:18 - 6: L (286.01,170.57) +/- (0.27,0.13), R (309.47,152.80) +/- (0.24,0.53))
15:14:19 - 279.6192 239.0067 198.7364 282.5811 242.8428 203.4118 286.0144 0 0 
15:14:26 - 7: L (244.90,170.86) +/- (0.24,0.07), R (269.58,155.39) +/- (0.23,0.11))
15:14:27 - 279.6192 239.0067 198.7364 282.5811 242.8428 203.4118 286.0144 244.9012 0 
15:14:33 - 8: L (247.69,165.21) +/- (9612.35,369.99), R (229.31,157.72) +/- (0.10,0.46))
15:14:34 - 279.6192 239.0067 198.7364 282.5811 242.8428 203.4118 286.0144 244.9012 247.6943 
15:14:44 - Calibration finished
15:14:44 - Calibration loop finished.
15:15:03 - 0: L (115.89,100.97) +/- (11564.94,9103.55), R (130.31,93.29) +/- (14726.61,7876.38))
15:15:03 - 115.8946 0 0 0 0 0 0 0 0 
15:15:04 - An error occured, cannot finalize calibration implmentation.
15:15:04 - Calibration loop finished.
15:15:12 - 0: L (279.48,118.35) +/- (0.95,0.73), R (303.89,96.64) +/- (0.20,0.96))
15:15:13 - 279.4766 0 0 0 0 0 0 0 0 
15:15:18 - 1: L (241.35,113.41) +/- (0.06,0.13), R (265.01,94.80) +/- (0.12,0.11))
15:15:19 - 279.4766 241.3451 0 0 0 0 0 0 0 
15:15:25 - 2: L (203.23,115.49) +/- (0.07,0.09), R (224.82,98.69) +/- (0.15,0.05))
15:15:27 - 279.4766 241.3451 203.2271 0 0 0 0 0 0 
15:15:32 - 3: L (286.99,143.04) +/- (0.24,0.11), R (311.11,120.75) +/- (0.56,1.18))
15:15:33 - 279.4766 241.3451 203.2271 286.9852 0 0 0 0 0 
15:15:39 - 4: L (247.26,141.97) +/- (0.12,0.05), R (269.89,122.67) +/- (1.64,0.50))
15:15:40 - 279.4766 241.3451 203.2271 286.9852 247.261 0 0 0 0 
15:15:46 - 5: L (206.64,144.26) +/- (0.05,0.06), R (229.55,126.38) +/- (0.03,0.03))
15:15:47 - 279.4766 241.3451 203.2271 286.9852 247.261 206.6423 0 0 0 
15:15:54 - 6: L (288.04,174.32) +/- (0.11,0.23), R (317.01,156.34) +/- (0.09,0.98))
15:15:54 - 279.4766 241.3451 203.2271 286.9852 247.261 206.6423 288.0411 0 0 
15:16:01 - 7: L (248.76,175.55) +/- (0.07,1.06), R (274.27,158.99) +/- (0.62,1.57))
15:16:02 - 279.4766 241.3451 203.2271 286.9852 247.261 206.6423 288.0411 248.7601 0 
15:16:09 - 8: L (210.07,176.37) +/- (0.35,0.28), R (235.84,160.23) +/- (0.12,0.35))
15:16:10 - 279.4766 241.3451 203.2271 286.9852 247.261 206.6423 288.0411 248.7601 210.0732 
15:16:20 - Calibration finished
15:16:20 - Calibration loop finished.
15:20:59 - Calibration finished
15:20:59 - Calibration loop finished.
15:27:50 - Finished EyeCollection`1 consumer  loop : 61007 frames queued; Queued: 34875-95881, Saved: 34875-95881
15:27:50 - Finished EyeTrackerDataAndImages consumer  loop : 61006 frames queued; Queued: 34875-95880, Saved: 34875-95880
15:27:50 - Finished EyeTrackerEvent consumer  loop : 0 frames queued; Queued: -1--1, Saved: -1--1
15:47:52 - Finished EyeCollection`1 consumer  loop : 61655 frames queued; Queued: 153305-214959, Saved: 153305-214959
15:47:52 - Finished EyeTrackerDataAndImages consumer  loop : 61656 frames queued; Queued: 153305-214960, Saved: 153305-214960
15:47:52 - Finished EyeTrackerEvent consumer  loop : 0 frames queued; Queued: -1--1, Saved: -1--1
15:48:26 - Error details: lastRawFrameNumber: 218354, currentFrameNumber: 0
15:48:26 - Error grabbing: Frame counter is not consistently growing!.
15:48:26 - FATAL ERROR: System.InvalidOperationException: Frame counter is not consistently growing!.
   at OculomotorLab.VOG.ImageGrabbing.CameraEyePointGreyLabyrinth.GrabImageEye() in c:\VOG\Labyrinth VOG Software - MVI Working Version - Testing Software Trigger\labyrinth\LabryinthVOG\ImageGrabbing\CameraEyePointGreyLabyrinth.cs:line 639
   at OculomotorLab.VOG.EyeTrackerImageGrabber.GrabImages() in c:\VOG\Labyrinth VOG Software - MVI Working Version - Testing Software Trigger\source\VOGLib\EyeTrackerImageGrabber.cs:line 552
   at OculomotorLab.VOG.EyeTrackerImageGrabber.GrabLoop() in c:\VOG\Labyrinth VOG Software - MVI Working Version - Testing Software Trigger\source\VOGLib\EyeTrackerImageGrabber.cs:line 478
15:48:26 - FATAL ERROR: FlyCapture2Managed.FC2Exception: Low level failure reading register 0x70008. Error: 0x15.
   at FlyCapture2Managed.ManagedCameraBase.ReadRegister(UInt32 address)
   at OculomotorLab.VOG.ImageGrabbing.CameraEyePointGreyLabyrinth.ReadSensors() in c:\VOG\Labyrinth VOG Software - MVI Working Version - Testing Software Trigger\labyrinth\LabryinthVOG\ImageGrabbing\CameraEyePointGreyLabyrinth.cs:line 710
   at OculomotorLab.VOG.ImageGrabbing.CameraEyePointGreyLabyrinth.HeadSensorLabyrinth.GrabHeadData(Boolean SoftwareTriggerOn) in c:\VOG\Labyrinth VOG Software - MVI Working Version - Testing Software Trigger\labyrinth\LabryinthVOG\HeadTracking\HeadSensorLabyrinth.cs:line 62
   at OculomotorLab.VOG.EyeTrackerHeadTracker.TrackingLoop() in c:\VOG\Labyrinth VOG Software - MVI Working Version - Testing Software Trigger\source\VOGLib\HeadTracking\EyeTrackerHeadTracker.cs:line 235
