13:44:47 - Initializing network service ...
13:44:47 - Initializing network service ... completed.
13:44:48 - Initializing complete.
14:08:25 - Error initializating the system, going into simulation mode.
14:08:25 - Object reference not set to an instance of an object.
14:08:30 - Grabber loop finished.
14:08:30 - Process loop finished.
14:08:30 - Process loop finished.
14:08:30 - Process loop finished.
14:08:30 - Process loop finished.
14:08:30 - Output loop finished.
