11:11:03 - Initializing network service ...
11:11:03 - Initializing network service ... completed.
11:11:04 - Initializing complete.
11:11:08 - Verifying grabbing system.
11:11:08 - Running camera callback.
11:11:08 - Camera reports 0
11:16:04 - Calibration finished
11:16:04 - Calibration loop finished.
11:23:05 - Finished EyeCollection`1 consumer  loop : 41293 frames queued; Queued: 30319-71611, Saved: 30319-71611
11:23:05 - Finished EyeTrackerDataAndImages consumer  loop : 41292 frames queued; Queued: 30319-71610, Saved: 30319-71610
11:23:05 - Finished EyeTrackerEvent consumer  loop : 0 frames queued; Queued: -1--1, Saved: -1--1
11:23:07 - Finished head tracker loop.
12:01:14 - Verifying grabbing system.
12:01:14 - Running camera callback.
12:01:14 - Camera reports 0
12:07:25 - Finished EyeCollection`1 consumer  loop : 35277 frames queued; Queued: 1778-37054, Saved: 1778-37054
12:07:25 - Finished EyeTrackerDataAndImages consumer  loop : 35276 frames queued; Queued: 1778-37053, Saved: 1778-37053
12:07:25 - Finished EyeTrackerEvent consumer  loop : 0 frames queued; Queued: -1--1, Saved: -1--1
12:07:26 - Finished head tracker loop.
10:39:26 - Error initializating the system, going into simulation mode.
10:39:26 - Object reference not set to an instance of an object.
10:39:34 - Grabber loop finished.
10:39:34 - Process loop finished.
10:39:34 - Process loop finished.
10:39:34 - Process loop finished.
10:39:34 - Process loop finished.
10:39:34 - Output loop finished.
