17:00:05 - Initializing network service ...
17:00:05 - Initializing network service ... completed.
17:00:05 - Initializing complete.
17:00:09 - Verifying grabbing system.
17:00:09 - Running camera callback.
17:00:22 - Finished head tracker loop.
17:00:41 - Verifying grabbing system.
17:00:41 - Running camera callback.
17:00:53 - Finished head tracker loop.
17:00:53 - Grabber loop finished.
17:00:54 - Process loop finished.
17:00:54 - Process loop finished.
17:00:54 - Process loop finished.
17:00:54 - Process loop finished.
17:00:54 - Output loop finished.
