10:15:42 - Initializing network service ...
10:15:42 - Initializing network service ... completed.
10:15:43 - Initializing complete.
10:15:47 - Verifying grabbing system.
10:15:47 - Running camera callback.
10:15:47 - Camera reports 0
10:16:23 - 0: L (282.53,148.58) +/- (74.77,233.04), R (203.03,155.14) +/- (42.68,84.53))
10:16:23 - 282.5299 0 0 0 0 0 0 0 0 
10:16:24 - An error occured, cannot finalize calibration implmentation.
10:16:24 - Calibration loop finished.
10:16:26 - 0: L (280.22,164.32) +/- (2.13,85.80), R (193.14,175.02) +/- (1.47,55.88))
10:16:26 - 280.2176 0 0 0 0 0 0 0 0 
10:16:27 - An error occured, cannot finalize calibration implmentation.
10:16:27 - Calibration loop finished.
10:18:27 - 0: L (316.62,146.61) +/- (0.19,0.06), R (214.56,156.10) +/- (0.11,0.20))
10:18:27 - 316.6224 0 0 0 0 0 0 0 0 
10:18:33 - 1: L (290.49,145.80) +/- (0.18,0.05), R (187.13,154.93) +/- (0.21,0.12))
10:18:33 - 316.6224 290.4916 0 0 0 0 0 0 0 
10:18:37 - 2: L (262.42,146.60) +/- (0.29,0.09), R (161.23,155.69) +/- (0.27,0.05))
10:18:37 - 316.6224 290.4916 262.4182 0 0 0 0 0 0 
10:18:42 - 3: L (320.82,170.56) +/- (0.26,0.04), R (212.34,180.47) +/- (0.23,0.10))
10:18:42 - 316.6224 290.4916 262.4182 320.8156 0 0 0 0 0 
10:18:46 - 4: L (293.86,170.27) +/- (0.19,0.09), R (184.97,178.97) +/- (0.37,0.15))
10:18:46 - 316.6224 290.4916 262.4182 320.8156 293.86 0 0 0 0 
10:18:50 - 5: L (265.75,171.32) +/- (0.03,0.09), R (158.93,179.08) +/- (0.28,0.11))
10:18:50 - 316.6224 290.4916 262.4182 320.8156 293.86 265.7473 0 0 0 
10:18:55 - 6: L (323.21,196.57) +/- (0.14,0.33), R (210.68,206.39) +/- (0.16,0.12))
10:18:55 - 316.6224 290.4916 262.4182 320.8156 293.86 265.7473 323.2069 0 0 
10:18:59 - 7: L (296.95,196.10) +/- (0.40,0.05), R (183.20,204.84) +/- (0.39,0.04))
10:18:59 - 316.6224 290.4916 262.4182 320.8156 293.86 265.7473 323.2069 296.9492 0 
10:19:03 - 8: L (269.43,196.89) +/- (0.34,0.05), R (157.01,204.08) +/- (0.22,0.03))
10:19:03 - 316.6224 290.4916 262.4182 320.8156 293.86 265.7473 323.2069 296.9492 269.4291 
10:19:33 - Calibration finished
10:19:33 - Calibration loop finished.
10:35:31 - Finished EyeCollection`1 consumer  loop : 84631 frames queued; Queued: 33662-118292, Saved: 33662-118292
10:35:31 - Finished EyeTrackerDataAndImages consumer  loop : 84630 frames queued; Queued: 33662-118291, Saved: 33662-118291
10:35:31 - Finished EyeTrackerEvent consumer  loop : 0 frames queued; Queued: -1--1, Saved: -1--1
10:37:03 - Finished EyeCollection`1 consumer  loop : 7026 frames queued; Queued: 120468-127493, Saved: 120468-127493
10:37:03 - Finished EyeTrackerDataAndImages consumer  loop : 7024 frames queued; Queued: 120468-127491, Saved: 120468-127491
10:37:03 - Finished EyeTrackerEvent consumer  loop : 0 frames queued; Queued: -1--1, Saved: -1--1
10:37:52 - Finished head tracker loop.
10:45:41 - Verifying grabbing system.
10:45:41 - Running camera callback.
10:45:41 - Camera reports 0
10:49:27 - 0: L (260.02,200.27) +/- (895.32,23.50), R (155.08,210.64) +/- (632.96,46.92))
10:49:27 - 260.02 0 0 0 0 0 0 0 0 
10:49:27 - An error occured, cannot finalize calibration implmentation.
10:49:27 - Calibration loop finished.
10:49:51 - 0: L (320.51,141.17) +/- (0.26,0.21), R (220.35,155.50) +/- (0.60,0.23))
10:49:51 - 320.5054 0 0 0 0 0 0 0 0 
10:49:56 - 1: L (291.64,140.08) +/- (0.13,0.04), R (190.88,155.35) +/- (0.24,0.08))
10:49:56 - 320.5054 291.6394 0 0 0 0 0 0 0 
10:50:00 - 2: L (261.55,140.44) +/- (0.08,0.24), R (163.46,157.27) +/- (0.25,0.26))
10:50:00 - 320.5054 291.6394 261.5453 0 0 0 0 0 0 
10:50:05 - 3: L (323.82,168.09) +/- (0.25,0.21), R (218.74,183.82) +/- (0.32,0.02))
10:50:05 - 320.5054 291.6394 261.5453 323.8216 0 0 0 0 0 
10:50:10 - 4: L (295.35,166.86) +/- (0.21,0.03), R (189.08,182.53) +/- (0.18,0.11))
10:50:10 - 320.5054 291.6394 261.5453 323.8216 295.3548 0 0 0 0 
10:50:15 - 5: L (264.71,167.25) +/- (0.25,0.03), R (159.79,182.40) +/- (0.02,0.04))
10:50:15 - 320.5054 291.6394 261.5453 323.8216 295.3548 264.7119 0 0 0 
10:50:19 - 6: L (325.02,195.99) +/- (0.06,0.24), R (216.90,211.48) +/- (0.18,0.14))
10:50:19 - 320.5054 291.6394 261.5453 323.8216 295.3548 264.7119 325.0155 0 0 
10:50:24 - 7: L (296.59,194.42) +/- (0.39,0.16), R (187.80,209.52) +/- (0.11,0.03))
10:50:24 - 320.5054 291.6394 261.5453 323.8216 295.3548 264.7119 325.0155 296.5881 0 
10:50:28 - 8: L (267.81,195.26) +/- (0.09,0.03), R (159.81,208.74) +/- (0.01,0.03))
10:50:28 - 320.5054 291.6394 261.5453 323.8216 295.3548 264.7119 325.0155 296.5881 267.8088 
10:50:39 - Calibration finished
10:50:39 - Calibration loop finished.
11:01:42 - Finished EyeCollection`1 consumer  loop : 61968 frames queued; Queued: 34115-96082, Saved: 34115-96082
11:01:42 - Finished EyeTrackerDataAndImages consumer  loop : 61967 frames queued; Queued: 34115-96081, Saved: 34115-96081
11:01:42 - Finished EyeTrackerEvent consumer  loop : 0 frames queued; Queued: -1--1, Saved: -1--1
11:03:03 - Finished EyeCollection`1 consumer  loop : 6670 frames queued; Queued: 97516-104185, Saved: 97516-104185
11:03:03 - Finished EyeTrackerDataAndImages consumer  loop : 6668 frames queued; Queued: 97516-104183, Saved: 97516-104183
11:03:03 - Finished EyeTrackerEvent consumer  loop : 0 frames queued; Queued: -1--1, Saved: -1--1
11:03:24 - Finished head tracker loop.
11:14:48 - Verifying grabbing system.
11:14:48 - Running camera callback.
11:14:48 - Camera reports 0
11:17:42 - 0: L (274.29,199.47) +/- (62.91,79.03), R (174.93,225.69) +/- (266.44,337.66))
11:17:42 - 274.2854 0 0 0 0 0 0 0 0 
11:17:43 - An error occured, cannot finalize calibration implmentation.
11:17:43 - Calibration loop finished.
11:17:51 - 0: L (300.65,128.27) +/- (96.92,0.61), R (205.73,173.11) +/- (95.54,0.87))
11:17:51 - 300.6515 0 0 0 0 0 0 0 0 
11:17:55 - An error occured, cannot finalize calibration implmentation.
11:17:55 - Calibration loop finished.
11:18:02 - 0: L (304.98,127.63) +/- (0.43,0.03), R (209.28,173.13) +/- (0.43,0.04))
11:18:02 - 304.9839 0 0 0 0 0 0 0 0 
11:18:08 - 1: L (275.61,127.40) +/- (0.54,0.12), R (179.77,173.87) +/- (0.29,0.14))
11:18:08 - 304.9839 275.6124 0 0 0 0 0 0 0 
11:18:13 - 2: L (246.30,127.47) +/- (0.17,0.04), R (153.10,174.27) +/- (0.07,0.05))
11:18:13 - 304.9839 275.6124 246.2984 0 0 0 0 0 0 
11:18:17 - 3: L (309.99,154.36) +/- (0.18,0.07), R (208.60,200.49) +/- (0.23,0.04))
11:18:17 - 304.9839 275.6124 246.2984 309.9889 0 0 0 0 0 
11:18:22 - 4: L (280.93,152.39) +/- (0.31,0.12), R (178.70,198.37) +/- (0.42,0.08))
11:18:22 - 304.9839 275.6124 246.2984 309.9889 280.9332 0 0 0 0 
11:18:26 - 5: L (249.85,155.28) +/- (0.06,0.05), R (150.45,200.01) +/- (0.07,0.03))
11:18:26 - 304.9839 275.6124 246.2984 309.9889 280.9332 249.8525 0 0 0 
11:18:30 - 6: L (312.79,182.24) +/- (0.43,0.23), R (207.43,224.95) +/- (0.46,0.56))
11:18:31 - 304.9839 275.6124 246.2984 309.9889 280.9332 249.8525 312.7928 0 0 
11:18:35 - 7: L (282.76,181.47) +/- (0.36,0.13), R (177.87,224.35) +/- (0.47,0.08))
11:18:35 - 304.9839 275.6124 246.2984 309.9889 280.9332 249.8525 312.7928 282.7596 0 
11:18:39 - 8: L (254.60,183.98) +/- (0.24,0.02), R (151.03,224.78) +/- (0.19,0.05))
11:18:40 - 304.9839 275.6124 246.2984 309.9889 280.9332 249.8525 312.7928 282.7596 254.6044 
11:18:50 - Calibration finished
11:18:50 - Calibration loop finished.
11:28:44 - Finished EyeCollection`1 consumer  loop : 49816 frames queued; Queued: 33734-83549, Saved: 33734-83549
11:28:44 - Finished EyeTrackerDataAndImages consumer  loop : 49816 frames queued; Queued: 33734-83549, Saved: 33734-83549
11:28:44 - Finished EyeTrackerEvent consumer  loop : 0 frames queued; Queued: -1--1, Saved: -1--1
11:30:11 - Finished EyeCollection`1 consumer  loop : 7290 frames queued; Queued: 84938-92227, Saved: 84938-92227
11:30:11 - Finished EyeTrackerDataAndImages consumer  loop : 7290 frames queued; Queued: 84938-92227, Saved: 84938-92227
11:30:11 - Finished EyeTrackerEvent consumer  loop : 0 frames queued; Queued: -1--1, Saved: -1--1
11:30:30 - Finished head tracker loop.
12:07:04 - Grabber loop finished.
12:07:04 - Process loop finished.
12:07:04 - Process loop finished.
12:07:04 - Process loop finished.
12:07:04 - Process loop finished.
12:07:04 - Output loop finished.
