11:23:10 - Initializing network service ...
11:23:11 - Initializing network service ... completed.
11:23:12 - Initializing complete.
11:23:19 - Verifying grabbing system.
11:23:19 - Running camera callback.
11:23:19 - Camera reports 0
