13:35:38 - Initializing network service ...
13:35:39 - Initializing network service ... completed.
13:35:39 - Initializing complete.
13:35:44 - Verifying grabbing system.
13:35:44 - Running camera callback.
13:35:44 - Camera reports 0
13:36:00 - Finished head tracker loop.
15:26:50 - Grabber loop finished.
15:26:50 - Process loop finished.
15:26:50 - Process loop finished.
15:26:50 - Process loop finished.
15:26:50 - Process loop finished.
15:26:50 - Output loop finished.
