17:57:47 - Initializing network service ...
17:57:48 - Initializing network service ... completed.
17:57:48 - Initializing complete.
17:57:50 - Verifying grabbing system.
17:57:50 - Running camera callback.
17:58:22 - Finished head tracker loop.
17:58:25 - Grabber loop finished.
17:58:25 - Process loop finished.
17:58:25 - Process loop finished.
17:58:25 - Process loop finished.
17:58:25 - Process loop finished.
17:58:25 - Output loop finished.
