13:32:36 - Initializing network service ...
13:32:36 - Initializing network service ... completed.
13:32:36 - Initializing complete.
13:50:51 - Verifying grabbing system.
13:50:51 - Running camera callback.
13:50:51 - Camera reports 0
13:51:16 - 0: L (270.82,185.70) +/- (12524.74,5905.98), R (270.71,168.62) +/- (11613.10,4428.87))
13:51:16 - 270.8153 0 0 0 0 0 0 0 0 
13:51:17 - An error occured, cannot finalize calibration implmentation.
13:51:17 - Calibration loop finished.
13:51:44 - 0: L (359.28,189.36) +/- (0.38,0.04), R (355.55,157.86) +/- (0.28,0.09))
13:51:50 - 1: L (323.23,186.05) +/- (0.13,0.04), R (313.25,156.06) +/- (0.10,0.18))
13:51:50 - 359.2771 323.2341 0 0 0 0 0 0 0 
13:51:56 - 2017-12-12-13:51:56.590 6446 M: KEYPRESS D: 5
13:51:56 - 2017-12-12-13:51:56.740 6463 M: KEYPRESS D: 4
13:51:57 - 2017-12-12-13:51:57.600 6549 M: KEYPRESS D: 
13:52:01 - An error occured, cannot finalize calibration implmentation.
13:52:01 - Calibration loop finished.
13:52:23 - 0: L (360.79,191.36) +/- (0.73,0.04), R (356.72,160.21) +/- (0.45,0.13))
13:52:23 - 360.791 0 0 0 0 0 0 0 0 
13:52:29 - 1: L (326.78,187.41) +/- (0.20,0.07), R (317.45,156.94) +/- (0.27,0.13))
13:52:29 - 360.791 326.7782 0 0 0 0 0 0 0 
13:52:35 - 2: L (286.74,186.49) +/- (0.26,0.14), R (276.61,157.78) +/- (0.42,0.15))
13:52:36 - 360.791 326.7782 286.7429 0 0 0 0 0 0 
13:52:42 - 3: L (365.72,221.85) +/- (0.13,0.15), R (364.52,192.24) +/- (0.13,0.11))
13:52:43 - 360.791 326.7782 286.7429 365.7175 0 0 0 0 0 
13:52:49 - 4: L (328.08,220.07) +/- (0.41,0.07), R (323.54,191.77) +/- (0.24,0.07))
13:52:50 - 360.791 326.7782 286.7429 365.7175 328.0818 0 0 0 0 
13:52:56 - 5: L (288.72,220.09) +/- (0.10,0.03), R (281.52,192.34) +/- (0.14,0.12))
13:52:58 - 360.791 326.7782 286.7429 365.7175 328.0818 288.7245 0 0 0 
13:53:03 - 6: L (361.91,254.92) +/- (0.11,0.05), R (363.32,227.94) +/- (0.30,0.03))
13:53:04 - 360.791 326.7782 286.7429 365.7175 328.0818 288.7245 361.908 0 0 
13:53:09 - 7: L (327.76,255.42) +/- (0.02,0.15), R (324.79,228.36) +/- (0.01,0.02))
13:53:11 - 360.791 326.7782 286.7429 365.7175 328.0818 288.7245 361.908 327.7614 0 
13:53:16 - 8: L (288.74,254.42) +/- (0.65,0.10), R (285.09,228.07) +/- (0.17,0.16))
13:53:17 - 360.791 326.7782 286.7429 365.7175 328.0818 288.7245 361.908 327.7614 288.743 
13:53:28 - Calibration finished
13:53:28 - Calibration loop finished.
13:56:24 - Finished EyeCollection`1 consumer  loop : 492 frames queued; Queued: 32530-33021, Saved: 32530-33021
13:56:24 - Finished EyeTrackerDataAndImages consumer  loop : 491 frames queued; Queued: 32530-33020, Saved: 32530-33020
13:56:24 - Finished EyeTrackerEvent consumer  loop : 0 frames queued; Queued: -1--1, Saved: -1--1
14:09:58 - Finished EyeCollection`1 consumer  loop : 65647 frames queued; Queued: 47990-113636, Saved: 47990-113636
14:09:58 - Finished EyeTrackerDataAndImages consumer  loop : 65643 frames queued; Queued: 47990-113632, Saved: 47990-113632
14:09:58 - Finished EyeTrackerEvent consumer  loop : 0 frames queued; Queued: -1--1, Saved: -1--1
14:14:36 - Finished EyeCollection`1 consumer  loop : 25150 frames queued; Queued: 116081-141230, Saved: 116081-141230
14:14:36 - Finished EyeTrackerDataAndImages consumer  loop : 25149 frames queued; Queued: 116081-141229, Saved: 116081-141229
14:14:36 - Finished EyeTrackerEvent consumer  loop : 0 frames queued; Queued: -1--1, Saved: -1--1
14:21:06 - Finished head tracker loop.
14:21:06 - Error details: lastRawFrameNumber: 179906, currentFrameNumber: 0
15:29:59 - Verifying grabbing system.
15:29:59 - Running camera callback.
15:29:59 - Camera reports 0
15:30:07 - 0: L (318.30,278.70) +/- (867.96,580.98), R (315.70,236.03) +/- (984.78,74.71))
15:30:07 - 318.3043 0 0 0 0 0 0 0 0 
15:30:08 - An error occured, cannot finalize calibration implmentation.
15:30:08 - Calibration loop finished.
15:30:24 - 0: L (378.76,227.27) +/- (0.14,0.09), R (324.93,154.14) +/- (14329.66,3012.16))
15:30:24 - 378.7581 0 0 0 0 0 0 0 0 
15:30:30 - 1: L (347.41,225.57) +/- (0.20,0.06), R (334.59,166.59) +/- (0.23,0.07))
15:30:31 - 378.7581 347.4066 0 0 0 0 0 0 0 
15:30:36 - An error occured, cannot finalize calibration implmentation.
15:30:36 - Calibration loop finished.
15:30:52 - 0: L (385.68,229.52) +/- (0.10,0.08), R (376.85,166.41) +/- (0.13,0.05))
15:30:54 - 385.6819 0 0 0 0 0 0 0 0 
15:30:59 - 1: L (349.75,224.57) +/- (0.07,0.04), R (337.37,164.61) +/- (0.02,0.17))
15:31:00 - 385.6819 349.7539 0 0 0 0 0 0 0 
15:31:06 - 2: L (310.93,223.05) +/- (0.27,0.25), R (297.99,164.40) +/- (0.29,0.11))
15:31:06 - 385.6819 349.7539 310.9308 0 0 0 0 0 0 
15:31:12 - 3: L (386.55,263.50) +/- (0.14,0.24), R (380.79,201.80) +/- (0.16,0.21))
15:31:13 - 385.6819 349.7539 310.9308 386.5457 0 0 0 0 0 
15:31:18 - 4: L (348.49,260.77) +/- (0.32,0.16), R (340.13,202.72) +/- (0.02,0.05))
15:31:19 - 385.6819 349.7539 310.9308 386.5457 348.4908 0 0 0 0 
15:31:25 - 5: L (310.58,258.91) +/- (0.23,0.14), R (300.05,202.79) +/- (0.08,0.05))
15:31:25 - 385.6819 349.7539 310.9308 386.5457 348.4908 310.5757 0 0 0 
15:31:44 - 6: L (381.06,299.17) +/- (0.35,0.12), R (379.65,239.26) +/- (0.26,0.10))
15:31:45 - 385.6819 349.7539 310.9308 386.5457 348.4908 310.5757 381.0632 0 0 
15:31:51 - 7: L (348.11,298.23) +/- (0.12,0.09), R (341.30,240.11) +/- (0.11,0.07))
15:31:51 - 385.6819 349.7539 310.9308 386.5457 348.4908 310.5757 381.0632 348.1133 0 
15:31:58 - 8: L (307.59,294.75) +/- (0.54,0.10), R (302.06,240.98) +/- (0.29,0.14))
15:32:00 - 385.6819 349.7539 310.9308 386.5457 348.4908 310.5757 381.0632 348.1133 307.591 
15:32:09 - Calibration finished
15:32:09 - Calibration loop finished.
15:35:54 - Finished head tracker loop.
15:43:21 - 2017-12-12-15:43:21.497 35105 M: KEYPRESS D: `
15:43:40 - Verifying grabbing system.
15:43:40 - Running camera callback.
15:43:40 - Camera reports 0
15:49:58 - Finished EyeCollection`1 consumer  loop : 28390 frames queued; Queued: 9085-37474, Saved: 9085-37474
15:49:58 - Finished EyeTrackerDataAndImages consumer  loop : 28390 frames queued; Queued: 9085-37474, Saved: 9085-37474
15:49:58 - Finished EyeTrackerEvent consumer  loop : 0 frames queued; Queued: -1--1, Saved: -1--1
15:49:59 - Finished head tracker loop.
15:49:59 - Error details: lastRawFrameNumber: 37589, currentFrameNumber: 0
16:19:09 - Verifying grabbing system.
16:19:09 - Running camera callback.
16:19:09 - Camera reports 0
16:19:14 - 0: L (309.28,258.15) +/- (20.46,1959.22), R (302.88,208.31) +/- (16.26,1557.79))
16:19:14 - 309.2809 0 0 0 0 0 0 0 0 
16:19:15 - An error occured, cannot finalize calibration implmentation.
16:19:15 - Calibration loop finished.
16:19:46 - 0: L (374.25,201.66) +/- (0.30,0.31), R (369.36,157.95) +/- (0.53,0.26))
16:19:46 - 374.2493 0 0 0 0 0 0 0 0 
16:19:51 - 1: L (339.51,199.22) +/- (0.36,0.10), R (329.48,156.11) +/- (0.38,0.15))
16:19:51 - 374.2493 339.5077 0 0 0 0 0 0 0 
16:19:57 - 2: L (301.75,199.39) +/- (0.25,0.13), R (289.05,157.81) +/- (0.24,0.13))
16:19:57 - 374.2493 339.5077 301.7537 0 0 0 0 0 0 
16:20:03 - 3: L (374.95,232.66) +/- (0.21,0.14), R (372.40,192.49) +/- (0.42,0.10))
16:20:03 - 374.2493 339.5077 301.7537 374.9506 0 0 0 0 0 
16:20:09 - 4: L (338.70,235.98) +/- (0.83,0.13), R (333.59,195.33) +/- (0.43,0.11))
16:20:10 - 374.2493 339.5077 301.7537 374.9506 338.7027 0 0 0 0 
16:20:15 - 5: L (302.73,235.45) +/- (0.23,0.04), R (293.00,196.43) +/- (0.13,0.06))
16:20:16 - 374.2493 339.5077 301.7537 374.9506 338.7027 302.7312 0 0 0 
16:20:21 - 6: L (372.93,267.79) +/- (0.18,0.11), R (374.23,227.80) +/- (0.11,0.07))
16:20:22 - 374.2493 339.5077 301.7537 374.9506 338.7027 302.7312 372.9348 0 0 
16:20:27 - 7: L (339.55,268.33) +/- (0.07,0.04), R (336.62,230.53) +/- (0.05,0.07))
16:20:28 - 374.2493 339.5077 301.7537 374.9506 338.7027 302.7312 372.9348 339.5549 0 
16:20:34 - 8: L (301.76,268.36) +/- (0.70,0.16), R (297.15,231.00) +/- (0.24,0.18))
16:20:34 - 374.2493 339.5077 301.7537 374.9506 338.7027 302.7312 372.9348 339.5549 301.7609 
16:20:44 - Calibration finished
16:20:44 - Calibration loop finished.
16:35:33 - Finished EyeCollection`1 consumer  loop : 58867 frames queued; Queued: 38642-97508, Saved: 38642-97508
16:35:33 - Finished EyeTrackerDataAndImages consumer  loop : 58865 frames queued; Queued: 38642-97506, Saved: 38642-97506
16:35:33 - Finished EyeTrackerEvent consumer  loop : 0 frames queued; Queued: -1--1, Saved: -1--1
16:35:51 - Finished head tracker loop.
16:46:09 - Verifying grabbing system.
16:46:09 - Running camera callback.
16:46:10 - Camera reports 0
16:54:57 - Finished EyeCollection`1 consumer  loop : 49547 frames queued; Queued: 2737-52283, Saved: 2737-52283
16:54:57 - Finished EyeTrackerDataAndImages consumer  loop : 49547 frames queued; Queued: 2737-52283, Saved: 2737-52283
16:54:57 - Finished EyeTrackerEvent consumer  loop : 0 frames queued; Queued: -1--1, Saved: -1--1
16:54:58 - Finished head tracker loop.
17:27:18 - Grabber loop finished.
17:27:18 - Process loop finished.
17:27:18 - Process loop finished.
17:27:18 - Process loop finished.
17:27:18 - Process loop finished.
17:27:18 - Output loop finished.
