17:49:59 - Initializing network service ...
17:50:00 - Initializing network service ... completed.
17:50:01 - Initializing complete.
17:50:02 - Verifying grabbing system.
17:50:02 - Running camera callback.
17:50:02 - Camera reports 0
17:52:50 - Finished head tracker loop.
17:54:56 - Grabber loop finished.
17:54:56 - Process loop finished.
17:54:56 - Process loop finished.
17:54:56 - Process loop finished.
17:54:56 - Process loop finished.
17:54:56 - Output loop finished.
