19:39:38 - Initializing network service ...
19:39:38 - Initializing network service ... completed.
19:39:38 - Initializing complete.
19:39:41 - Verifying grabbing system.
19:39:41 - Running camera callback.
19:39:41 - Camera reports 0
19:41:32 - Calibration finished
19:41:32 - Calibration loop finished.
19:42:30 - 0: L (233.78,125.44) +/- (0.24,0.12), R (308.15,163.99) +/- (0.07,0.08))
19:42:30 - 233.7811 0 0 0 0 0 0 0 0 
19:42:34 - 1: L (211.54,124.34) +/- (0.12,0.03), R (283.36,165.07) +/- (0.21,0.03))
19:42:34 - 233.7811 211.5374 0 0 0 0 0 0 0 
19:42:39 - 2: L (187.41,124.49) +/- (0.01,0.06), R (258.79,166.01) +/- (0.04,0.06))
19:42:39 - 233.7811 211.5374 187.4077 0 0 0 0 0 0 
19:42:43 - 3: L (239.55,144.19) +/- (0.11,0.04), R (306.85,183.43) +/- (0.04,0.04))
19:42:43 - 233.7811 211.5374 187.4077 239.5522 0 0 0 0 0 
19:42:47 - 4: L (215.35,143.44) +/- (0.56,0.14), R (281.87,183.66) +/- (0.05,0.06))
19:42:47 - 233.7811 211.5374 187.4077 239.5522 215.3457 0 0 0 0 
19:42:51 - 5: L (171.29,126.59) +/- (3307.28,1802.00), R (258.58,181.98) +/- (44.74,1.22))
19:42:51 - 233.7811 211.5374 187.4077 239.5522 215.3457 171.2903 0 0 0 
19:42:56 - 6: L (240.86,160.97) +/- (0.04,0.05), R (304.69,200.92) +/- (0.34,0.14))
19:42:56 - 233.7811 211.5374 187.4077 239.5522 215.3457 171.2903 240.8588 0 0 
19:42:57 - An error occured, cannot finalize calibration implmentation.
19:42:57 - Calibration loop finished.
19:43:33 - 0: L (236.48,127.65) +/- (0.01,0.02), R (309.76,166.16) +/- (0.48,0.03))
19:43:33 - 236.4813 0 0 0 0 0 0 0 0 
19:43:38 - 1: L (207.77,127.96) +/- (0.17,0.02), R (277.19,168.78) +/- (0.05,0.05))
19:43:38 - 236.4813 207.7722 0 0 0 0 0 0 0 
19:43:42 - 2: L (178.19,129.61) +/- (0.06,0.17), R (247.28,170.46) +/- (0.08,0.81))
19:43:42 - 236.4813 207.7722 178.1942 0 0 0 0 0 0 
19:43:47 - 3: L (240.80,153.93) +/- (0.04,0.11), R (305.85,193.88) +/- (0.06,0.08))
19:43:47 - 236.4813 207.7722 178.1942 240.8046 0 0 0 0 0 
19:43:51 - 4: L (212.52,154.24) +/- (0.12,0.29), R (276.03,194.29) +/- (0.06,0.41))
19:43:51 - 236.4813 207.7722 178.1942 240.8046 212.5174 0 0 0 0 
19:43:55 - 5: L (182.37,155.05) +/- (0.09,0.05), R (245.67,195.63) +/- (0.07,0.12))
19:43:55 - 236.4813 207.7722 178.1942 240.8046 212.5174 182.3675 0 0 0 
19:43:59 - 6: L (242.07,177.99) +/- (0.03,0.04), R (304.59,219.47) +/- (0.03,0.14))
19:43:59 - 236.4813 207.7722 178.1942 240.8046 212.5174 182.3675 242.069 0 0 
19:44:03 - 7: L (214.13,179.08) +/- (0.09,0.05), R (273.62,219.77) +/- (0.13,0.06))
19:44:03 - 236.4813 207.7722 178.1942 240.8046 212.5174 182.3675 242.069 214.1287 0 
19:44:07 - 8: L (184.27,180.91) +/- (0.02,0.05), R (244.80,220.25) +/- (0.02,0.18))
19:44:07 - 236.4813 207.7722 178.1942 240.8046 212.5174 182.3675 242.069 214.1287 184.2731 
19:44:16 - Calibration finished
19:44:16 - Calibration loop finished.
19:53:19 - Finished EyeCollection`1 consumer  loop : 8478 frames queued; Queued: 73250-81727, Saved: 73250-81727
19:53:19 - Finished EyeTrackerDataAndImages consumer  loop : 8478 frames queued; Queued: 73250-81727, Saved: 73250-81727
19:53:19 - Finished EyeTrackerEvent consumer  loop : 0 frames queued; Queued: -1--1, Saved: -1--1
19:58:56 - Finished EyeCollection`1 consumer  loop : 16283 frames queued; Queued: 99161-115443, Saved: 99161-115443
19:58:56 - Finished EyeTrackerDataAndImages consumer  loop : 16283 frames queued; Queued: 99161-115443, Saved: 99161-115443
19:58:56 - Finished EyeTrackerEvent consumer  loop : 0 frames queued; Queued: -1--1, Saved: -1--1
20:11:28 - Finished EyeCollection`1 consumer  loop : 45763 frames queued; Queued: 144832-190594, Saved: 144832-190594
20:11:28 - Finished EyeTrackerDataAndImages consumer  loop : 45762 frames queued; Queued: 144832-190593, Saved: 144832-190593
20:11:28 - Finished EyeTrackerEvent consumer  loop : 0 frames queued; Queued: -1--1, Saved: -1--1
20:11:30 - Finished head tracker loop.
09:12:10 - Grabber loop finished.
09:12:10 - Process loop finished.
09:12:10 - Process loop finished.
09:12:10 - Process loop finished.
09:12:10 - Process loop finished.
09:12:10 - Output loop finished.
