16:40:56 - Initializing network service ...
16:40:56 - Initializing network service ... completed.
16:40:57 - Initializing complete.
16:40:59 - Verifying grabbing system.
16:40:59 - Running camera callback.
16:40:59 - Camera reports 0
16:41:06 - Finished head tracker loop.
16:46:18 - Verifying grabbing system.
16:46:18 - Running camera callback.
16:46:18 - Camera reports 0
16:46:29 - Calibration finished
16:46:29 - Calibration loop finished.
16:47:04 - Finished head tracker loop.
16:47:33 - Verifying grabbing system.
16:47:33 - Running camera callback.
16:47:33 - Camera reports 0
17:03:31 - Finished head tracker loop.
17:04:17 - Verifying grabbing system.
17:04:17 - Running camera callback.
17:04:17 - Camera reports 0
17:04:34 - Finished head tracker loop.
10:54:53 - Grabber loop finished.
10:54:54 - Process loop finished.
10:54:54 - Process loop finished.
10:54:54 - Process loop finished.
10:54:54 - Process loop finished.
10:54:54 - Output loop finished.
