14:52:49 - Initializing network service ...
14:52:49 - Initializing network service ... completed.
14:52:49 - Initializing complete.
14:52:57 - Verifying grabbing system.
14:52:57 - Running camera callback.
14:52:57 - Waiting for camera...
14:52:57 - Camera reports 0
14:55:09 - Finished head tracker loop.
14:55:11 - Verifying grabbing system.
14:55:11 - Running camera callback.
14:55:11 - Camera reports 0
14:55:23 - Finished head tracker loop.
14:55:25 - Verifying grabbing system.
14:55:25 - Running camera callback.
14:55:26 - Camera reports 168
14:55:30 - Finished head tracker loop.
14:55:34 - Verifying grabbing system.
14:55:34 - Running camera callback.
14:55:34 - Camera reports 0
14:56:49 - Finished head tracker loop.
14:56:55 - Verifying grabbing system.
14:56:55 - Running camera callback.
14:56:55 - Camera reports 0
14:58:19 - Finished head tracker loop.
14:58:21 - Verifying grabbing system.
14:58:21 - Running camera callback.
14:58:21 - Camera reports 0
14:58:36 - Finished head tracker loop.
14:58:42 - Verifying grabbing system.
14:58:42 - Running camera callback.
14:58:43 - Camera reports 0
15:00:05 - Finished head tracker loop.
15:00:09 - Verifying grabbing system.
15:00:09 - Running camera callback.
15:00:09 - Camera reports 0
15:00:28 - Finished EyeCollection`1 consumer  loop : 1520 frames queued; Queued: 352-1871, Saved: 352-1871
15:00:28 - Finished EyeTrackerDataAndImages consumer  loop : 1517 frames queued; Queued: 352-1868, Saved: 352-1868
15:00:28 - Finished EyeTrackerEvent consumer  loop : 0 frames queued; Queued: -1--1, Saved: -1--1
15:00:32 - Finished head tracker loop.
15:00:35 - Verifying grabbing system.
15:00:35 - Running camera callback.
15:00:35 - Camera reports 0
15:00:48 - Finished head tracker loop.
15:00:50 - Verifying grabbing system.
15:00:50 - Running camera callback.
15:00:50 - Camera reports 0
15:01:03 - Finished EyeCollection`1 consumer  loop : 834 frames queued; Queued: 421-1254, Saved: 421-1254
15:01:03 - Finished EyeTrackerDataAndImages consumer  loop : 833 frames queued; Queued: 421-1253, Saved: 421-1253
15:01:03 - Finished EyeTrackerEvent consumer  loop : 0 frames queued; Queued: -1--1, Saved: -1--1
15:01:03 - Finished head tracker loop.
15:01:06 - Verifying grabbing system.
15:01:06 - Running camera callback.
15:01:06 - Camera reports 29
15:01:13 - Finished head tracker loop.
15:01:13 - Finished EyeCollection`1 consumer  loop : 527 frames queued; Queued: 183-709, Saved: 183-709
15:01:13 - Finished EyeTrackerDataAndImages consumer  loop : 527 frames queued; Queued: 183-709, Saved: 183-709
15:01:13 - Finished EyeTrackerEvent consumer  loop : 0 frames queued; Queued: -1--1, Saved: -1--1
15:01:15 - Verifying grabbing system.
15:01:15 - Running camera callback.
15:01:15 - Camera reports 0
15:01:29 - Finished EyeCollection`1 consumer  loop : 920 frames queued; Queued: 438-1357, Saved: 438-1357
15:01:29 - Finished EyeTrackerDataAndImages consumer  loop : 918 frames queued; Queued: 438-1355, Saved: 438-1355
15:01:29 - Finished EyeTrackerEvent consumer  loop : 0 frames queued; Queued: -1--1, Saved: -1--1
15:01:33 - Finished head tracker loop.
15:01:35 - Verifying grabbing system.
15:01:35 - Running camera callback.
15:01:35 - Camera reports 0
15:01:43 - 0: L (0.00,0.00) +/- (0.00,0.00), R (237.66,209.71) +/- (0.00,0.00))
15:01:47 - An error occured, cannot finalize calibration implmentation.
15:01:47 - Calibration loop finished.
15:02:08 - Finished EyeCollection`1 consumer  loop : 2859 frames queued; Queued: 399-3257, Saved: 399-3257
15:02:08 - Finished EyeTrackerDataAndImages consumer  loop : 2858 frames queued; Queued: 399-3256, Saved: 399-3256
15:02:08 - Finished EyeTrackerEvent consumer  loop : 0 frames queued; Queued: -1--1, Saved: -1--1
15:02:18 - Finished EyeCollection`1 consumer  loop : 958 frames queued; Queued: 3329-4286, Saved: 3329-4286
15:02:18 - Finished EyeTrackerDataAndImages consumer  loop : 957 frames queued; Queued: 3329-4285, Saved: 3329-4285
15:02:18 - Finished EyeTrackerEvent consumer  loop : 0 frames queued; Queued: -1--1, Saved: -1--1
15:02:19 - Finished head tracker loop.
15:02:22 - Verifying grabbing system.
15:02:22 - Running camera callback.
15:02:22 - Camera reports 0
15:02:38 - Finished EyeCollection`1 consumer  loop : 1274 frames queued; Queued: 338-1611, Saved: 338-1611
15:02:38 - Finished EyeTrackerDataAndImages consumer  loop : 1273 frames queued; Queued: 338-1610, Saved: 338-1610
15:02:38 - Finished EyeTrackerEvent consumer  loop : 0 frames queued; Queued: -1--1, Saved: -1--1
15:02:39 - Finished head tracker loop.
15:02:41 - Verifying grabbing system.
15:02:41 - Running camera callback.
15:02:42 - Camera reports 49
15:02:43 - Finished head tracker loop.
15:02:46 - Verifying grabbing system.
15:02:46 - Running camera callback.
15:02:46 - Camera reports 0
15:08:38 - Finished head tracker loop.
15:08:40 - Verifying grabbing system.
15:08:40 - Running camera callback.
15:08:40 - Camera reports 0
15:08:51 - Finished head tracker loop.
15:09:01 - Verifying grabbing system.
15:09:01 - Running camera callback.
15:09:02 - Finished head tracker loop.
15:09:05 - Verifying grabbing system.
15:09:05 - Running camera callback.
15:09:06 - Camera reports 0
15:09:30 - Finished head tracker loop.
15:09:32 - Verifying grabbing system.
15:09:32 - Running camera callback.
15:09:32 - Camera reports 37
15:09:38 - Finished head tracker loop.
15:09:41 - Verifying grabbing system.
15:09:41 - Running camera callback.
15:09:41 - Camera reports 0
15:10:22 - Finished head tracker loop.
15:10:26 - Verifying grabbing system.
15:10:26 - Running camera callback.
15:10:26 - Camera reports 0
15:16:41 - Finished head tracker loop.
15:16:44 - Verifying grabbing system.
15:16:44 - Running camera callback.
15:16:44 - Camera reports 0
15:18:50 - Finished head tracker loop.
15:18:52 - Verifying grabbing system.
15:18:52 - Running camera callback.
15:18:52 - Camera reports 0
15:23:36 - Finished head tracker loop.
15:36:25 - Verifying grabbing system.
15:36:25 - Running camera callback.
15:36:25 - Camera reports 0
15:42:51 - Finished EyeCollection`1 consumer  loop : 20905 frames queued; Queued: 17612-38516, Saved: 17612-38516
15:42:51 - Finished EyeTrackerDataAndImages consumer  loop : 20905 frames queued; Queued: 17612-38516, Saved: 17612-38516
15:42:51 - Finished EyeTrackerEvent consumer  loop : 0 frames queued; Queued: -1--1, Saved: -1--1
16:00:39 - Finished head tracker loop.
16:10:10 - 2018-05-10-16:10:10.439 145258 M: KEYPRESS D: h
16:20:30 - Verifying grabbing system.
16:20:30 - Running camera callback.
16:20:30 - Camera reports 0
16:21:08 - Error in EyeTrackerSettingsForm: Object reference not set to an instance of an object.
16:21:08 - Error in EyeTrackerSettingsForm: Object reference not set to an instance of an object.
16:25:17 - Finished head tracker loop.
16:25:36 - 2018-05-10-16:25:36.051 28693 M: KEYPRESS D:  
16:25:36 - 2018-05-10-16:25:36.324 28693 M: KEYPRESS D: b
16:28:41 - Verifying grabbing system.
16:28:41 - Running camera callback.
16:28:41 - Camera reports 0
16:29:55 - Finished EyeCollection`1 consumer  loop : 4862 frames queued; Queued: 2541-7402, Saved: 2541-7402
16:29:55 - Finished EyeTrackerDataAndImages consumer  loop : 4860 frames queued; Queued: 2541-7400, Saved: 2541-7400
16:29:55 - Finished EyeTrackerEvent consumer  loop : 0 frames queued; Queued: -1--1, Saved: -1--1
16:29:58 - Finished head tracker loop.
16:30:00 - Verifying grabbing system.
16:30:00 - Running camera callback.
16:30:06 - Finished head tracker loop.
16:30:10 - Verifying grabbing system.
16:30:10 - Running camera callback.
16:30:12 - Finished head tracker loop.
16:30:19 - Verifying grabbing system.
16:30:19 - Running camera callback.
16:30:21 - Finished head tracker loop.
16:30:41 - Verifying grabbing system.
16:30:41 - Running camera callback.
16:30:43 - Finished head tracker loop.
16:31:04 - Error initializating the system, going into simulation mode.
16:31:04 - Failed to read PIO direction register.
16:31:09 - Grabber loop finished.
16:31:09 - Process loop finished.
16:31:09 - Process loop finished.
16:31:09 - Process loop finished.
16:31:09 - Process loop finished.
16:31:09 - Output loop finished.
