14:39:06 - Initializing network service ...
14:39:06 - Initializing network service ... completed.
14:39:06 - Initializing complete.
14:39:08 - Verifying grabbing system.
14:39:08 - Running camera callback.
14:39:08 - Camera reports 0
14:40:23 - 0: L (258.41,196.39) +/- (0.08,0.35), R (211.18,221.87) +/- (0.25,0.30))
14:40:23 - 258.4056 0 0 0 0 
14:40:28 - 1: L (232.45,219.63) +/- (0.12,0.54), R (186.28,246.46) +/- (0.33,1.10))
14:40:28 - 258.4056 232.4539 0 0 0 
14:40:33 - 2: L (259.35,242.51) +/- (0.14,0.23), R (210.36,269.60) +/- (0.86,4.35))
14:40:33 - 258.4056 232.4539 259.3452 0 0 
14:40:37 - 3: L (287.61,221.59) +/- (0.50,2.82), R (235.86,247.07) +/- (0.06,0.44))
14:40:37 - 258.4056 232.4539 259.3452 287.6138 0 
14:40:41 - 4: L (261.49,221.13) +/- (0.50,1.97), R (209.12,246.91) +/- (0.38,1.40))
14:40:41 - Calibration finished
14:40:41 - Calibration loop finished.
14:40:41 - 258.4056 232.4539 259.3452 287.6138 261.4926 
14:40:55 - Finished EyeCollection`1 consumer  loop : 1263 frames queued; Queued: 9399-10661, Saved: 9399-10661
14:40:55 - Finished EyeTrackerEvent consumer  loop : 0 frames queued; Queued: -1--1, Saved: -1--1
14:40:55 - Finished EyeTrackerDataAndImages consumer  loop : 1263 frames queued; Queued: 9399-10661, Saved: 9399-10661
14:41:08 - Finished head tracker loop.
15:00:55 - Verifying grabbing system.
15:00:55 - Running camera callback.
15:00:55 - Camera reports 0
15:01:29 - 0: L (257.90,160.46) +/- (0.11,0.08), R (231.45,181.00) +/- (0.04,0.06))
15:01:29 - 257.9044 0 0 0 0 
15:01:33 - 1: L (256.06,137.69) +/- (0.09,0.20), R (232.28,158.19) +/- (0.18,0.27))
15:01:33 - 257.9044 256.0578 0 0 0 
15:01:37 - 2: L (230.42,162.49) +/- (0.19,0.28), R (204.10,181.46) +/- (0.06,0.31))
15:01:37 - 257.9044 256.0578 230.4166 0 0 
15:01:41 - 3: L (257.71,185.51) +/- (0.14,0.28), R (229.92,205.62) +/- (0.15,0.09))
15:01:41 - 257.9044 256.0578 230.4166 257.7115 0 
15:01:45 - 4: L (285.12,159.99) +/- (0.18,0.38), R (258.23,181.94) +/- (0.03,0.04))
15:01:45 - Calibration finished
15:01:45 - Calibration loop finished.
15:01:45 - 257.9044 256.0578 230.4166 257.7115 285.118 
15:03:18 - Finished EyeCollection`1 consumer  loop : 663 frames queued; Queued: 13529-14191, Saved: 13529-14191
15:03:18 - Finished EyeTrackerEvent consumer  loop : 0 frames queued; Queued: -1--1, Saved: -1--1
15:03:18 - Finished EyeTrackerDataAndImages consumer  loop : 663 frames queued; Queued: 13529-14191, Saved: 13529-14191
15:06:05 - Finished head tracker loop.
15:06:50 - Verifying grabbing system.
15:06:50 - Running camera callback.
15:06:50 - Camera reports 50
15:07:20 - FATAL ERROR: FlyCapture2Managed.FC2Exception: Low level failure reading register 0x70008. Error: 0x15.
   at FlyCapture2Managed.ManagedCameraBase.ReadRegister(UInt32 address)
   at OculomotorLab.VOG.ImageGrabbing.CameraEyePointGreyLabyrinth.ReadSensors() in c:\Labyrinth\OneDrive\Mehdi\LocalGitRepos\Local_VOG\labyrinth\LabryinthVOG\ImageGrabbing\CameraEyePointGreyLabyrinth.cs:line 645
   at OculomotorLab.VOG.ImageGrabbing.CameraEyePointGreyLabyrinth.HeadSensorLabyrinth.GrabHeadData() in c:\Labyrinth\OneDrive\Mehdi\LocalGitRepos\Local_VOG\labyrinth\LabryinthVOG\HeadTracking\HeadSensorLabyrinth.cs:line 61
   at OculomotorLab.VOG.EyeTrackerHeadTracker.TrackingLoop() in c:\Labyrinth\OneDrive\Mehdi\LocalGitRepos\Local_VOG\source\VOGLib\HeadTracking\EyeTrackerHeadTracker.cs:line 230
15:07:20 - Error details: lastRawFrameNumber: 3061, currentFrameNumber: 0
15:07:20 - Error grabbing: Frame counter is not consistently growing!.
15:07:20 - FATAL ERROR: System.InvalidOperationException: Frame counter is not consistently growing!.
   at OculomotorLab.VOG.ImageGrabbing.CameraEyePointGreyLabyrinth.GrabImageEye() in c:\Labyrinth\OneDrive\Mehdi\LocalGitRepos\Local_VOG\labyrinth\LabryinthVOG\ImageGrabbing\CameraEyePointGreyLabyrinth.cs:line 595
   at OculomotorLab.VOG.EyeTrackerImageGrabber.GrabImages() in c:\Labyrinth\OneDrive\Mehdi\LocalGitRepos\Local_VOG\source\VOGLib\EyeTrackerImageGrabber.cs:line 513
   at OculomotorLab.VOG.EyeTrackerImageGrabber.GrabLoop() in c:\Labyrinth\OneDrive\Mehdi\LocalGitRepos\Local_VOG\source\VOGLib\EyeTrackerImageGrabber.cs:line 454
