18:55:49 - Initializing network service ...
18:55:49 - Initializing network service ... completed.
18:55:49 - Initializing complete.
18:55:51 - Verifying grabbing system.
18:55:51 - Running camera callback.
18:55:51 - Camera reports 0
18:56:05 - 2016-10-17-18:56:05.235 1359 M: KEYPRESS D: 
18:56:05 - 2016-10-17-18:56:05.386 1374 M: KEYPRESS D: 
18:56:05 - 2016-10-17-18:56:05.535 1389 M: KEYPRESS D: 5
18:56:05 - 2016-10-17-18:56:05.641 1400 M: KEYPRESS D: 5
18:56:08 - An error occured, cannot finalize calibration implmentation.
18:56:08 - Calibration loop finished.
18:56:17 - 0: L (156.04,200.43) +/- (27225.85,34993.48), R (15.84,97.21) +/- (531.88,19530.25))
18:56:17 - 156.0428 0 0 0 0 0 0 0 0 
18:56:18 - An error occured, cannot finalize calibration implmentation.
18:56:18 - Calibration loop finished.
18:56:29 - 0: L (242.02,245.79) +/- (1.32,0.77), R (363.77,190.24) +/- (0.20,0.91))
18:56:30 - 242.0181 0 0 0 0 0 0 0 0 
18:56:35 - 1: L (195.52,243.13) +/- (0.13,0.31), R (317.58,184.39) +/- (0.18,0.27))
18:56:35 - 242.0181 195.5227 0 0 0 0 0 0 0 
18:56:39 - 2: L (149.45,244.70) +/- (0.15,0.42), R (273.58,182.29) +/- (0.32,0.75))
18:56:40 - 242.0181 195.5227 149.4486 0 0 0 0 0 0 
18:56:44 - 3: L (247.86,288.94) +/- (0.88,0.06), R (359.81,231.64) +/- (0.61,0.21))
18:56:44 - 242.0181 195.5227 149.4486 247.8583 0 0 0 0 0 
18:56:48 - 4: L (196.02,285.27) +/- (0.12,0.52), R (307.88,223.81) +/- (0.10,0.65))
18:56:48 - 242.0181 195.5227 149.4486 247.8583 196.0178 0 0 0 0 
18:56:53 - 5: L (150.22,284.54) +/- (2.71,1.28), R (266.33,219.73) +/- (2.51,1.53))
18:56:53 - 242.0181 195.5227 149.4486 247.8583 196.0178 150.2162 0 0 0 
18:56:57 - 6: L (245.75,325.11) +/- (1.37,0.38), R (352.33,267.22) +/- (1.47,0.12))
18:56:57 - 242.0181 195.5227 149.4486 247.8583 196.0178 150.2162 245.753 0 0 
18:57:01 - 7: L (197.50,325.05) +/- (0.05,0.20), R (305.57,260.90) +/- (0.38,0.46))
18:57:01 - 242.0181 195.5227 149.4486 247.8583 196.0178 150.2162 245.753 197.5019 0 
18:57:05 - 8: L (153.90,326.31) +/- (0.21,0.44), R (265.01,257.97) +/- (0.11,0.33))
18:57:05 - 242.0181 195.5227 149.4486 247.8583 196.0178 150.2162 245.753 197.5019 153.8966 
18:57:14 - Calibration finished
18:57:14 - Calibration loop finished.
19:00:49 - Finished EyeCollection`1 consumer  loop : 15235 frames queued; Queued: 14553-29787, Saved: 14553-29787
19:00:49 - Finished EyeTrackerDataAndImages consumer  loop : 15235 frames queued; Queued: 14553-29787, Saved: 14553-29787
19:00:49 - Finished EyeTrackerEvent consumer  loop : 0 frames queued; Queued: -1--1, Saved: -1--1
19:03:07 - Finished EyeCollection`1 consumer  loop : 11854 frames queued; Queued: 31663-43516, Saved: 31663-43516
19:03:07 - Finished EyeTrackerDataAndImages consumer  loop : 11854 frames queued; Queued: 31663-43516, Saved: 31663-43516
19:03:07 - Finished EyeTrackerEvent consumer  loop : 0 frames queued; Queued: -1--1, Saved: -1--1
19:04:27 - Finished EyeCollection`1 consumer  loop : 6235 frames queued; Queued: 45331-51565, Saved: 45331-51565
19:04:27 - Finished EyeTrackerDataAndImages consumer  loop : 6235 frames queued; Queued: 45331-51565, Saved: 45331-51565
19:04:27 - Finished EyeTrackerEvent consumer  loop : 0 frames queued; Queued: -1--1, Saved: -1--1
19:05:46 - Finished head tracker loop.
13:02:23 - Grabber loop finished.
13:02:23 - Process loop finished.
13:02:23 - Process loop finished.
13:02:23 - Process loop finished.
13:02:23 - Process loop finished.
13:02:23 - Output loop finished.
