22:22:09 - Initializing network service ...
22:22:09 - Initializing network service ... completed.
22:22:09 - Initializing complete.
22:22:11 - Verifying grabbing system.
22:22:11 - Running camera callback.
22:22:11 - Camera reports 1
22:22:20 - Finished head tracker loop.
22:22:22 - Grabber loop finished.
22:22:22 - Process loop finished.
22:22:22 - Process loop finished.
22:22:22 - Process loop finished.
22:22:22 - Process loop finished.
22:22:22 - Output loop finished.
