12:30:05 - Initializing network service ...
12:30:06 - Error starting service: There is already a listener on IP endpoint 0.0.0.0:9000. This could happen if there is another application already listening on this endpoint or if you have multiple service endpoints in your service host with the same IP endpoint but with incompatible binding configurations.
12:30:06 - Initializing network service ... completed.
12:30:06 - Initializing complete.
12:30:25 - Verifying grabbing system.
12:30:25 - Running camera callback.
12:30:25 - Camera reports 0
12:30:41 - Finished head tracker loop.
12:30:52 - Verifying grabbing system.
12:30:52 - Running camera callback.
12:30:52 - Camera reports 0
12:30:58 - Finished head tracker loop.
12:31:00 - Grabber loop finished.
12:31:00 - Process loop finished.
12:31:00 - Process loop finished.
12:31:00 - Process loop finished.
12:31:00 - Process loop finished.
12:31:00 - Output loop finished.
