09:52:31 - Initializing network service ...
09:52:31 - Initializing network service ... completed.
09:52:31 - Initializing complete.
09:52:36 - Verifying grabbing system.
09:52:36 - Running camera callback.
09:52:36 - Camera reports 0
09:54:14 - FATAL ERROR: FlyCapture2Managed.FC2Exception: Low level failure reading register 0x70008. Error: 0xe.
   at FlyCapture2Managed.ManagedCameraBase.ReadRegister(UInt32 address)
   at OculomotorLab.VOG.ImageGrabbing.CameraEyePointGreyLabyrinth.ReadSensors() in c:\VOG\Labyrinth VOG Software - MVI Working Version - Testing Software Trigger\labyrinth\LabryinthVOG\ImageGrabbing\CameraEyePointGreyLabyrinth.cs:line 710
   at OculomotorLab.VOG.ImageGrabbing.CameraEyePointGreyLabyrinth.HeadSensorLabyrinth.GrabHeadData(Boolean SoftwareTriggerOn) in c:\VOG\Labyrinth VOG Software - MVI Working Version - Testing Software Trigger\labyrinth\LabryinthVOG\HeadTracking\HeadSensorLabyrinth.cs:line 62
   at OculomotorLab.VOG.EyeTrackerHeadTracker.TrackingLoop() in c:\VOG\Labyrinth VOG Software - MVI Working Version - Testing Software Trigger\source\VOGLib\HeadTracking\EyeTrackerHeadTracker.cs:line 235
09:56:05 - 0: L (353.84,192.19) +/- (0.12,0.07), R (345.16,135.77) +/- (0.08,0.09))
09:56:13 - 1: L (327.15,189.45) +/- (0.04,0.14), R (315.87,134.27) +/- (0.03,0.11))
09:56:13 - 353.8382 327.1524 0 0 0 0 0 0 0 
09:56:21 - 2: L (299.98,188.25) +/- (0.16,0.13), R (287.10,135.79) +/- (0.13,0.17))
09:56:21 - 353.8382 327.1524 299.9814 0 0 0 0 0 0 
09:56:28 - 3: L (354.97,213.86) +/- (0.05,0.18), R (348.69,159.28) +/- (0.11,0.45))
09:56:29 - 353.8382 327.1524 299.9814 354.9722 0 0 0 0 0 
09:56:36 - 4: L (327.83,212.29) +/- (0.38,0.07), R (319.26,158.90) +/- (0.38,0.16))
09:56:39 - 353.8382 327.1524 299.9814 354.9722 327.8338 0 0 0 0 
09:56:44 - 5: L (299.76,211.25) +/- (0.11,0.10), R (289.84,159.15) +/- (0.24,0.12))
09:56:45 - 353.8382 327.1524 299.9814 354.9722 327.8338 299.764 0 0 0 
09:56:52 - 6: L (353.72,236.97) +/- (0.11,0.05), R (349.08,184.20) +/- (0.02,0.08))
09:56:53 - 353.8382 327.1524 299.9814 354.9722 327.8338 299.764 353.7216 0 0 
09:56:59 - 7: L (326.86,236.48) +/- (0.10,0.09), R (320.66,183.22) +/- (0.24,0.18))
09:57:00 - 353.8382 327.1524 299.9814 354.9722 327.8338 299.764 353.7216 326.8603 0 
09:57:06 - 8: L (298.41,235.15) +/- (0.68,0.05), R (290.40,184.45) +/- (0.28,0.09))
09:57:25 - Calibration finished
09:57:25 - Calibration loop finished.
09:58:55 - Error details: lastRawFrameNumber: 234364, currentFrameNumber: 0
09:58:55 - Error grabbing: Frame counter is not consistently growing!.
09:58:55 - FATAL ERROR: System.InvalidOperationException: Frame counter is not consistently growing!.
   at OculomotorLab.VOG.ImageGrabbing.CameraEyePointGreyLabyrinth.GrabImageEye() in c:\VOG\Labyrinth VOG Software - MVI Working Version - Testing Software Trigger\labyrinth\LabryinthVOG\ImageGrabbing\CameraEyePointGreyLabyrinth.cs:line 639
   at OculomotorLab.VOG.EyeTrackerImageGrabber.GrabImages() in c:\VOG\Labyrinth VOG Software - MVI Working Version - Testing Software Trigger\source\VOGLib\EyeTrackerImageGrabber.cs:line 552
   at OculomotorLab.VOG.EyeTrackerImageGrabber.GrabLoop() in c:\VOG\Labyrinth VOG Software - MVI Working Version - Testing Software Trigger\source\VOGLib\EyeTrackerImageGrabber.cs:line 478
