13:25:31 - Initializing network service ...
13:25:31 - Initializing network service ... completed.
13:25:31 - Initializing complete.
13:25:35 - Verifying grabbing system.
13:25:35 - Running camera callback.
13:25:36 - Camera reports 0
13:26:20 - 0: L (358.22,188.34) +/- (0.04,0.10), R (205.95,182.49) +/- (0.12,0.18))
13:26:20 - 358.2187 0 0 0 0 
13:26:22 - An error occured, cannot finalize calibration implmentation.
13:26:22 - Calibration loop finished.
13:26:25 - 0: L (357.12,189.62) +/- (0.03,0.04), R (205.80,184.54) +/- (0.22,0.06))
13:26:25 - 357.1202 0 0 0 0 
13:26:28 - 1: L (357.78,167.42) +/- (0.31,0.71), R (206.95,163.29) +/- (0.15,0.79))
13:26:28 - 357.1202 357.7765 0 0 0 
13:26:31 - 2: L (330.09,190.99) +/- (0.05,0.41), R (179.07,185.20) +/- (0.20,0.10))
13:26:31 - 357.1202 357.7765 330.0856 0 0 
13:26:34 - 3: L (358.10,213.60) +/- (0.37,0.32), R (204.66,210.25) +/- (0.11,0.26))
13:26:34 - 357.1202 357.7765 330.0856 358.1025 0 
13:26:37 - 4: L (384.41,188.85) +/- (0.05,0.23), R (231.24,187.61) +/- (0.06,0.09))
13:26:37 - Calibration finished
13:26:37 - 357.1202 357.7765 330.0856 358.1025 384.4056 
13:26:37 - Calibration loop finished.
13:28:46 - Finished EyeTrackerDataAndImages consumer  loop : 336 frames queued; Queued: 18556-18891, Saved: 18556-18891
13:28:58 - Finished EyeCollection`1 consumer  loop : 1491 frames queued; Queued: 18556-20046, Saved: 18556-20046
13:28:58 - Finished EyeTrackerEvent consumer  loop : 0 frames queued; Queued: -1--1, Saved: -1--1
13:30:56 - Finished EyeCollection`1 consumer  loop : 807 frames queued; Queued: 30920-31726, Saved: 30920-31726
13:30:56 - Finished EyeTrackerEvent consumer  loop : 0 frames queued; Queued: -1--1, Saved: -1--1
13:30:56 - Finished EyeTrackerDataAndImages consumer  loop : 807 frames queued; Queued: 30920-31726, Saved: 30920-31726
13:31:58 - 0: L (224.36,187.56) +/- (0.17,0.15), R (198.45,179.51) +/- (0.05,0.05))
13:31:58 - 224.3577 0 0 0 0 
13:32:01 - 1: L (223.88,163.51) +/- (0.02,0.07), R (199.08,154.91) +/- (0.06,0.08))
13:32:01 - 224.3577 223.8837 0 0 0 
13:32:04 - 2: L (198.25,188.91) +/- (0.13,0.14), R (170.94,179.69) +/- (0.05,0.06))
13:32:04 - 224.3577 223.8837 198.2493 0 0 
13:32:07 - 3: L (223.96,211.19) +/- (0.11,0.13), R (198.68,206.01) +/- (0.25,0.28))
13:32:08 - 224.3577 223.8837 198.2493 223.9623 0 
13:32:11 - 4: L (251.25,185.96) +/- (0.04,0.07), R (225.64,181.09) +/- (0.07,0.02))
13:32:11 - Calibration finished
13:32:11 - Calibration loop finished.
13:32:11 - 224.3577 223.8837 198.2493 223.9623 251.25 
13:32:26 - Finished EyeCollection`1 consumer  loop : 579 frames queued; Queued: 40082-40660, Saved: 40082-40660
13:32:26 - Finished EyeTrackerEvent consumer  loop : 0 frames queued; Queued: -1--1, Saved: -1--1
13:32:26 - Finished EyeTrackerDataAndImages consumer  loop : 579 frames queued; Queued: 40082-40660, Saved: 40082-40660
13:36:40 - FATAL ERROR: FlyCapture2Managed.FC2Exception: Low level failure reading register 0x70008. Error: 0x15.
   at FlyCapture2Managed.ManagedCameraBase.ReadRegister(UInt32 address)
   at OculomotorLab.VOG.ImageGrabbing.CameraEyePointGreyLabyrinth.ReadSensors() in c:\Labyrinth\OneDrive\Mehdi\LocalGitRepos\Local_VOG\labyrinth\LabryinthVOG\ImageGrabbing\CameraEyePointGreyLabyrinth.cs:line 645
   at OculomotorLab.VOG.ImageGrabbing.CameraEyePointGreyLabyrinth.HeadSensorLabyrinth.GrabHeadData() in c:\Labyrinth\OneDrive\Mehdi\LocalGitRepos\Local_VOG\labyrinth\LabryinthVOG\HeadTracking\HeadSensorLabyrinth.cs:line 61
   at OculomotorLab.VOG.EyeTrackerHeadTracker.TrackingLoop() in c:\Labyrinth\OneDrive\Mehdi\LocalGitRepos\Local_VOG\source\VOGLib\HeadTracking\EyeTrackerHeadTracker.cs:line 230
13:36:40 - Error details: lastRawFrameNumber: 65892, currentFrameNumber: 0
13:36:40 - Error grabbing: Frame counter is not consistently growing!.
13:36:40 - FATAL ERROR: System.InvalidOperationException: Frame counter is not consistently growing!.
   at OculomotorLab.VOG.ImageGrabbing.CameraEyePointGreyLabyrinth.GrabImageEye() in c:\Labyrinth\OneDrive\Mehdi\LocalGitRepos\Local_VOG\labyrinth\LabryinthVOG\ImageGrabbing\CameraEyePointGreyLabyrinth.cs:line 595
   at OculomotorLab.VOG.EyeTrackerImageGrabber.GrabImages() in c:\Labyrinth\OneDrive\Mehdi\LocalGitRepos\Local_VOG\source\VOGLib\EyeTrackerImageGrabber.cs:line 513
   at OculomotorLab.VOG.EyeTrackerImageGrabber.GrabLoop() in c:\Labyrinth\OneDrive\Mehdi\LocalGitRepos\Local_VOG\source\VOGLib\EyeTrackerImageGrabber.cs:line 454
