15:30:40 - Initializing network service ...
15:30:41 - Initializing network service ... completed.
15:30:41 - Initializing complete.
15:30:43 - Verifying grabbing system.
15:30:43 - Running camera callback.
15:30:43 - Camera reports 0
