12:41:13 - Initializing network service ...
12:41:18 - Initializing network service ... completed.
12:41:21 - Initializing complete.
12:41:22 - timerRefreshUI_Tick: System.NullReferenceException: Object reference not set to an instance of an object.
   at OculomotorLab.VOG.UI.EyeTrackerGui.UpdateUI() in c:\VOG\Labyrinth VOG Software - MVI Working Version - Testing Software Trigger\source\EyeTrackerGui\EyeTrackerGui.cs:line 808
   at OculomotorLab.VOG.UI.EyeTrackerGui.UpdateGraphics() in c:\VOG\Labyrinth VOG Software - MVI Working Version - Testing Software Trigger\source\EyeTrackerGui\EyeTrackerGui.cs:line 199
   at OculomotorLab.VOG.UI.EyeTrackerGui.timerRefreshUI_Tick(Object sender, EventArgs e) in c:\VOG\Labyrinth VOG Software - MVI Working Version - Testing Software Trigger\source\EyeTrackerGui\EyeTrackerGui.cs:line 899
12:47:13 - Grabber loop finished.
12:47:14 - Process loop finished.
12:47:14 - Process loop finished.
12:47:14 - Process loop finished.
12:47:14 - Process loop finished.
12:47:14 - Output loop finished.
