13:05:14 - Initializing network service ...
13:05:14 - Initializing network service ... completed.
13:05:14 - Initializing complete.
13:07:02 - Verifying grabbing system.
13:07:02 - Running camera callback.
13:07:02 - Camera reports 0
13:08:05 - Finished head tracker loop.
13:08:08 - Grabber loop finished.
13:08:08 - Process loop finished.
13:08:08 - Process loop finished.
13:08:08 - Process loop finished.
13:08:08 - Process loop finished.
13:08:08 - Output loop finished.
