16:02:15 - Initializing network service ...
16:02:15 - Initializing network service ... completed.
16:02:15 - Initializing complete.
16:02:19 - Verifying grabbing system.
16:02:19 - Running camera callback.
16:02:19 - Camera reports 0
16:12:06 - Finished EyeCollection`1 consumer  loop : 47629 frames queued; Queued: 10537-58165, Saved: 10537-58165
16:12:06 - Finished EyeTrackerDataAndImages consumer  loop : 47628 frames queued; Queued: 10537-58164, Saved: 10537-58164
16:12:06 - Finished EyeTrackerEvent consumer  loop : 0 frames queued; Queued: -1--1, Saved: -1--1
16:18:43 - Finished EyeCollection`1 consumer  loop : 39212 frames queued; Queued: 58300-97511, Saved: 58300-97511
16:18:43 - Finished EyeTrackerDataAndImages consumer  loop : 39210 frames queued; Queued: 58300-97509, Saved: 58300-97509
16:18:43 - Finished EyeTrackerEvent consumer  loop : 0 frames queued; Queued: -1--1, Saved: -1--1
16:24:55 - Finished EyeCollection`1 consumer  loop : 36759 frames queued; Queued: 97590-134348, Saved: 97590-134348
16:24:55 - Finished EyeTrackerDataAndImages consumer  loop : 36755 frames queued; Queued: 97590-134344, Saved: 97590-134344
16:24:55 - Finished EyeTrackerEvent consumer  loop : 0 frames queued; Queued: -1--1, Saved: -1--1
16:24:56 - Finished head tracker loop.
08:09:00 - Verifying grabbing system.
08:09:00 - Running camera callback.
08:09:00 - Camera reports 0
08:09:14 - Finished head tracker loop.
08:09:20 - Verifying grabbing system.
08:09:20 - Running camera callback.
08:09:20 - Camera reports 0
08:09:23 - 0: L (0.00,0.00) +/- (0.00,0.00), R (0.00,0.00) +/- (0.00,0.00))
08:09:23 - 0 0 0 0 0 0 0 0 0 
08:09:24 - An error occured, cannot finalize calibration implmentation.
08:09:24 - Calibration loop finished.
08:09:27 - 0: L (0.00,0.00) +/- (0.00,0.00), R (0.00,0.00) +/- (0.00,0.00))
08:09:27 - 0 0 0 0 0 0 0 0 0 
08:09:28 - An error occured, cannot finalize calibration implmentation.
08:09:28 - Calibration loop finished.
08:12:21 - 0: L (353.22,138.85) +/- (0.11,0.26), R (296.40,95.36) +/- (0.64,0.11))
08:12:23 - 353.2172 0 0 0 0 0 0 0 0 
08:12:28 - 1: L (325.38,139.31) +/- (0.20,0.20), R (264.86,96.64) +/- (0.03,0.12))
08:12:28 - 353.2172 325.3765 0 0 0 0 0 0 0 
08:12:34 - 2: L (297.27,140.91) +/- (0.04,0.18), R (233.22,98.90) +/- (0.20,0.18))
08:12:35 - 353.2172 325.3765 297.2692 0 0 0 0 0 0 
08:12:41 - 3: L (356.31,164.15) +/- (0.14,0.92), R (297.83,122.09) +/- (0.46,0.63))
08:12:41 - 353.2172 325.3765 297.2692 356.3124 0 0 0 0 0 
08:12:47 - 4: L (327.95,164.49) +/- (0.08,0.15), R (266.71,122.71) +/- (0.20,0.10))
08:12:48 - 353.2172 325.3765 297.2692 356.3124 327.9492 0 0 0 0 
08:12:53 - 5: L (299.32,165.25) +/- (0.03,0.06), R (235.49,125.13) +/- (0.38,0.13))
08:12:54 - 353.2172 325.3765 297.2692 356.3124 327.9492 299.3246 0 0 0 
08:13:00 - 6: L (357.24,190.31) +/- (0.06,0.03), R (298.73,149.13) +/- (0.30,0.23))
08:13:00 - 353.2172 325.3765 297.2692 356.3124 327.9492 299.3246 357.2408 0 0 
08:13:07 - 7: L (330.17,189.84) +/- (0.04,0.07), R (268.86,150.17) +/- (0.15,0.11))
08:13:07 - 353.2172 325.3765 297.2692 356.3124 327.9492 299.3246 357.2408 330.1713 0 
08:13:13 - 8: L (301.65,190.77) +/- (0.08,0.14), R (238.30,152.44) +/- (0.09,0.17))
08:13:16 - 353.2172 325.3765 297.2692 356.3124 327.9492 299.3246 357.2408 330.1713 301.6532 
08:13:27 - Calibration finished
08:13:27 - Calibration loop finished.
08:23:25 - Finished EyeCollection`1 consumer  loop : 44034 frames queued; Queued: 39701-83734, Saved: 39701-83734
08:23:25 - Finished EyeTrackerDataAndImages consumer  loop : 44034 frames queued; Queued: 39701-83734, Saved: 39701-83734
08:23:25 - Finished EyeTrackerEvent consumer  loop : 0 frames queued; Queued: -1--1, Saved: -1--1
08:27:06 - Finished EyeCollection`1 consumer  loop : 21723 frames queued; Queued: 83941-105663, Saved: 83941-105663
08:27:06 - Finished EyeTrackerDataAndImages consumer  loop : 21722 frames queued; Queued: 83941-105662, Saved: 83941-105662
08:27:06 - Finished EyeTrackerEvent consumer  loop : 0 frames queued; Queued: -1--1, Saved: -1--1
08:32:10 - Finished EyeCollection`1 consumer  loop : 25512 frames queued; Queued: 110327-135838, Saved: 110327-135838
08:32:10 - Finished EyeTrackerDataAndImages consumer  loop : 25509 frames queued; Queued: 110327-135835, Saved: 110327-135835
08:32:10 - Finished EyeTrackerEvent consumer  loop : 0 frames queued; Queued: -1--1, Saved: -1--1
08:36:27 - Finished EyeCollection`1 consumer  loop : 24221 frames queued; Queued: 137040-161260, Saved: 137040-161260
08:36:27 - Finished EyeTrackerDataAndImages consumer  loop : 24220 frames queued; Queued: 137040-161259, Saved: 137040-161259
08:36:27 - Finished EyeTrackerEvent consumer  loop : 0 frames queued; Queued: -1--1, Saved: -1--1
08:41:30 - 0: L (319.83,199.45) +/- (481.05,106.25), R (267.65,167.47) +/- (1047.27,239.44))
08:41:30 - 319.8318 0 0 0 0 0 0 0 0 
08:41:31 - An error occured, cannot finalize calibration implmentation.
08:41:31 - Calibration loop finished.
08:42:10 - 0: L (355.55,143.91) +/- (0.11,0.41), R (301.30,104.10) +/- (0.14,0.30))
08:42:10 - 355.5506 0 0 0 0 0 0 0 0 
08:42:17 - 1: L (324.85,142.56) +/- (0.06,0.05), R (265.13,104.47) +/- (0.12,0.27))
08:42:18 - 355.5506 324.845 0 0 0 0 0 0 0 
08:42:24 - 2: L (293.32,142.52) +/- (0.09,0.22), R (231.23,106.83) +/- (0.02,0.03))
08:42:26 - 355.5506 324.845 293.3193 0 0 0 0 0 0 
08:42:32 - 3: L (357.89,168.71) +/- (0.04,0.09), R (301.73,132.58) +/- (0.02,0.13))
08:42:33 - 355.5506 324.845 293.3193 357.8936 0 0 0 0 0 
08:42:40 - 4: L (327.14,167.49) +/- (0.05,0.05), R (268.08,131.80) +/- (0.06,0.22))
08:42:43 - 355.5506 324.845 293.3193 357.8936 327.1422 0 0 0 0 
08:42:51 - 5: L (296.37,167.68) +/- (0.02,0.04), R (232.81,131.84) +/- (0.70,0.13))
08:42:55 - 355.5506 324.845 293.3193 357.8936 327.1422 296.3661 0 0 0 
08:43:03 - 6: L (360.22,194.78) +/- (0.25,0.12), R (303.10,160.61) +/- (0.25,0.30))
08:43:03 - 355.5506 324.845 293.3193 357.8936 327.1422 296.3661 360.2247 0 0 
08:43:18 - 7: L (332.01,200.18) +/- (0.08,0.06), R (272.86,166.08) +/- (0.13,0.26))
08:43:20 - 355.5506 324.845 293.3193 357.8936 327.1422 296.3661 360.2247 332.0089 0 
08:43:34 - 8: L (302.80,197.40) +/- (0.62,3.16), R (239.41,166.20) +/- (0.89,4.88))
08:43:36 - 355.5506 324.845 293.3193 357.8936 327.1422 296.3661 360.2247 332.0089 302.8026 
08:43:45 - Calibration finished
08:43:45 - Calibration loop finished.
08:50:18 - Finished EyeCollection`1 consumer  loop : 36063 frames queued; Queued: 207586-243648, Saved: 207586-243648
08:50:18 - Finished EyeTrackerDataAndImages consumer  loop : 36063 frames queued; Queued: 207586-243648, Saved: 207586-243648
08:50:18 - Finished EyeTrackerEvent consumer  loop : 0 frames queued; Queued: -1--1, Saved: -1--1
08:55:13 - Finished EyeCollection`1 consumer  loop : 29096 frames queued; Queued: 243763-272858, Saved: 243763-272858
08:55:13 - Finished EyeTrackerDataAndImages consumer  loop : 29095 frames queued; Queued: 243763-272857, Saved: 243763-272857
08:55:13 - Finished EyeTrackerEvent consumer  loop : 0 frames queued; Queued: -1--1, Saved: -1--1
09:02:30 - Finished EyeCollection`1 consumer  loop : 37330 frames queued; Queued: 278826-316155, Saved: 278826-316155
09:02:30 - Finished EyeTrackerDataAndImages consumer  loop : 37326 frames queued; Queued: 278826-316151, Saved: 278826-316151
09:02:30 - Finished EyeTrackerEvent consumer  loop : 0 frames queued; Queued: -1--1, Saved: -1--1
09:07:25 - Finished EyeCollection`1 consumer  loop : 26014 frames queued; Queued: 319426-345439, Saved: 319426-345439
09:07:25 - Finished EyeTrackerDataAndImages consumer  loop : 26011 frames queued; Queued: 319426-345436, Saved: 319426-345436
09:07:25 - Finished EyeTrackerEvent consumer  loop : 0 frames queued; Queued: -1--1, Saved: -1--1
09:13:10 - 0: L (303.50,206.68) +/- (325.86,271.05), R (241.12,174.46) +/- (359.46,266.59))
09:13:10 - 303.4994 0 0 0 0 0 0 0 0 
09:13:11 - An error occured, cannot finalize calibration implmentation.
09:13:11 - Calibration loop finished.
09:13:32 - 0: L (355.75,151.52) +/- (0.09,0.74), R (302.85,114.55) +/- (0.13,0.73))
09:13:32 - 355.7483 0 0 0 0 0 0 0 0 
09:14:04 - 1: L (326.82,152.46) +/- (0.09,0.05), R (266.66,114.64) +/- (0.34,0.66))
09:14:04 - 355.7483 326.816 0 0 0 0 0 0 0 
09:14:13 - 2: L (294.48,153.61) +/- (0.05,0.08), R (230.18,118.23) +/- (0.12,0.12))
09:14:14 - 355.7483 326.816 294.4803 0 0 0 0 0 0 
09:14:20 - 3: L (360.22,179.36) +/- (0.06,0.11), R (304.59,143.48) +/- (0.18,0.12))
09:14:22 - 355.7483 326.816 294.4803 360.2241 0 0 0 0 0 
09:14:28 - 4: L (329.07,179.75) +/- (0.12,0.08), R (268.89,146.23) +/- (0.28,0.20))
09:14:29 - 355.7483 326.816 294.4803 360.2241 329.0678 0 0 0 0 
09:14:36 - 5: L (297.26,181.34) +/- (0.04,0.11), R (233.82,150.32) +/- (0.06,0.03))
09:14:37 - 355.7483 326.816 294.4803 360.2241 329.0678 297.2579 0 0 0 
09:14:43 - 6: L (361.10,209.66) +/- (0.04,0.06), R (306.48,177.54) +/- (0.15,0.05))
09:14:44 - 355.7483 326.816 294.4803 360.2241 329.0678 297.2579 361.096 0 0 
09:14:50 - 7: L (331.19,210.00) +/- (0.08,0.07), R (271.45,178.92) +/- (0.38,0.19))
09:14:51 - 355.7483 326.816 294.4803 360.2241 329.0678 297.2579 361.096 331.1888 0 
09:14:58 - 8: L (300.82,210.95) +/- (0.14,0.18), R (238.03,181.94) +/- (0.14,0.21))
09:15:00 - 355.7483 326.816 294.4803 360.2241 329.0678 297.2579 361.096 331.1888 300.8239 
09:15:09 - Calibration finished
09:15:09 - Calibration loop finished.
09:24:08 - Finished EyeCollection`1 consumer  loop : 51248 frames queued; Queued: 393583-444830, Saved: 393583-444830
09:24:08 - Finished EyeTrackerDataAndImages consumer  loop : 51243 frames queued; Queued: 393583-444825, Saved: 393583-444825
09:24:08 - Finished EyeTrackerEvent consumer  loop : 0 frames queued; Queued: -1--1, Saved: -1--1
09:26:24 - Finished EyeCollection`1 consumer  loop : 4081 frames queued; Queued: 454196-458276, Saved: 454196-458276
09:26:24 - Finished EyeTrackerDataAndImages consumer  loop : 4080 frames queued; Queued: 454196-458275, Saved: 454196-458275
09:26:24 - Finished EyeTrackerEvent consumer  loop : 0 frames queued; Queued: -1--1, Saved: -1--1
09:30:36 - Calibration finished
09:30:36 - Calibration loop finished.
09:30:51 - Calibration finished
09:30:51 - Calibration loop finished.
09:30:52 - Calibration finished
09:30:52 - Calibration loop finished.
09:32:31 - Calibration finished
09:32:31 - Calibration loop finished.
09:36:26 - Calibration finished
09:36:26 - Calibration loop finished.
09:36:27 - Calibration finished
09:36:27 - Calibration loop finished.
09:38:33 - Finished EyeCollection`1 consumer  loop : 72147 frames queued; Queued: 458389-530535, Saved: 458389-530535
09:38:33 - Finished EyeTrackerDataAndImages consumer  loop : 72146 frames queued; Queued: 458389-530534, Saved: 458389-530534
09:38:33 - Finished EyeTrackerEvent consumer  loop : 0 frames queued; Queued: -1--1, Saved: -1--1
09:53:07 - 0: L (248.47,186.75) +/- (11100.41,4687.53), R (187.86,162.81) +/- (11561.33,8808.57))
09:53:07 - 248.4743 0 0 0 0 0 0 0 0 
09:53:07 - An error occured, cannot finalize calibration implmentation.
09:53:07 - Calibration loop finished.
09:53:11 - 0: L (348.65,139.10) +/- (0.51,0.64), R (296.75,119.47) +/- (0.21,0.24))
09:53:11 - 348.6487 0 0 0 0 0 0 0 0 
09:53:18 - 1: L (319.12,138.29) +/- (0.15,0.17), R (262.86,118.05) +/- (0.09,0.37))
09:53:18 - 348.6487 319.1245 0 0 0 0 0 0 0 
09:53:24 - 2: L (286.97,139.12) +/- (0.09,0.04), R (228.50,121.23) +/- (0.06,0.06))
09:53:24 - 348.6487 319.1245 286.9697 0 0 0 0 0 0 
09:53:30 - 3: L (352.57,164.19) +/- (0.09,0.04), R (298.39,146.67) +/- (0.07,0.15))
09:53:31 - 348.6487 319.1245 286.9697 352.5675 0 0 0 0 0 
09:53:36 - 4: L (321.17,163.68) +/- (0.09,0.04), R (264.17,147.75) +/- (0.02,0.02))
09:53:37 - 348.6487 319.1245 286.9697 352.5675 321.1694 0 0 0 0 
09:53:42 - 5: L (289.14,165.99) +/- (0.06,0.08), R (230.52,151.25) +/- (0.07,0.04))
09:53:43 - 348.6487 319.1245 286.9697 352.5675 321.1694 289.1403 0 0 0 
09:53:48 - 6: L (353.16,192.52) +/- (0.11,0.06), R (299.44,177.11) +/- (0.59,0.08))
09:53:49 - 348.6487 319.1245 286.9697 352.5675 321.1694 289.1403 353.1594 0 0 
09:53:54 - 7: L (323.85,192.87) +/- (0.20,0.07), R (266.62,179.16) +/- (0.16,0.05))
09:53:55 - 348.6487 319.1245 286.9697 352.5675 321.1694 289.1403 353.1594 323.8502 0 
09:54:01 - 8: L (292.76,194.26) +/- (0.27,0.42), R (234.74,181.01) +/- (0.34,0.15))
09:54:02 - 348.6487 319.1245 286.9697 352.5675 321.1694 289.1403 353.1594 323.8502 292.7601 
09:54:12 - Calibration finished
09:54:12 - Calibration loop finished.
09:58:47 - Finished EyeCollection`1 consumer  loop : 24508 frames queued; Queued: 626395-650902, Saved: 626395-650902
09:58:47 - Finished EyeTrackerDataAndImages consumer  loop : 24504 frames queued; Queued: 626395-650898, Saved: 626395-650898
09:58:47 - Finished EyeTrackerEvent consumer  loop : 0 frames queued; Queued: -1--1, Saved: -1--1
10:03:53 - Finished EyeCollection`1 consumer  loop : 30119 frames queued; Queued: 651091-681209, Saved: 651091-681209
10:03:53 - Finished EyeTrackerDataAndImages consumer  loop : 30118 frames queued; Queued: 651091-681208, Saved: 651091-681208
10:03:53 - Finished EyeTrackerEvent consumer  loop : 0 frames queued; Queued: -1--1, Saved: -1--1
10:08:07 - Finished EyeCollection`1 consumer  loop : 22976 frames queued; Queued: 683441-706416, Saved: 683441-706416
10:08:07 - Finished EyeTrackerDataAndImages consumer  loop : 22975 frames queued; Queued: 683441-706415, Saved: 683441-706415
10:08:07 - Finished EyeTrackerEvent consumer  loop : 0 frames queued; Queued: -1--1, Saved: -1--1
10:09:05 - Finished head tracker loop.
10:44:49 - Verifying grabbing system.
10:44:49 - Running camera callback.
10:44:50 - Camera reports 0
10:45:38 - 0: L (300.24,198.37) +/- (343.30,1754.22), R (253.74,190.96) +/- (883.24,3047.99))
10:45:38 - 300.242 0 0 0 0 0 0 0 0 
10:45:39 - An error occured, cannot finalize calibration implmentation.
10:45:39 - Calibration loop finished.
10:45:48 - 0: L (348.86,135.80) +/- (0.22,0.12), R (292.79,109.42) +/- (0.28,0.23))
10:45:48 - 348.8567 0 0 0 0 0 0 0 0 
10:45:56 - 1: L (321.35,134.69) +/- (0.11,0.05), R (260.99,109.13) +/- (0.14,0.08))
10:45:57 - 348.8567 321.3534 0 0 0 0 0 0 0 
10:46:06 - 2: L (292.06,135.80) +/- (0.02,0.21), R (229.56,111.40) +/- (0.08,0.14))
10:46:06 - 348.8567 321.3534 292.0601 0 0 0 0 0 0 
10:46:14 - 3: L (352.43,159.41) +/- (0.07,0.06), R (294.51,135.49) +/- (0.03,0.01))
10:46:15 - 348.8567 321.3534 292.0601 352.4349 0 0 0 0 0 
10:46:21 - 4: L (323.64,160.39) +/- (0.04,0.05), R (263.40,137.20) +/- (0.04,0.09))
10:46:21 - 348.8567 321.3534 292.0601 352.4349 323.6374 0 0 0 0 
10:46:28 - 5: L (294.09,161.76) +/- (0.16,0.02), R (232.38,140.59) +/- (0.12,0.22))
10:46:28 - 348.8567 321.3534 292.0601 352.4349 323.6374 294.0854 0 0 0 
10:46:35 - 6: L (353.35,186.40) +/- (0.04,0.03), R (296.09,165.28) +/- (0.07,0.04))
10:46:36 - 348.8567 321.3534 292.0601 352.4349 323.6374 294.0854 353.3485 0 0 
10:46:43 - 7: L (325.45,186.30) +/- (0.06,0.09), R (265.45,167.11) +/- (0.11,0.02))
10:46:44 - 348.8567 321.3534 292.0601 352.4349 323.6374 294.0854 353.3485 325.4527 0 
10:46:50 - 8: L (297.49,188.23) +/- (0.08,0.07), R (234.91,170.00) +/- (0.20,0.24))
10:46:51 - 348.8567 321.3534 292.0601 352.4349 323.6374 294.0854 353.3485 325.4527 297.4879 
10:47:02 - Calibration finished
10:47:02 - Calibration loop finished.
10:50:56 - Finished EyeCollection`1 consumer  loop : 14434 frames queued; Queued: 21934-36367, Saved: 21934-36367
10:50:56 - Finished EyeTrackerDataAndImages consumer  loop : 14428 frames queued; Queued: 21934-36361, Saved: 21934-36361
10:50:56 - Finished EyeTrackerEvent consumer  loop : 0 frames queued; Queued: -1--1, Saved: -1--1
10:51:16 - Calibration finished
10:51:16 - Calibration loop finished.
10:53:46 - Finished EyeCollection`1 consumer  loop : 16544 frames queued; Queued: 36600-53143, Saved: 36600-53143
10:53:46 - Finished EyeTrackerDataAndImages consumer  loop : 16543 frames queued; Queued: 36600-53142, Saved: 36600-53142
10:53:46 - Finished EyeTrackerEvent consumer  loop : 0 frames queued; Queued: -1--1, Saved: -1--1
10:57:02 - Finished EyeCollection`1 consumer  loop : 18812 frames queued; Queued: 53789-72600, Saved: 53789-72600
10:57:02 - Finished EyeTrackerDataAndImages consumer  loop : 18805 frames queued; Queued: 53789-72593, Saved: 53789-72593
10:57:02 - Finished EyeTrackerEvent consumer  loop : 0 frames queued; Queued: -1--1, Saved: -1--1
10:59:33 - Finished EyeCollection`1 consumer  loop : 14621 frames queued; Queued: 72937-87557, Saved: 72937-87557
10:59:33 - Finished EyeTrackerDataAndImages consumer  loop : 14621 frames queued; Queued: 72937-87557, Saved: 72937-87557
10:59:33 - Finished EyeTrackerEvent consumer  loop : 0 frames queued; Queued: -1--1, Saved: -1--1
11:01:48 - Finished EyeCollection`1 consumer  loop : 13248 frames queued; Queued: 87694-100941, Saved: 87694-100941
11:01:48 - Finished EyeTrackerDataAndImages consumer  loop : 13247 frames queued; Queued: 87694-100940, Saved: 87694-100940
11:01:48 - Finished EyeTrackerEvent consumer  loop : 0 frames queued; Queued: -1--1, Saved: -1--1
12:39:59 - 0: L (279.38,204.09) +/- (440.18,269.80), R (221.98,180.60) +/- (270.49,133.17))
12:39:59 - 279.3802 0 0 0 0 0 0 0 0 
12:39:59 - An error occured, cannot finalize calibration implmentation.
12:39:59 - Calibration loop finished.
12:42:33 - 0: L (343.95,161.62) +/- (0.08,0.07), R (289.94,128.04) +/- (0.14,0.14))
12:42:34 - 343.9491 0 0 0 0 0 0 0 0 
12:42:39 - 1: L (315.72,161.27) +/- (0.07,0.18), R (258.85,126.94) +/- (0.05,0.22))
12:42:39 - 343.9491 315.7213 0 0 0 0 0 0 0 
12:42:44 - 2: L (285.94,161.74) +/- (0.22,0.10), R (226.97,129.05) +/- (0.15,0.12))
12:42:44 - 343.9491 315.7213 285.9409 0 0 0 0 0 0 
12:42:50 - 3: L (346.22,186.04) +/- (0.05,0.13), R (292.21,152.47) +/- (0.10,0.15))
12:42:50 - 343.9491 315.7213 285.9409 346.2249 0 0 0 0 0 
12:42:56 - 4: L (317.66,185.53) +/- (0.11,0.08), R (260.92,152.72) +/- (0.15,0.09))
12:42:56 - 343.9491 315.7213 285.9409 346.2249 317.6574 0 0 0 0 
12:43:02 - 5: L (287.72,184.13) +/- (0.06,0.13), R (229.09,153.81) +/- (0.18,0.29))
12:43:02 - 343.9491 315.7213 285.9409 346.2249 317.6574 287.7191 0 0 0 
12:43:08 - 6: L (346.77,210.68) +/- (0.06,0.03), R (292.23,178.62) +/- (0.12,0.06))
12:43:09 - 343.9491 315.7213 285.9409 346.2249 317.6574 287.7191 346.7719 0 0 
12:43:15 - 7: L (319.13,210.59) +/- (0.06,0.07), R (262.13,180.05) +/- (0.20,0.07))
12:43:16 - 343.9491 315.7213 285.9409 346.2249 317.6574 287.7191 346.7719 319.1342 0 
12:43:21 - 8: L (290.09,211.42) +/- (0.04,0.15), R (231.41,181.96) +/- (0.29,0.20))
12:43:23 - 343.9491 315.7213 285.9409 346.2249 317.6574 287.7191 346.7719 319.1342 290.0932 
12:43:34 - Calibration finished
12:43:34 - Calibration loop finished.
12:49:43 - Finished EyeCollection`1 consumer  loop : 20940 frames queued; Queued: 721749-742688, Saved: 721749-742688
12:49:43 - Finished EyeTrackerDataAndImages consumer  loop : 20937 frames queued; Queued: 721749-742685, Saved: 721749-742685
12:49:43 - Finished EyeTrackerEvent consumer  loop : 0 frames queued; Queued: -1--1, Saved: -1--1
12:52:51 - Finished EyeCollection`1 consumer  loop : 17843 frames queued; Queued: 743524-761366, Saved: 743524-761366
12:52:51 - Finished EyeTrackerDataAndImages consumer  loop : 17840 frames queued; Queued: 743524-761363, Saved: 743524-761363
12:52:51 - Finished EyeTrackerEvent consumer  loop : 0 frames queued; Queued: -1--1, Saved: -1--1
12:53:42 - Finished head tracker loop.
12:55:17 - Verifying grabbing system.
12:55:17 - Running camera callback.
12:55:17 - Camera reports 0
12:55:17 - Finished head tracker loop.
12:58:08 - Verifying grabbing system.
12:58:08 - Running camera callback.
12:58:09 - Camera reports 0
12:58:09 - Finished head tracker loop.
07:59:08 - Grabber loop finished.
07:59:09 - Process loop finished.
07:59:09 - Process loop finished.
07:59:09 - Process loop finished.
07:59:09 - Process loop finished.
07:59:09 - Output loop finished.
