13:03:42 - Initializing network service ...
13:03:42 - Initializing network service ... completed.
13:03:42 - Initializing complete.
13:04:07 - Verifying grabbing system.
13:04:07 - Running camera callback.
13:04:10 - Finished head tracker loop.
13:04:13 - Grabber loop finished.
13:04:13 - Process loop finished.
13:04:13 - Process loop finished.
13:04:13 - Process loop finished.
13:04:13 - Process loop finished.
13:04:13 - Output loop finished.
