12:28:35 - Initializing network service ...
12:28:35 - Initializing network service ... completed.
12:28:35 - Initializing complete.
12:28:49 - Verifying grabbing system.
12:28:49 - Running camera callback.
12:28:50 - Camera reports 49
12:29:04 - Finished EyeCollection`1 consumer  loop : 563 frames queued; Queued: 961-1523, Saved: 961-1523
12:29:04 - Finished EyeTrackerEvent consumer  loop : 0 frames queued; Queued: -1--1, Saved: -1--1
12:29:04 - Finished EyeTrackerDataAndImages consumer  loop : 564 frames queued; Queued: 961-1524, Saved: 961-1524
12:31:46 - Could not find a part of the path 'C:\Users\mrahman\Documents\VOGData\Calibration\SESSION-2015Nov30-123146.csv'.
12:31:48 - 0: L (250.91,167.20) +/- (0.13,0.50), R (113.39,148.51) +/- (0.16,1.36))
12:32:59 - Finished head tracker loop.
12:33:01 - An error occured, cannot finalize calibration implmentation.
12:33:01 - Calibration loop finished.
12:33:01 - Grabber loop finished.
12:33:01 - Process loop finished.
12:33:01 - Process loop finished.
12:33:01 - Process loop finished.
12:33:01 - Process loop finished.
12:33:01 - Output loop finished.
