10:36:31 - Initializing network service ...
10:36:32 - Initializing network service ... completed.
10:36:32 - Initializing complete.
10:37:03 - Verifying grabbing system.
10:37:03 - Camera reports 0
10:37:03 - 1: 0.00,0.00,0.00
10:37:03 - 2: 0.37,0.40,0.46
10:37:03 - 3: 0.11,1.27,0.26
10:37:03 - 4: 0.18,1.19,0.18
10:37:03 - Error grabbing: The type initializer for 'Emgu.CV.CvInvoke' threw an exception.
10:37:03 - FATAL ERROR: System.TypeInitializationException: The type initializer for 'Emgu.CV.CvInvoke' threw an exception. ---> System.DllNotFoundException: Unable to load DLL 'opencv_core242': The specified module could not be found. (Exception from HRESULT: 0x8007007E)
   at Emgu.CV.CvInvoke.cvRedirectError(CvErrorCallback errorHandler, IntPtr userdata, IntPtr prevUserdata)
   at Emgu.CV.CvInvoke..cctor() in C:\Emgu\emgucv-windows-x64-gpu 2.4.2.1777\Emgu.CV\PInvoke\CvInvoke.cs:line 166
   --- End of inner exception stack trace ---
   at Emgu.CV.CvInvoke.cvCreateImageHeader(Size size, IPL_DEPTH depth, Int32 channels)
   at Emgu.CV.Image`2..ctor(Int32 width, Int32 height, Int32 stride, IntPtr scan0) in C:\Emgu\emgucv-windows-x64-gpu 2.4.2.1777\Emgu.CV\Image.cs:line 75
   at OculomotorLab.VOG.ImageGrabbing.CameraEyePointGreyLabyrinth.GrabImageEye() in c:\Users\Labyrinth\Documents\VOG\labyrinth\LabryinthVOG\ImageGrabbing\CameraEyePointGreyLabyrinth.cs:line 509
   at OculomotorLab.VOG.EyeTrackerImageGrabber.GrabImages() in c:\Labyrinth\OneDrive\Mehdi\LocalGitRepos\Local_VOG\source\VOGLib\EyeTrackerImageGrabber.cs:line 513
   at OculomotorLab.VOG.EyeTrackerImageGrabber.GrabLoop() in c:\Labyrinth\OneDrive\Mehdi\LocalGitRepos\Local_VOG\source\VOGLib\EyeTrackerImageGrabber.cs:line 454
10:37:03 - Finished head tracker loop.
10:38:26 - 2015-09-15-10:38:26.345 0 M: KEYPRESS D: 
10:39:08 - Grabber loop finished.
10:39:08 - Process loop finished.
10:39:08 - Process loop finished.
10:39:08 - Process loop finished.
10:39:08 - Process loop finished.
10:39:08 - Output loop finished.
