16:50:52 - Initializing network service ...
16:50:52 - Initializing network service ... completed.
16:50:53 - Initializing complete.
17:02:44 - Verifying grabbing system.
17:02:44 - Running camera callback.
17:02:44 - Waiting for camera...
17:02:44 - Camera reports 0
17:05:26 - Finished EyeCollection`1 consumer  loop : 1652 frames queued; Queued: 14531-16182, Saved: 14531-16182
17:05:26 - Finished EyeTrackerDataAndImages consumer  loop : 1081 frames queued; Queued: 14531-16041, Saved: 14531-16041
17:05:26 - Finished EyeTrackerEvent consumer  loop : 0 frames queued; Queued: -1--1, Saved: -1--1
17:05:44 - Finished EyeCollection`1 consumer  loop : 1424 frames queued; Queued: 16510-17933, Saved: 16510-17933
17:05:44 - Finished EyeTrackerDataAndImages consumer  loop : 1045 frames queued; Queued: 16510-17858, Saved: 16510-17858
17:05:44 - Finished EyeTrackerEvent consumer  loop : 0 frames queued; Queued: -1--1, Saved: -1--1
17:05:59 - Finished EyeCollection`1 consumer  loop : 1319 frames queued; Queued: 18186-19504, Saved: 18186-19504
17:05:59 - Finished EyeTrackerDataAndImages consumer  loop : 957 frames queued; Queued: 18186-19400, Saved: 18186-19400
17:05:59 - Finished EyeTrackerEvent consumer  loop : 0 frames queued; Queued: -1--1, Saved: -1--1
17:07:05 - Finished EyeCollection`1 consumer  loop : 1530 frames queued; Queued: 24530-26059, Saved: 24530-26059
17:07:05 - Finished EyeTrackerDataAndImages consumer  loop : 1129 frames queued; Queued: 24530-25954, Saved: 24530-25954
17:07:05 - Finished EyeTrackerEvent consumer  loop : 0 frames queued; Queued: -1--1, Saved: -1--1
17:07:35 - Finished EyeCollection`1 consumer  loop : 1553 frames queued; Queued: 27480-29032, Saved: 27480-29032
17:07:35 - Finished EyeTrackerDataAndImages consumer  loop : 1147 frames queued; Queued: 27480-28921, Saved: 27480-28921
17:07:35 - Finished EyeTrackerEvent consumer  loop : 0 frames queued; Queued: -1--1, Saved: -1--1
17:08:17 - Finished EyeCollection`1 consumer  loop : 1651 frames queued; Queued: 31624-33274, Saved: 31624-33274
17:08:17 - Finished EyeTrackerDataAndImages consumer  loop : 1035 frames queued; Queued: 31624-33114, Saved: 31624-33114
17:08:17 - Finished EyeTrackerEvent consumer  loop : 0 frames queued; Queued: -1--1, Saved: -1--1
17:08:51 - Finished EyeCollection`1 consumer  loop : 1539 frames queued; Queued: 35156-36694, Saved: 35156-36694
17:08:51 - Finished EyeTrackerDataAndImages consumer  loop : 951 frames queued; Queued: 35159-36532, Saved: 35159-36532
17:08:51 - Finished EyeTrackerEvent consumer  loop : 0 frames queued; Queued: -1--1, Saved: -1--1
17:09:54 - Finished EyeCollection`1 consumer  loop : 1748 frames queued; Queued: 41173-42920, Saved: 41173-42920
17:09:54 - Finished EyeTrackerDataAndImages consumer  loop : 1098 frames queued; Queued: 41173-42758, Saved: 41173-42758
17:09:54 - Finished EyeTrackerEvent consumer  loop : 0 frames queued; Queued: -1--1, Saved: -1--1
17:10:28 - 2016-07-08-17:10:28.853 46383 M: KEYPRESS D: -
17:10:48 - Finished head tracker loop.
17:10:53 - Grabber loop finished.
17:10:53 - Process loop finished.
17:10:53 - Process loop finished.
17:10:53 - Process loop finished.
17:10:53 - Process loop finished.
17:10:53 - Output loop finished.
