16:56:24 - Initializing network service ...
16:56:24 - Initializing network service ... completed.
16:56:24 - Initializing complete.
16:57:28 - Verifying grabbing system.
16:57:29 - Running camera callback.
16:57:29 - Waiting for camera...
16:57:29 - Camera reports 0
16:57:48 - 2016-07-14-16:57:48.360 1906 M: KEYPRESS D: `
16:57:48 - 2016-07-14-16:57:48.688 1935 M: KEYPRESS D: `
16:57:56 - 2016-07-14-16:57:56.875 2756 M: KEYPRESS D: `
16:57:57 - 2016-07-14-16:57:57.704 2838 M: KEYPRESS D: `
16:57:58 - 2016-07-14-16:57:58.282 2896 M: KEYPRESS D: `
16:58:32 - 2016-07-14-16:58:32.134 6280 M: KEYPRESS D: `
16:58:32 - 2016-07-14-16:58:32.712 6336 M: KEYPRESS D: `
16:58:32 - 2016-07-14-16:58:32.744 6340 M: KEYPRESS D: `
16:58:32 - 2016-07-14-16:58:32.775 6344 M: KEYPRESS D: `
16:58:32 - 2016-07-14-16:58:32.806 6346 M: KEYPRESS D: `
16:58:32 - 2016-07-14-16:58:32.837 6350 M: KEYPRESS D: `
16:58:32 - 2016-07-14-16:58:32.869 6353 M: KEYPRESS D: `
16:58:32 - 2016-07-14-16:58:32.900 6356 M: KEYPRESS D: `
16:58:32 - 2016-07-14-16:58:32.931 6359 M: KEYPRESS D: `
16:58:32 - 2016-07-14-16:58:32.978 6364 M: KEYPRESS D: `
16:58:33 - 2016-07-14-16:58:33.009 6365 M: KEYPRESS D: `
16:58:33 - 2016-07-14-16:58:33.041 6370 M: KEYPRESS D: `
16:58:33 - 2016-07-14-16:58:33.087 6372 M: KEYPRESS D: `
16:58:33 - 2016-07-14-16:58:33.103 6372 M: KEYPRESS D: `
16:58:33 - 2016-07-14-16:58:33.197 6384 M: KEYPRESS D: `
16:58:33 - 2016-07-14-16:58:33.212 6388 M: KEYPRESS D: `
16:58:33 - 2016-07-14-16:58:33.244 6390 M: KEYPRESS D: `
16:58:33 - 2016-07-14-16:58:33.291 6395 M: KEYPRESS D: `
16:58:33 - 2016-07-14-16:58:33.322 6397 M: KEYPRESS D: `
16:58:33 - 2016-07-14-16:58:33.337 6397 M: KEYPRESS D: `
16:58:33 - 2016-07-14-16:58:33.400 6403 M: KEYPRESS D: `
16:58:33 - 2016-07-14-16:58:33.400 6405 M: KEYPRESS D: `
16:58:33 - 2016-07-14-16:58:33.447 6411 M: KEYPRESS D: `
16:58:33 - 2016-07-14-16:58:33.478 6413 M: KEYPRESS D: `
16:58:33 - 2016-07-14-16:58:33.494 6415 M: KEYPRESS D: `
16:58:33 - 2016-07-14-16:58:33.572 6423 M: KEYPRESS D: `
16:58:33 - 2016-07-14-16:58:33.603 6424 M: KEYPRESS D: `
16:58:33 - 2016-07-14-16:58:33.634 6427 M: KEYPRESS D: `
16:58:33 - 2016-07-14-16:58:33.666 6433 M: KEYPRESS D: `
16:58:33 - 2016-07-14-16:58:33.712 6438 M: KEYPRESS D: `
16:58:33 - 2016-07-14-16:58:33.744 6440 M: KEYPRESS D: `
16:58:33 - 2016-07-14-16:58:33.791 6444 M: KEYPRESS D: `
16:58:33 - 2016-07-14-16:58:33.806 6447 M: KEYPRESS D: `
16:58:33 - 2016-07-14-16:58:33.884 6453 M: KEYPRESS D: `
16:58:33 - 2016-07-14-16:58:33.947 6459 M: KEYPRESS D: `
16:58:33 - 2016-07-14-16:58:33.962 6461 M: KEYPRESS D: `
16:58:33 - 2016-07-14-16:58:33.994 6463 M: KEYPRESS D: `
16:58:34 - 2016-07-14-16:58:34.009 6464 M: KEYPRESS D: `
16:58:34 - 2016-07-14-16:58:34.041 6469 M: KEYPRESS D: `
16:58:34 - 2016-07-14-16:58:34.087 6475 M: KEYPRESS D: `
16:58:34 - 2016-07-14-16:58:34.134 6479 M: KEYPRESS D: `
16:58:34 - 2016-07-14-16:58:34.166 6482 M: KEYPRESS D: `
16:58:34 - 2016-07-14-16:58:34.197 6485 M: KEYPRESS D: `
16:58:34 - 2016-07-14-16:58:34.228 6487 M: KEYPRESS D: `
16:58:34 - 2016-07-14-16:58:34.291 6493 M: KEYPRESS D: `
16:58:34 - 2016-07-14-16:58:34.322 6493 M: KEYPRESS D: `
16:58:34 - 2016-07-14-16:58:34.353 6497 M: KEYPRESS D: `
16:58:34 - 2016-07-14-16:58:34.400 6504 M: KEYPRESS D: `
16:58:34 - 2016-07-14-16:58:34.447 6511 M: KEYPRESS D: `
16:58:34 - 2016-07-14-16:58:34.478 6513 M: KEYPRESS D: `
16:58:34 - 2016-07-14-16:58:34.525 6518 M: KEYPRESS D: `
16:58:34 - 2016-07-14-16:58:34.541 6519 M: KEYPRESS D: `
16:58:34 - 2016-07-14-16:58:34.556 6522 M: KEYPRESS D: `
16:58:34 - 2016-07-14-16:58:34.587 6524 M: KEYPRESS D: `
16:58:34 - 2016-07-14-16:58:34.619 6524 M: KEYPRESS D: `
16:58:34 - 2016-07-14-16:58:34.666 6529 M: KEYPRESS D: `
16:58:34 - 2016-07-14-16:58:34.712 6537 M: KEYPRESS D: `
16:58:34 - 2016-07-14-16:58:34.744 6540 M: KEYPRESS D: `
16:58:34 - 2016-07-14-16:58:34.759 6542 M: KEYPRESS D: `
16:58:34 - 2016-07-14-16:58:34.822 6547 M: KEYPRESS D: `
16:58:34 - 2016-07-14-16:58:34.837 6549 M: KEYPRESS D: `
16:58:34 - 2016-07-14-16:58:34.947 6557 M: KEYPRESS D: `
16:58:34 - 2016-07-14-16:58:34.978 6562 M: KEYPRESS D: `
16:58:35 - 2016-07-14-16:58:35.025 6568 M: KEYPRESS D: `
16:58:35 - 2016-07-14-16:58:35.056 6571 M: KEYPRESS D: `
16:58:35 - 2016-07-14-16:58:35.087 6574 M: KEYPRESS D: `
16:58:35 - 2016-07-14-16:58:35.103 6576 M: KEYPRESS D: `
16:58:35 - 2016-07-14-16:58:35.166 6582 M: KEYPRESS D: `
16:58:35 - 2016-07-14-16:58:35.166 6582 M: KEYPRESS D: `
16:58:35 - 2016-07-14-16:58:35.212 6587 M: KEYPRESS D: `
16:58:35 - 2016-07-14-16:58:35.244 6587 M: KEYPRESS D: `
16:58:35 - 2016-07-14-16:58:35.291 6593 M: KEYPRESS D: `
16:58:35 - 2016-07-14-16:58:35.306 6596 M: KEYPRESS D: `
16:58:35 - 2016-07-14-16:58:35.337 6600 M: KEYPRESS D: `
16:58:35 - 2016-07-14-16:58:35.384 6603 M: KEYPRESS D: `
16:58:35 - 2016-07-14-16:58:35.416 6607 M: KEYPRESS D: `
16:58:35 - 2016-07-14-16:58:35.447 6610 M: KEYPRESS D: `
16:58:35 - 2016-07-14-16:58:35.478 6613 M: KEYPRESS D: `
16:58:35 - 2016-07-14-16:58:35.509 6617 M: KEYPRESS D: `
16:58:35 - 2016-07-14-16:58:35.603 6623 M: KEYPRESS D: `
16:58:35 - 2016-07-14-16:58:35.634 6627 M: KEYPRESS D: `
16:58:35 - 2016-07-14-16:58:35.666 6632 M: KEYPRESS D: `
16:58:35 - 2016-07-14-16:58:35.681 6634 M: KEYPRESS D: `
16:58:35 - 2016-07-14-16:58:35.712 6637 M: KEYPRESS D: `
16:58:35 - 2016-07-14-16:58:35.744 6640 M: KEYPRESS D: `
16:58:35 - 2016-07-14-16:58:35.806 6646 M: KEYPRESS D: `
16:58:35 - 2016-07-14-16:58:35.837 6649 M: KEYPRESS D: `
16:58:35 - 2016-07-14-16:58:35.853 6650 M: KEYPRESS D: `
16:58:35 - 2016-07-14-16:58:35.884 6650 M: KEYPRESS D: `
16:58:35 - 2016-07-14-16:58:35.947 6660 M: KEYPRESS D: `
16:58:36 - 2016-07-14-16:58:36.041 6670 M: KEYPRESS D: `
16:58:36 - 2016-07-14-16:58:36.072 6673 M: KEYPRESS D: `
16:58:36 - 2016-07-14-16:58:36.103 6675 M: KEYPRESS D: `
16:58:36 - 2016-07-14-16:58:36.119 6676 M: KEYPRESS D: `
16:58:36 - 2016-07-14-16:58:36.181 6684 M: KEYPRESS D: `
16:58:36 - 2016-07-14-16:58:36.212 6685 M: KEYPRESS D: `
16:58:36 - 2016-07-14-16:58:36.228 6685 M: KEYPRESS D: `
16:58:36 - 2016-07-14-16:58:36.259 6689 M: KEYPRESS D: `
16:58:36 - 2016-07-14-16:58:36.306 6697 M: KEYPRESS D: `
16:58:36 - 2016-07-14-16:58:36.353 6700 M: KEYPRESS D: `
16:58:36 - 2016-07-14-16:58:36.384 6703 M: KEYPRESS D: `
16:58:36 - 2016-07-14-16:58:36.384 6704 M: KEYPRESS D: `
16:58:36 - 2016-07-14-16:58:36.463 6712 M: KEYPRESS D: `
16:58:36 - 2016-07-14-16:58:36.509 6715 M: KEYPRESS D: `
16:58:36 - 2016-07-14-16:58:36.525 6715 M: KEYPRESS D: `
16:58:36 - 2016-07-14-16:58:36.556 6719 M: KEYPRESS D: `
16:58:36 - 2016-07-14-16:58:36.603 6725 M: KEYPRESS D: `
16:58:36 - 2016-07-14-16:58:36.634 6730 M: KEYPRESS D: `
16:58:36 - 2016-07-14-16:58:36.681 6733 M: KEYPRESS D: `
16:58:36 - 2016-07-14-16:58:36.697 6735 M: KEYPRESS D: `
16:58:36 - 2016-07-14-16:58:36.744 6741 M: KEYPRESS D: `
16:58:36 - 2016-07-14-16:58:36.775 6742 M: KEYPRESS D: `
16:58:36 - 2016-07-14-16:58:36.806 6747 M: KEYPRESS D: `
16:58:36 - 2016-07-14-16:58:36.838 6749 M: KEYPRESS D: `
16:58:36 - 2016-07-14-16:58:36.869 6750 M: KEYPRESS D: `
16:58:36 - 2016-07-14-16:58:36.916 6755 M: KEYPRESS D: `
16:58:36 - 2016-07-14-16:58:36.947 6760 M: KEYPRESS D: `
16:58:36 - 2016-07-14-16:58:36.978 6763 M: KEYPRESS D: `
16:58:37 - 2016-07-14-16:58:37.009 6766 M: KEYPRESS D: `
16:58:37 - 2016-07-14-16:58:37.056 6771 M: KEYPRESS D: `
16:58:37 - 2016-07-14-16:58:37.119 6774 M: KEYPRESS D: `
16:58:37 - 2016-07-14-16:58:37.150 6778 M: KEYPRESS D: `
16:58:37 - 2016-07-14-16:58:37.213 6785 M: KEYPRESS D: `
16:58:37 - 2016-07-14-16:58:37.244 6787 M: KEYPRESS D: `
16:58:37 - 2016-07-14-16:58:37.275 6792 M: KEYPRESS D: `
16:58:37 - 2016-07-14-16:58:37.306 6796 M: KEYPRESS D: `
16:58:37 - 2016-07-14-16:58:37.338 6800 M: KEYPRESS D: `
16:58:37 - 2016-07-14-16:58:37.384 6804 M: KEYPRESS D: `
16:58:37 - 2016-07-14-16:58:37.416 6807 M: KEYPRESS D: `
16:58:37 - 2016-07-14-16:58:37.447 6811 M: KEYPRESS D: `
16:58:37 - 2016-07-14-16:58:37.494 6814 M: KEYPRESS D: `
16:58:37 - 2016-07-14-16:58:37.525 6815 M: KEYPRESS D: `
16:58:37 - 2016-07-14-16:58:37.541 6815 M: KEYPRESS D: `
16:58:37 - 2016-07-14-16:58:37.650 6830 M: KEYPRESS D: `
16:58:37 - 2016-07-14-16:58:37.666 6832 M: KEYPRESS D: `
16:58:37 - 2016-07-14-16:58:37.681 6834 M: KEYPRESS D: `
16:58:37 - 2016-07-14-16:58:37.728 6839 M: KEYPRESS D: `
16:58:37 - 2016-07-14-16:58:37.775 6842 M: KEYPRESS D: `
16:58:37 - 2016-07-14-16:58:37.791 6844 M: KEYPRESS D: `
16:58:37 - 2016-07-14-16:58:37.822 6846 M: KEYPRESS D: `
16:58:37 - 2016-07-14-16:58:37.884 6853 M: KEYPRESS D: `
17:03:24 - 2016-07-14-17:03:24.691 35516 M: KEYPRESS D: `
17:04:04 - Finished EyeCollection`1 consumer  loop : 1299 frames queued; Queued: 38239-39537, Saved: 38239-39537
17:04:04 - Finished EyeTrackerDataAndImages consumer  loop : 838 frames queued; Queued: 38239-39386, Saved: 38239-39386
17:04:04 - Finished EyeTrackerEvent consumer  loop : 0 frames queued; Queued: -1--1, Saved: -1--1
17:04:31 - Finished EyeCollection`1 consumer  loop : 1631 frames queued; Queued: 40530-42160, Saved: 40530-42160
17:04:31 - Finished EyeTrackerDataAndImages consumer  loop : 1124 frames queued; Queued: 40530-42027, Saved: 40530-42027
17:04:31 - Finished EyeTrackerEvent consumer  loop : 0 frames queued; Queued: -1--1, Saved: -1--1
17:05:21 - Finished EyeCollection`1 consumer  loop : 4846 frames queued; Queued: 42309-47154, Saved: 42309-47154
17:05:21 - Finished EyeTrackerDataAndImages consumer  loop : 3494 frames queued; Queued: 42309-47021, Saved: 42309-47021
17:05:21 - Finished EyeTrackerEvent consumer  loop : 0 frames queued; Queued: -1--1, Saved: -1--1
17:16:20 - Error details: lastRawFrameNumber: 110160, currentFrameNumber: 0
17:16:20 - Error grabbing: Frame counter is not consistently growing!.
17:16:31 - FATAL ERROR: FlyCapture2Managed.FC2Exception: Low level failure reading register 0x70100. Error: 0x19.
   at FlyCapture2Managed.ManagedCameraBase.ReadRegister(UInt32 address)
   at OculomotorLab.VOG.ImageGrabbing.CameraEyePointGreyLabyrinth.ReadSensors() in c:\VOG\Local_VOG_with_CamCalib_Emgu_2.4.10_v2 - LatestFlyCapture\labyrinth\LabryinthVOG\ImageGrabbing\CameraEyePointGreyLabyrinth.cs:line 754
   at OculomotorLab.VOG.ImageGrabbing.CameraEyePointGreyLabyrinth.HeadSensorLabyrinth.GrabHeadData() in c:\VOG\Local_VOG_with_CamCalib_Emgu_2.4.10_v2 - LatestFlyCapture\labyrinth\LabryinthVOG\HeadTracking\HeadSensorLabyrinth.cs:line 61
   at OculomotorLab.VOG.EyeTrackerHeadTracker.TrackingLoop() in c:\VOG\Local_VOG_with_CamCalib_Emgu_2.4.10_v2 - LatestFlyCapture\source\VOGLib\HeadTracking\EyeTrackerHeadTracker.cs:line 230
17:16:31 - FATAL ERROR: System.InvalidOperationException: Frame counter is not consistently growing!.
   at OculomotorLab.VOG.ImageGrabbing.CameraEyePointGreyLabyrinth.GrabImageEye() in c:\VOG\Local_VOG_with_CamCalib_Emgu_2.4.10_v2 - LatestFlyCapture\labyrinth\LabryinthVOG\ImageGrabbing\CameraEyePointGreyLabyrinth.cs:line 625
   at OculomotorLab.VOG.EyeTrackerImageGrabber.GrabImages() in c:\VOG\Local_VOG_with_CamCalib_Emgu_2.4.10_v2 - LatestFlyCapture\source\VOGLib\EyeTrackerImageGrabber.cs:line 552
   at OculomotorLab.VOG.EyeTrackerImageGrabber.GrabLoop() in c:\VOG\Local_VOG_with_CamCalib_Emgu_2.4.10_v2 - LatestFlyCapture\source\VOGLib\EyeTrackerImageGrabber.cs:line 478
