21:11:31 - Initializing network service ...
21:11:31 - Initializing network service ... completed.
21:11:31 - Initializing complete.
21:11:33 - Error initializating the system, going into simulation mode.
21:11:33 - Object reference not set to an instance of an object.
21:11:36 - Grabber loop finished.
21:11:36 - Process loop finished.
21:11:36 - Process loop finished.
21:11:36 - Process loop finished.
21:11:36 - Process loop finished.
21:11:36 - Output loop finished.
