18:03:40 - Initializing network service ...
18:03:41 - Initializing network service ... completed.
18:03:41 - Initializing complete.
18:03:44 - Verifying grabbing system.
18:03:44 - Camera reports 1
18:03:44 - 6088: 0.09,0.78,-2.35
18:03:44 - 6089: 0.37,0.53,-2.34
18:03:44 - 6090: 0.31,0.44,-2.37
18:03:44 - 6091: 0.12,0.78,-2.27
