14:24:47 - Initializing network service ...
14:24:47 - Initializing network service ... completed.
14:24:47 - Initializing complete.
14:24:50 - Verifying grabbing system.
14:24:58 - Finished head tracker loop.
14:25:00 - Verifying grabbing system.
14:25:05 - Finished head tracker loop.
14:25:07 - Grabber loop finished.
14:25:07 - Process loop finished.
14:25:07 - Process loop finished.
14:25:07 - Process loop finished.
14:25:07 - Process loop finished.
14:25:07 - Output loop finished.
