08:58:20 - Initializing network service ...
08:58:20 - Initializing network service ... completed.
08:58:20 - Initializing complete.
10:05:58 - Verifying grabbing system.
10:05:58 - Running camera callback.
10:05:58 - Camera reports 0
10:18:16 - 2017-05-16-10:18:16.433 73130 M: KEYPRESS D: 
10:18:16 - 2017-05-16-10:18:16.822 73168 M: KEYPRESS D: 8
10:18:22 - 0: L (298.49,174.90) +/- (0.04,0.05), R (323.77,140.53) +/- (0.11,0.06))
10:18:22 - 298.486 0 0 0 0 0 0 0 0 
10:18:28 - 1: L (259.06,176.06) +/- (159.95,1.29), R (282.55,142.11) +/- (175.63,1.77))
10:18:29 - 298.486 259.0572 0 0 0 0 0 0 0 
10:18:35 - 2: L (243.39,178.22) +/- (0.08,0.07), R (266.02,144.12) +/- (0.10,0.07))
10:18:35 - 298.486 259.0572 243.3909 0 0 0 0 0 0 
10:18:45 - An error occured, cannot finalize calibration implmentation.
10:18:45 - Calibration loop finished.
10:18:50 - 0: L (229.51,152.86) +/- (11266.08,5073.71), R (249.16,122.12) +/- (14943.28,3712.58))
10:18:50 - 229.5098 0 0 0 0 0 0 0 0 
10:18:51 - An error occured, cannot finalize calibration implmentation.
10:18:51 - Calibration loop finished.
10:19:02 - 0: L (297.59,176.34) +/- (0.20,0.05), R (323.51,143.35) +/- (0.07,0.08))
10:19:02 - 297.5864 0 0 0 0 0 0 0 0 
10:19:08 - 1: L (270.79,177.11) +/- (0.26,0.07), R (294.43,144.08) +/- (0.26,0.70))
10:19:08 - 297.5864 270.7898 0 0 0 0 0 0 0 
10:19:14 - 2: L (242.42,179.06) +/- (0.05,0.13), R (265.71,147.02) +/- (0.10,0.08))
10:19:15 - 297.5864 270.7898 242.4223 0 0 0 0 0 0 
10:19:21 - 3: L (297.35,199.14) +/- (0.17,0.20), R (325.78,167.09) +/- (0.15,0.04))
10:19:21 - 297.5864 270.7898 242.4223 297.346 0 0 0 0 0 
10:19:28 - 4: L (269.23,199.12) +/- (0.34,0.15), R (297.45,167.41) +/- (0.20,0.11))
10:19:28 - 297.5864 270.7898 242.4223 297.346 269.2316 0 0 0 0 
10:19:34 - 5: L (242.01,201.29) +/- (0.16,0.32), R (268.16,170.13) +/- (0.11,0.13))
10:19:34 - 297.5864 270.7898 242.4223 297.346 269.2316 242.0091 0 0 0 
10:19:40 - 6: L (295.92,223.41) +/- (0.04,0.03), R (328.78,192.54) +/- (0.03,0.08))
10:19:40 - 297.5864 270.7898 242.4223 297.346 269.2316 242.0091 295.9185 0 0 
10:19:46 - 7: L (269.08,222.63) +/- (0.39,0.10), R (300.06,192.45) +/- (0.11,0.05))
10:19:46 - 297.5864 270.7898 242.4223 297.346 269.2316 242.0091 295.9185 269.0846 0 
10:19:52 - 8: L (241.30,224.38) +/- (0.20,0.07), R (271.65,194.79) +/- (0.13,0.08))
10:19:52 - 297.5864 270.7898 242.4223 297.346 269.2316 242.0091 295.9185 269.0846 241.295 
10:20:07 - Calibration finished
10:20:07 - Calibration loop finished.
10:29:51 - Finished EyeCollection`1 consumer  loop : 14108 frames queued; Queued: 127951-142058, Saved: 127951-142058
10:29:51 - Finished EyeTrackerDataAndImages consumer  loop : 14107 frames queued; Queued: 127951-142057, Saved: 127951-142057
10:29:51 - Finished EyeTrackerEvent consumer  loop : 0 frames queued; Queued: -1--1, Saved: -1--1
10:32:25 - Finished EyeCollection`1 consumer  loop : 12993 frames queued; Queued: 144310-157302, Saved: 144310-157302
10:32:25 - Finished EyeTrackerDataAndImages consumer  loop : 12993 frames queued; Queued: 144310-157302, Saved: 144310-157302
10:32:25 - Finished EyeTrackerEvent consumer  loop : 0 frames queued; Queued: -1--1, Saved: -1--1
10:35:22 - Finished EyeCollection`1 consumer  loop : 12906 frames queued; Queued: 161934-174839, Saved: 161934-174839
10:35:22 - Finished EyeTrackerDataAndImages consumer  loop : 12906 frames queued; Queued: 161934-174839, Saved: 161934-174839
10:35:22 - Finished EyeTrackerEvent consumer  loop : 0 frames queued; Queued: -1--1, Saved: -1--1
10:43:15 - Finished EyeCollection`1 consumer  loop : 31359 frames queued; Queued: 190348-221706, Saved: 190348-221706
10:43:15 - Finished EyeTrackerDataAndImages consumer  loop : 31358 frames queued; Queued: 190348-221705, Saved: 190348-221705
10:43:15 - Finished EyeTrackerEvent consumer  loop : 0 frames queued; Queued: -1--1, Saved: -1--1
10:58:25 - Finished EyeCollection`1 consumer  loop : 30924 frames queued; Queued: 281021-311944, Saved: 281021-311944
10:58:25 - Finished EyeTrackerDataAndImages consumer  loop : 30923 frames queued; Queued: 281021-311943, Saved: 281021-311943
10:58:25 - Finished EyeTrackerEvent consumer  loop : 0 frames queued; Queued: -1--1, Saved: -1--1
11:04:10 - Finished EyeCollection`1 consumer  loop : 29989 frames queued; Queued: 316119-346107, Saved: 316119-346107
11:04:10 - Finished EyeTrackerDataAndImages consumer  loop : 29989 frames queued; Queued: 316119-346107, Saved: 316119-346107
11:04:10 - Finished EyeTrackerEvent consumer  loop : 0 frames queued; Queued: -1--1, Saved: -1--1
11:04:34 - Finished head tracker loop.
11:07:26 - Verifying grabbing system.
11:07:26 - Running camera callback.
11:07:26 - Camera reports 0
11:12:18 - Finished EyeCollection`1 consumer  loop : 13300 frames queued; Queued: 15688-28987, Saved: 15688-28987
11:12:18 - Finished EyeTrackerDataAndImages consumer  loop : 13299 frames queued; Queued: 15688-28986, Saved: 15688-28986
11:12:18 - Finished EyeTrackerEvent consumer  loop : 0 frames queued; Queued: -1--1, Saved: -1--1
11:16:38 - Finished EyeCollection`1 consumer  loop : 14462 frames queued; Queued: 40292-54753, Saved: 40292-54753
11:16:38 - Finished EyeTrackerDataAndImages consumer  loop : 14459 frames queued; Queued: 40292-54750, Saved: 40292-54750
11:16:38 - Finished EyeTrackerEvent consumer  loop : 0 frames queued; Queued: -1--1, Saved: -1--1
11:20:02 - Finished EyeCollection`1 consumer  loop : 19800 frames queued; Queued: 55170-74969, Saved: 55170-74969
11:20:02 - Finished EyeTrackerDataAndImages consumer  loop : 19796 frames queued; Queued: 55170-74965, Saved: 55170-74965
11:20:02 - Finished EyeTrackerEvent consumer  loop : 0 frames queued; Queued: -1--1, Saved: -1--1
11:29:12 - Finished EyeCollection`1 consumer  loop : 41609 frames queued; Queued: 87882-129490, Saved: 87882-129490
11:29:12 - Finished EyeTrackerDataAndImages consumer  loop : 41609 frames queued; Queued: 87882-129490, Saved: 87882-129490
11:29:12 - Finished EyeTrackerEvent consumer  loop : 0 frames queued; Queued: -1--1, Saved: -1--1
11:36:52 - Finished EyeCollection`1 consumer  loop : 41007 frames queued; Queued: 134044-175050, Saved: 134044-175050
11:36:52 - Finished EyeTrackerDataAndImages consumer  loop : 41007 frames queued; Queued: 134044-175050, Saved: 134044-175050
11:36:52 - Finished EyeTrackerEvent consumer  loop : 0 frames queued; Queued: -1--1, Saved: -1--1
11:43:49 - Finished EyeCollection`1 consumer  loop : 40331 frames queued; Queued: 176045-216375, Saved: 176045-216375
11:43:49 - Finished EyeTrackerDataAndImages consumer  loop : 40331 frames queued; Queued: 176045-216375, Saved: 176045-216375
11:43:49 - Finished EyeTrackerEvent consumer  loop : 0 frames queued; Queued: -1--1, Saved: -1--1
11:49:36 - Finished EyeCollection`1 consumer  loop : 21408 frames queued; Queued: 229386-250793, Saved: 229386-250793
11:49:36 - Finished EyeTrackerDataAndImages consumer  loop : 21408 frames queued; Queued: 229386-250793, Saved: 229386-250793
11:49:36 - Finished EyeTrackerEvent consumer  loop : 0 frames queued; Queued: -1--1, Saved: -1--1
11:53:34 - Finished EyeCollection`1 consumer  loop : 22038 frames queued; Queued: 252302-274339, Saved: 252302-274339
11:53:34 - Finished EyeTrackerDataAndImages consumer  loop : 22038 frames queued; Queued: 252302-274339, Saved: 252302-274339
11:53:34 - Finished EyeTrackerEvent consumer  loop : 0 frames queued; Queued: -1--1, Saved: -1--1
11:57:37 - Finished EyeCollection`1 consumer  loop : 22671 frames queued; Queued: 275802-298472, Saved: 275802-298472
11:57:37 - Finished EyeTrackerDataAndImages consumer  loop : 22671 frames queued; Queued: 275802-298472, Saved: 275802-298472
11:57:37 - Finished EyeTrackerEvent consumer  loop : 0 frames queued; Queued: -1--1, Saved: -1--1
12:01:18 - Finished EyeCollection`1 consumer  loop : 21082 frames queued; Queued: 299277-320358, Saved: 299277-320358
12:01:18 - Finished EyeTrackerDataAndImages consumer  loop : 21079 frames queued; Queued: 299277-320355, Saved: 299277-320355
12:01:18 - Finished EyeTrackerEvent consumer  loop : 0 frames queued; Queued: -1--1, Saved: -1--1
12:05:03 - Finished EyeCollection`1 consumer  loop : 21239 frames queued; Queued: 321455-342693, Saved: 321455-342693
12:05:03 - Finished EyeTrackerDataAndImages consumer  loop : 21239 frames queued; Queued: 321455-342693, Saved: 321455-342693
12:05:03 - Finished EyeTrackerEvent consumer  loop : 0 frames queued; Queued: -1--1, Saved: -1--1
12:05:46 - Finished head tracker loop.
15:25:44 - Verifying grabbing system.
15:25:44 - Running camera callback.
15:25:44 - Camera reports 0
15:33:35 - 2017-05-16-15:33:35.408 46652 M: KEYPRESS D: 
15:33:35 - 2017-05-16-15:33:35.720 46683 M: KEYPRESS D: 5
15:33:37 - 0: L (197.20,184.94) +/- (7016.27,6663.03), R (231.15,155.83) +/- (10356.30,5175.14))
15:33:38 - 197.1967 0 0 0 0 0 0 0 0 
15:33:38 - An error occured, cannot finalize calibration implmentation.
15:33:38 - Calibration loop finished.
15:35:47 - 0: L (293.81,158.07) +/- (0.10,0.10), R (319.35,116.76) +/- (0.08,0.07))
15:35:47 - 293.8085 0 0 0 0 0 0 0 0 
15:35:53 - 1: L (258.04,156.69) +/- (0.09,0.02), R (280.90,115.81) +/- (0.10,0.05))
15:35:53 - 293.8085 258.0409 0 0 0 0 0 0 0 
15:35:59 - 2: L (220.46,159.35) +/- (0.20,0.10), R (242.25,119.10) +/- (0.19,0.05))
15:35:59 - 293.8085 258.0409 220.4581 0 0 0 0 0 0 
15:36:05 - 3: L (292.76,186.69) +/- (0.21,0.03), R (320.64,147.24) +/- (0.21,0.09))
15:36:06 - 293.8085 258.0409 220.4581 292.762 0 0 0 0 0 
15:36:14 - 4: L (254.36,186.68) +/- (0.08,0.12), R (282.21,147.03) +/- (0.14,0.10))
15:36:14 - 293.8085 258.0409 220.4581 292.762 254.3616 0 0 0 0 
15:36:21 - 5: L (219.37,188.84) +/- (0.07,0.18), R (243.97,150.39) +/- (0.16,0.07))
15:36:21 - 293.8085 258.0409 220.4581 292.762 254.3616 219.3739 0 0 0 
15:36:27 - 6: L (289.44,218.53) +/- (0.10,0.03), R (321.62,179.12) +/- (0.13,0.08))
15:36:27 - 293.8085 258.0409 220.4581 292.762 254.3616 219.3739 289.4366 0 0 
15:36:33 - 7: L (252.83,217.32) +/- (0.07,0.16), R (285.14,179.55) +/- (0.23,0.03))
15:36:33 - 293.8085 258.0409 220.4581 292.762 254.3616 219.3739 289.4366 252.834 0 
15:36:38 - 8: L (217.49,219.81) +/- (0.03,0.07), R (246.75,182.35) +/- (0.32,0.18))
15:36:38 - 293.8085 258.0409 220.4581 292.762 254.3616 219.3739 289.4366 252.834 217.4877 
15:36:47 - Calibration finished
15:36:48 - Calibration loop finished.
15:52:13 - Finished EyeCollection`1 consumer  loop : 73929 frames queued; Queued: 83504-157432, Saved: 83504-157432
15:52:13 - Finished EyeTrackerDataAndImages consumer  loop : 73925 frames queued; Queued: 83504-157428, Saved: 83504-157428
15:52:13 - Finished EyeTrackerEvent consumer  loop : 0 frames queued; Queued: -1--1, Saved: -1--1
15:56:37 - 0: L (200.73,180.60) +/- (5134.59,4456.26), R (254.63,169.65) +/- (154.89,342.70))
15:56:37 - 200.7335 0 0 0 0 0 0 0 0 
15:56:38 - An error occured, cannot finalize calibration implmentation.
15:56:38 - Calibration loop finished.
15:56:51 - 0: L (281.14,146.49) +/- (0.64,0.39), R (307.25,115.42) +/- (0.31,0.06))
15:56:51 - 281.1413 0 0 0 0 0 0 0 0 
15:56:57 - 1: L (244.57,144.84) +/- (0.26,0.09), R (268.29,113.31) +/- (0.21,0.14))
15:56:57 - 281.1413 244.5704 0 0 0 0 0 0 0 
15:57:03 - 2: L (208.33,147.67) +/- (0.03,0.07), R (228.41,117.91) +/- (0.02,0.10))
15:57:03 - 281.1413 244.5704 208.3271 0 0 0 0 0 0 
15:57:09 - 3: L (282.68,175.51) +/- (0.07,0.06), R (308.29,145.71) +/- (0.12,0.07))
15:57:09 - 281.1413 244.5704 208.3271 282.6774 0 0 0 0 0 
15:57:15 - 4: L (244.97,175.35) +/- (0.22,0.07), R (268.47,146.02) +/- (0.28,0.13))
15:57:15 - 281.1413 244.5704 208.3271 282.6774 244.9669 0 0 0 0 
15:57:20 - 5: L (207.24,178.77) +/- (0.19,0.05), R (229.54,150.00) +/- (0.06,0.20))
15:57:20 - 281.1413 244.5704 208.3271 282.6774 244.9669 207.2354 0 0 0 
15:57:26 - 6: L (280.15,206.97) +/- (0.26,0.03), R (309.75,179.17) +/- (0.07,0.06))
15:57:26 - 281.1413 244.5704 208.3271 282.6774 244.9669 207.2354 280.1492 0 0 
15:57:31 - 7: L (243.40,208.69) +/- (0.09,0.04), R (271.23,180.41) +/- (0.12,0.02))
15:57:31 - 281.1413 244.5704 208.3271 282.6774 244.9669 207.2354 280.1492 243.3976 0 
15:57:37 - 8: L (207.04,211.75) +/- (0.23,0.08), R (233.32,183.69) +/- (0.18,0.07))
15:57:37 - 281.1413 244.5704 208.3271 282.6774 244.9669 207.2354 280.1492 243.3976 207.0396 
15:57:48 - Calibration finished
15:57:48 - Calibration loop finished.
16:10:29 - Finished EyeCollection`1 consumer  loop : 60959 frames queued; Queued: 205103-266061, Saved: 205103-266061
16:10:29 - Finished EyeTrackerDataAndImages consumer  loop : 60957 frames queued; Queued: 205103-266059, Saved: 205103-266059
16:10:29 - Finished EyeTrackerEvent consumer  loop : 0 frames queued; Queued: -1--1, Saved: -1--1
16:11:03 - Finished head tracker loop.
16:14:52 - Verifying grabbing system.
16:14:52 - Running camera callback.
16:14:52 - Camera reports 0
16:19:32 - Finished head tracker loop.
16:19:32 - Finished EyeCollection`1 consumer  loop : 13584 frames queued; Queued: 14156-27739, Saved: 14156-27739
16:19:32 - Finished EyeTrackerDataAndImages consumer  loop : 12947 frames queued; Queued: 14156-27739, Saved: 14156-27739
16:19:32 - Finished EyeTrackerEvent consumer  loop : 0 frames queued; Queued: -1--1, Saved: -1--1
16:19:36 - Grabber loop finished.
16:19:36 - Process loop finished.
16:19:36 - Process loop finished.
16:19:36 - Process loop finished.
16:19:36 - Process loop finished.
16:19:36 - Output loop finished.
