11:06:13 - Initializing network service ...
11:06:13 - Initializing network service ... completed.
11:06:13 - Initializing complete.
11:11:51 - Verifying grabbing system.
11:11:51 - Running camera callback.
11:11:51 - Camera reports 0
11:14:01 - 0: L (355.35,186.31) +/- (0.10,0.07), R (348.19,163.65) +/- (0.22,0.06))
11:14:02 - 355.3507 0 0 0 0 0 0 0 0 
11:14:07 - 1: L (320.68,187.06) +/- (0.19,0.03), R (308.44,164.82) +/- (0.15,0.08))
11:14:08 - 355.3507 320.6814 0 0 0 0 0 0 0 
11:14:13 - 2: L (283.90,187.99) +/- (0.16,0.22), R (269.86,168.15) +/- (0.08,0.45))
11:14:14 - 355.3507 320.6814 283.8963 0 0 0 0 0 0 
11:14:19 - 3: L (360.13,218.41) +/- (0.17,0.10), R (354.37,197.20) +/- (0.17,0.15))
11:14:20 - 355.3507 320.6814 283.8963 360.1321 0 0 0 0 0 
11:14:25 - 4: L (324.49,219.60) +/- (0.21,0.17), R (315.23,200.25) +/- (0.02,0.14))
11:14:26 - 355.3507 320.6814 283.8963 360.1321 324.4947 0 0 0 0 
11:14:32 - 5: L (286.62,220.90) +/- (0.34,0.59), R (276.15,203.21) +/- (0.27,0.14))
11:14:32 - 355.3507 320.6814 283.8963 360.1321 324.4947 286.6154 0 0 0 
11:14:38 - 6: L (360.41,252.07) +/- (0.15,0.17), R (357.62,230.99) +/- (0.23,0.05))
11:14:38 - 355.3507 320.6814 283.8963 360.1321 324.4947 286.6154 360.4082 0 0 
11:14:44 - 7: L (326.80,255.17) +/- (0.10,0.07), R (320.50,234.63) +/- (0.08,0.07))
11:14:44 - 355.3507 320.6814 283.8963 360.1321 324.4947 286.6154 360.4082 326.8004 0 
11:14:50 - 8: L (288.45,255.96) +/- (0.42,0.09), R (281.03,237.30) +/- (0.09,0.21))
11:14:51 - 355.3507 320.6814 283.8963 360.1321 324.4947 286.6154 360.4082 326.8004 288.4526 
11:15:01 - Calibration finished
11:15:01 - Calibration loop finished.
11:15:17 - 2017-12-10-11:15:17.001 20334 M: KEYPRESS D: 5
11:15:17 - 2017-12-10-11:15:17.191 20352 M: KEYPRESS D: 4
11:15:21 - 0: L (223.87,195.49) +/- (14988.28,11443.34), R (260.05,206.41) +/- (14976.00,6971.36))
11:15:22 - 223.8692 0 0 0 0 0 0 0 0 
11:15:22 - An error occured, cannot finalize calibration implmentation.
11:15:22 - Calibration loop finished.
11:15:44 - 0: L (348.44,183.03) +/- (0.15,0.12), R (338.34,159.91) +/- (0.14,0.06))
11:15:44 - 348.4399 0 0 0 0 0 0 0 0 
11:15:50 - 1: L (313.72,180.61) +/- (0.14,0.06), R (299.52,157.59) +/- (0.10,0.18))
11:15:50 - 348.4399 313.7172 0 0 0 0 0 0 0 
11:15:56 - 2: L (276.66,181.74) +/- (0.26,0.07), R (261.17,160.40) +/- (0.36,0.12))
11:15:56 - 348.4399 313.7172 276.6588 0 0 0 0 0 0 
11:16:02 - 3: L (351.88,211.53) +/- (0.11,0.23), R (345.53,190.22) +/- (0.15,0.11))
11:16:02 - 348.4399 313.7172 276.6588 351.8813 0 0 0 0 0 
11:16:08 - 4: L (317.28,213.52) +/- (0.32,0.27), R (306.43,191.32) +/- (0.17,0.24))
11:16:08 - 348.4399 313.7172 276.6588 351.8813 317.2811 0 0 0 0 
11:16:14 - 5: L (280.57,214.84) +/- (0.14,0.07), R (268.29,195.12) +/- (0.63,0.10))
11:16:14 - 348.4399 313.7172 276.6588 351.8813 317.2811 280.5736 0 0 0 
11:16:20 - 6: L (353.87,246.71) +/- (0.05,0.05), R (350.74,226.54) +/- (0.20,0.04))
11:16:20 - 348.4399 313.7172 276.6588 351.8813 317.2811 280.5736 353.8742 0 0 
11:16:26 - 7: L (320.58,248.91) +/- (0.12,0.16), R (313.00,228.16) +/- (0.14,0.06))
11:16:26 - 348.4399 313.7172 276.6588 351.8813 317.2811 280.5736 353.8742 320.578 0 
11:16:31 - 8: L (282.60,249.42) +/- (0.58,0.10), R (275.10,229.60) +/- (0.52,0.08))
11:16:31 - 348.4399 313.7172 276.6588 351.8813 317.2811 280.5736 353.8742 320.578 282.6003 
11:16:42 - Calibration finished
11:16:42 - Calibration loop finished.
11:31:20 - Finished EyeCollection`1 consumer  loop : 68704 frames queued; Queued: 47132-115835, Saved: 47132-115835
11:31:20 - Finished EyeTrackerDataAndImages consumer  loop : 68702 frames queued; Queued: 47132-115833, Saved: 47132-115833
11:31:20 - Finished EyeTrackerEvent consumer  loop : 0 frames queued; Queued: -1--1, Saved: -1--1
11:31:57 - Finished head tracker loop.
12:52:35 - Verifying grabbing system.
12:52:35 - Running camera callback.
12:52:35 - Camera reports 0
12:54:04 - 2017-12-10-12:54:04.853 8857 M: KEYPRESS D: 7
12:54:05 - 2017-12-10-12:54:05.396 8911 M: KEYPRESS D: 3
12:54:28 - 0: L (257.20,218.45) +/- (12087.69,9754.57), R (264.77,203.96) +/- (11161.54,6528.91))
12:54:28 - 257.1974 0 0 0 0 0 0 0 0 
12:54:29 - An error occured, cannot finalize calibration implmentation.
12:54:29 - Calibration loop finished.
12:55:11 - 0: L (350.08,191.66) +/- (0.16,0.06), R (343.56,155.67) +/- (0.09,0.08))
12:55:12 - 350.0793 0 0 0 0 0 0 0 0 
12:55:17 - 1: L (323.92,191.41) +/- (0.15,0.10), R (313.87,155.99) +/- (0.41,0.53))
12:55:18 - 350.0793 323.9211 0 0 0 0 0 0 0 
12:55:23 - 2: L (297.04,190.64) +/- (0.13,0.11), R (285.83,157.46) +/- (0.10,0.17))
12:55:24 - 350.0793 323.9211 297.0423 0 0 0 0 0 0 
12:55:29 - 3: L (353.00,216.76) +/- (0.08,0.13), R (348.42,182.81) +/- (0.11,0.14))
12:55:30 - 350.0793 323.9211 297.0423 352.9956 0 0 0 0 0 
12:55:35 - 4: L (325.32,215.49) +/- (0.04,0.04), R (318.15,183.07) +/- (0.04,0.06))
12:55:36 - 350.0793 323.9211 297.0423 352.9956 325.3182 0 0 0 0 
12:55:41 - 5: L (298.20,216.42) +/- (0.14,0.10), R (290.57,184.06) +/- (0.06,0.02))
12:55:43 - 350.0793 323.9211 297.0423 352.9956 325.3182 298.2031 0 0 0 
12:55:47 - 6: L (353.24,241.12) +/- (0.08,0.17), R (350.49,207.57) +/- (0.02,0.21))
12:55:48 - 350.0793 323.9211 297.0423 352.9956 325.3182 298.2031 353.2443 0 0 
12:55:53 - 7: L (327.27,241.02) +/- (0.09,0.04), R (322.02,209.33) +/- (0.13,0.21))
12:55:54 - 350.0793 323.9211 297.0423 352.9956 325.3182 298.2031 353.2443 327.2697 0 
12:55:59 - 8: L (300.85,241.10) +/- (0.07,0.16), R (293.67,210.13) +/- (0.17,0.15))
12:56:00 - 350.0793 323.9211 297.0423 352.9956 325.3182 298.2031 353.2443 327.2697 300.8486 
12:56:10 - Calibration finished
12:56:10 - Calibration loop finished.
13:07:33 - 2017-12-10-13:07:33.204 88975 M: KEYPRESS D: 1
13:07:33 - 2017-12-10-13:07:33.437 88998 M: KEYPRESS D: 8
13:07:33 - 2017-12-10-13:07:33.628 89015 M: KEYPRESS D: 6
13:07:34 - 2017-12-10-13:07:34.446 89098 M: KEYPRESS D: 
13:08:45 - Finished EyeCollection`1 consumer  loop : 67998 frames queued; Queued: 28124-96121, Saved: 28124-96121
13:08:45 - Finished EyeTrackerDataAndImages consumer  loop : 67997 frames queued; Queued: 28124-96120, Saved: 28124-96120
13:08:45 - Finished EyeTrackerEvent consumer  loop : 4 frames queued; Queued: 88975-89098, Saved: 88975-89098
13:21:56 - Finished EyeCollection`1 consumer  loop : 57499 frames queued; Queued: 117060-174558, Saved: 117060-174558
13:21:56 - Finished EyeTrackerDataAndImages consumer  loop : 57497 frames queued; Queued: 117060-174556, Saved: 117060-174556
13:21:56 - Finished EyeTrackerEvent consumer  loop : 0 frames queued; Queued: -1--1, Saved: -1--1
13:22:57 - Finished head tracker loop.
13:37:42 - Verifying grabbing system.
13:37:42 - Running camera callback.
13:37:42 - Camera reports 0
13:38:58 - 0: L (260.63,207.21) +/- (10157.38,6432.35), R (292.71,209.68) +/- (5.20,9.20))
13:38:58 - 260.6329 0 0 0 0 0 0 0 0 
13:38:59 - An error occured, cannot finalize calibration implmentation.
13:38:59 - Calibration loop finished.
13:40:20 - 0: L (353.84,191.39) +/- (0.31,0.09), R (346.78,158.47) +/- (0.33,0.16))
13:40:21 - 353.837 0 0 0 0 0 0 0 0 
13:40:27 - 1: L (324.95,191.60) +/- (0.23,0.18), R (315.70,159.79) +/- (0.47,0.46))
13:40:27 - 353.837 324.9461 0 0 0 0 0 0 0 
13:40:33 - 2: L (295.49,191.76) +/- (0.19,0.13), R (283.55,162.36) +/- (0.09,0.05))
13:40:33 - 353.837 324.9461 295.4887 0 0 0 0 0 0 
13:40:39 - 3: L (355.37,219.13) +/- (0.18,0.08), R (350.95,189.58) +/- (0.11,0.04))
13:40:39 - 353.837 324.9461 295.4887 355.3748 0 0 0 0 0 
13:40:45 - 4: L (326.99,219.49) +/- (0.02,0.04), R (319.21,191.06) +/- (0.16,0.16))
13:40:45 - 353.837 324.9461 295.4887 355.3748 326.9858 0 0 0 0 
13:40:51 - 5: L (295.75,220.48) +/- (0.21,0.11), R (287.36,193.06) +/- (0.15,0.14))
13:40:52 - 353.837 324.9461 295.4887 355.3748 326.9858 295.7545 0 0 0 
13:40:58 - 6: L (355.57,247.26) +/- (0.14,0.08), R (354.09,219.89) +/- (0.30,0.36))
13:40:59 - 353.837 324.9461 295.4887 355.3748 326.9858 295.7545 355.5725 0 0 
13:41:04 - 7: L (327.40,248.34) +/- (0.23,0.11), R (322.16,221.25) +/- (0.13,0.36))
13:41:04 - 353.837 324.9461 295.4887 355.3748 326.9858 295.7545 355.5725 327.3988 0 
13:41:10 - 8: L (296.00,249.10) +/- (0.93,0.26), R (290.57,224.32) +/- (0.17,0.13))
13:41:10 - 353.837 324.9461 295.4887 355.3748 326.9858 295.7545 355.5725 327.3988 295.9952 
13:41:21 - Calibration finished
13:41:21 - Calibration loop finished.
13:49:13 - 2017-12-10-13:49:13.940 68550 M: KEYPRESS D: 1
13:49:14 - 2017-12-10-13:49:14.040 68559 M: KEYPRESS D: 8
13:49:14 - 2017-12-10-13:49:14.410 68594 M: KEYPRESS D: 0
13:49:14 - 2017-12-10-13:49:14.880 68641 M: KEYPRESS D: 
13:49:19 - 2017-12-10-13:49:19.227 69073 M: KEYPRESS D: 1
13:49:19 - 2017-12-10-13:49:19.327 69081 M: KEYPRESS D: 8
13:49:19 - 2017-12-10-13:49:19.550 69105 M: KEYPRESS D: 0
13:49:20 - 2017-12-10-13:49:20.130 69163 M: KEYPRESS D: 
13:50:16 - Calibration finished
13:50:16 - Calibration loop finished.
13:58:44 - Finished EyeCollection`1 consumer  loop : 100351 frames queued; Queued: 24758-125108, Saved: 24758-125108
13:58:44 - Finished EyeTrackerDataAndImages consumer  loop : 100351 frames queued; Queued: 24758-125108, Saved: 24758-125108
13:58:44 - Finished EyeTrackerEvent consumer  loop : 8 frames queued; Queued: 68550-69163, Saved: 68550-69163
14:02:30 - Calibration finished
14:02:30 - Calibration loop finished.
14:09:39 - Calibration finished
14:09:39 - Calibration loop finished.
14:15:18 - Finished EyeCollection`1 consumer  loop : 92610 frames queued; Queued: 131049-223658, Saved: 131049-223658
14:15:18 - Finished EyeTrackerDataAndImages consumer  loop : 92609 frames queued; Queued: 131049-223657, Saved: 131049-223657
14:15:18 - Finished EyeTrackerEvent consumer  loop : 0 frames queued; Queued: -1--1, Saved: -1--1
14:22:49 - Finished head tracker loop.
14:22:53 - Verifying grabbing system.
14:22:53 - Running camera callback.
14:22:53 - Camera reports 0
14:23:00 - 0: L (144.72,121.96) +/- (21833.11,15485.64), R (142.48,109.77) +/- (21161.05,12545.95))
14:23:00 - 144.716 0 0 0 0 0 0 0 0 
14:23:00 - An error occured, cannot finalize calibration implmentation.
14:23:00 - Calibration loop finished.
14:26:26 - 0: L (331.87,179.31) +/- (0.11,0.07), R (319.55,155.01) +/- (0.11,0.22))
14:26:26 - 331.8735 0 0 0 0 0 0 0 0 
14:26:31 - 1: L (302.72,179.36) +/- (0.17,0.20), R (288.23,157.21) +/- (0.16,0.16))
14:26:31 - 331.8735 302.7224 0 0 0 0 0 0 0 
14:26:37 - 2: L (273.27,180.27) +/- (0.11,0.06), R (257.40,159.34) +/- (0.10,0.07))
14:26:37 - 331.8735 302.7224 273.2663 0 0 0 0 0 0 
14:26:43 - 3: L (334.31,206.96) +/- (0.08,0.11), R (324.00,185.02) +/- (0.05,0.03))
14:26:43 - 331.8735 302.7224 273.2663 334.3115 0 0 0 0 0 
14:26:49 - 4: L (304.62,207.51) +/- (0.04,0.02), R (292.77,185.71) +/- (0.02,0.02))
14:26:49 - 331.8735 302.7224 273.2663 334.3115 304.6232 0 0 0 0 
14:26:55 - 5: L (274.79,209.14) +/- (0.05,0.05), R (261.94,188.35) +/- (0.01,0.04))
14:26:55 - 331.8735 302.7224 273.2663 334.3115 304.6232 274.7899 0 0 0 
14:27:02 - 6: L (334.78,233.85) +/- (0.07,0.04), R (326.79,213.00) +/- (0.02,0.03))
14:27:02 - 331.8735 302.7224 273.2663 334.3115 304.6232 274.7899 334.7805 0 0 
14:27:08 - 7: L (307.84,235.46) +/- (0.10,0.16), R (298.40,214.18) +/- (0.04,0.07))
14:27:08 - 331.8735 302.7224 273.2663 334.3115 304.6232 274.7899 334.7805 307.8411 0 
14:27:14 - 8: L (275.35,236.87) +/- (1.22,0.11), R (264.84,218.11) +/- (0.11,0.10))
14:27:14 - 331.8735 302.7224 273.2663 334.3115 304.6232 274.7899 334.7805 307.8411 275.347 
14:27:25 - Calibration finished
14:27:25 - Calibration loop finished.
14:38:39 - Finished EyeCollection`1 consumer  loop : 64169 frames queued; Queued: 29563-93731, Saved: 29563-93731
14:38:39 - Finished EyeTrackerDataAndImages consumer  loop : 64168 frames queued; Queued: 29563-93730, Saved: 29563-93730
14:38:39 - Finished EyeTrackerEvent consumer  loop : 0 frames queued; Queued: -1--1, Saved: -1--1
14:49:17 - Finished EyeCollection`1 consumer  loop : 58989 frames queued; Queued: 97983-156971, Saved: 97983-156971
14:49:17 - Finished EyeTrackerDataAndImages consumer  loop : 58987 frames queued; Queued: 97983-156969, Saved: 97983-156969
14:49:17 - Finished EyeTrackerEvent consumer  loop : 0 frames queued; Queued: -1--1, Saved: -1--1
14:49:27 - Finished head tracker loop.
15:28:58 - Verifying grabbing system.
15:28:58 - Running camera callback.
15:28:58 - Camera reports 0
15:29:02 - 0: L (296.79,183.96) +/- (526.94,2268.48), R (286.30,167.13) +/- (544.74,2197.29))
15:29:02 - 296.7932 0 0 0 0 0 0 0 0 
15:29:02 - An error occured, cannot finalize calibration implmentation.
15:29:02 - Calibration loop finished.
15:29:10 - 0: L (334.40,141.52) +/- (0.10,0.17), R (322.81,123.14) +/- (0.13,0.12))
15:29:10 - 334.3976 0 0 0 0 0 0 0 0 
15:29:16 - 1: L (299.92,142.41) +/- (0.27,0.21), R (285.27,125.43) +/- (0.14,0.10))
15:29:16 - 334.3976 299.9192 0 0 0 0 0 0 0 
15:29:21 - 2: L (262.60,144.34) +/- (0.27,0.07), R (246.72,128.95) +/- (0.20,0.05))
15:29:21 - 334.3976 299.9192 262.5989 0 0 0 0 0 0 
15:29:27 - 3: L (338.18,174.59) +/- (0.29,0.08), R (328.00,157.20) +/- (0.39,0.08))
15:29:27 - 334.3976 299.9192 262.5989 338.1825 0 0 0 0 0 
15:29:32 - 4: L (301.48,175.55) +/- (0.11,0.04), R (288.78,158.80) +/- (0.09,0.07))
15:29:32 - 334.3976 299.9192 262.5989 338.1825 301.4785 0 0 0 0 
15:29:38 - 5: L (264.82,177.38) +/- (0.20,0.03), R (251.52,161.78) +/- (0.01,0.07))
15:29:38 - 334.3976 299.9192 262.5989 338.1825 301.4785 264.8221 0 0 0 
15:29:44 - 6: L (338.18,208.12) +/- (0.03,0.04), R (330.42,191.70) +/- (0.02,0.03))
15:29:44 - 334.3976 299.9192 262.5989 338.1825 301.4785 264.8221 338.1841 0 0 
15:29:49 - 7: L (302.56,209.81) +/- (0.08,0.03), R (291.48,194.82) +/- (0.06,0.12))
15:29:49 - 334.3976 299.9192 262.5989 338.1825 301.4785 264.8221 338.1841 302.5633 0 
15:29:55 - 8: L (265.16,211.38) +/- (0.59,0.12), R (254.43,196.88) +/- (0.28,0.13))
15:29:55 - 334.3976 299.9192 262.5989 338.1825 301.4785 264.8221 338.1841 302.5633 265.1638 
15:30:07 - Calibration finished
15:30:07 - Calibration loop finished.
15:30:29 - Finished head tracker loop.
15:31:44 - Verifying grabbing system.
15:31:44 - Running camera callback.
15:31:44 - Camera reports 0
15:41:28 - Finished EyeCollection`1 consumer  loop : 45283 frames queued; Queued: 12634-57916, Saved: 12634-57916
15:41:28 - Finished EyeTrackerDataAndImages consumer  loop : 45281 frames queued; Queued: 12634-57914, Saved: 12634-57914
15:41:28 - Finished EyeTrackerEvent consumer  loop : 0 frames queued; Queued: -1--1, Saved: -1--1
15:52:48 - Finished EyeCollection`1 consumer  loop : 65958 frames queued; Queued: 59317-125274, Saved: 59317-125274
15:52:48 - Finished EyeTrackerDataAndImages consumer  loop : 65958 frames queued; Queued: 59317-125274, Saved: 59317-125274
15:52:48 - Finished EyeTrackerEvent consumer  loop : 0 frames queued; Queued: -1--1, Saved: -1--1
15:54:41 - 2017-12-10-15:54:41.433 136493 M: KEYPRESS D:  
16:00:43 - Finished EyeCollection`1 consumer  loop : 46518 frames queued; Queued: 125850-172367, Saved: 125850-172367
16:00:43 - Finished EyeTrackerDataAndImages consumer  loop : 46518 frames queued; Queued: 125850-172367, Saved: 125850-172367
16:00:43 - Finished EyeTrackerEvent consumer  loop : 1 frames queued; Queued: 136493-136493, Saved: 136493-136493
16:00:58 - Finished head tracker loop.
16:16:53 - Grabber loop finished.
16:16:53 - Process loop finished.
16:16:53 - Process loop finished.
16:16:53 - Process loop finished.
16:16:53 - Process loop finished.
16:16:53 - Output loop finished.
