20:05:11 - Initializing network service ...
20:05:12 - Initializing network service ... completed.
20:05:12 - Initializing complete.
20:05:14 - Verifying grabbing system.
20:05:14 - Running camera callback.
20:05:15 - Camera reports 0
20:05:43 - Finished head tracker loop.
20:05:46 - Grabber loop finished.
20:05:46 - Process loop finished.
20:05:46 - Process loop finished.
20:05:46 - Process loop finished.
20:05:46 - Process loop finished.
20:05:46 - Output loop finished.
