19:15:36 - Initializing network service ...
19:15:38 - Initializing network service ... completed.
19:15:38 - Initializing complete.
19:15:57 - Verifying grabbing system.
19:15:57 - Running camera callback.
19:16:07 - 0: L (264.69,190.56) +/- (1.37,0.16), R (295.92,153.68) +/- (0.38,0.12))
19:16:07 - 264.6871 0 0 0 0 0 0 0 0 
19:16:10 - 1: L (242.19,192.90) +/- (0.42,0.19), R (271.63,154.22) +/- (0.25,0.15))
19:16:10 - 264.6871 242.1865 0 0 0 0 0 0 0 
19:16:13 - 2: L (215.61,194.18) +/- (0.11,0.05), R (245.61,154.62) +/- (0.25,0.08))
19:16:13 - 264.6871 242.1865 215.6119 0 0 0 0 0 0 
19:16:15 - 3: L (267.77,215.15) +/- (0.10,0.19), R (295.81,176.89) +/- (0.04,0.08))
19:16:15 - 264.6871 242.1865 215.6119 267.7673 0 0 0 0 0 
19:16:18 - 4: L (243.00,215.02) +/- (0.06,0.16), R (271.47,176.43) +/- (0.10,0.21))
19:16:18 - 264.6871 242.1865 215.6119 267.7673 242.9972 0 0 0 0 
19:16:21 - 5: L (217.39,216.13) +/- (0.41,0.08), R (247.07,176.38) +/- (0.37,0.09))
19:16:21 - 264.6871 242.1865 215.6119 267.7673 242.9972 217.3942 0 0 0 
19:16:23 - 6: L (267.07,235.72) +/- (0.41,0.14), R (296.29,197.58) +/- (0.08,0.14))
19:16:24 - 264.6871 242.1865 215.6119 267.7673 242.9972 217.3942 267.0676 0 0 
19:16:26 - 7: L (242.75,235.98) +/- (0.68,0.19), R (271.45,197.05) +/- (0.17,0.18))
19:16:26 - 264.6871 242.1865 215.6119 267.7673 242.9972 217.3942 267.0676 242.7548 0 
19:16:29 - 8: L (216.95,237.20) +/- (0.17,0.15), R (245.95,197.24) +/- (0.06,0.19))
19:16:33 - 264.6871 242.1865 215.6119 267.7673 242.9972 217.3942 267.0676 242.7548 216.9476 
19:16:40 - Calibration finished
19:16:40 - Calibration loop finished.
19:17:12 - Finished head tracker loop.
19:17:14 - Verifying grabbing system.
19:17:14 - Running camera callback.
19:17:21 - Finished head tracker loop.
19:17:35 - Grabber loop finished.
19:17:35 - Process loop finished.
19:17:35 - Process loop finished.
19:17:35 - Process loop finished.
19:17:35 - Process loop finished.
19:17:35 - Output loop finished.
