08:08:54 - Initializing network service ...
08:08:54 - Initializing network service ... completed.
08:08:55 - Initializing complete.
08:11:36 - Grabber loop finished.
08:11:36 - Process loop finished.
08:11:36 - Process loop finished.
08:11:36 - Process loop finished.
08:11:36 - Process loop finished.
08:11:36 - Output loop finished.
