10:28:28 - Initializing network service ...
10:28:29 - Initializing network service ... completed.
10:28:30 - Initializing complete.
10:28:34 - Verifying grabbing system.
10:28:34 - Running camera callback.
10:28:34 - Camera reports 0
10:28:43 - 0: L (250.10,181.89) +/- (0.11,0.36), R (285.24,161.87) +/- (0.14,0.86))
10:28:44 - 250.0976 0 0 0 0 0 0 0 0 
10:28:46 - 1: L (225.58,184.11) +/- (0.17,0.20), R (259.28,162.64) +/- (0.19,0.28))
10:28:47 - 250.0976 225.5821 0 0 0 0 0 0 0 
10:28:49 - 2: L (201.19,185.95) +/- (0.03,0.04), R (233.45,163.20) +/- (0.06,0.06))
10:28:50 - 250.0976 225.5821 201.1924 0 0 0 0 0 0 
10:28:53 - 3: L (252.04,206.69) +/- (0.04,0.05), R (283.85,186.30) +/- (0.03,0.04))
10:28:53 - 250.0976 225.5821 201.1924 252.0436 0 0 0 0 0 
10:28:56 - 4: L (227.35,207.13) +/- (0.20,0.15), R (258.06,185.06) +/- (0.26,0.10))
10:28:56 - 250.0976 225.5821 201.1924 252.0436 227.3472 0 0 0 0 
10:28:59 - 5: L (202.15,207.71) +/- (0.52,0.03), R (232.86,184.14) +/- (0.25,0.03))
10:28:59 - 250.0976 225.5821 201.1924 252.0436 227.3472 202.1519 0 0 0 
10:29:03 - 6: L (251.95,227.40) +/- (0.13,0.18), R (284.53,206.37) +/- (0.14,0.05))
10:29:03 - 250.0976 225.5821 201.1924 252.0436 227.3472 202.1519 251.9459 0 0 
10:29:06 - 7: L (227.72,229.07) +/- (0.10,0.09), R (257.60,207.82) +/- (0.08,0.05))
10:29:06 - 250.0976 225.5821 201.1924 252.0436 227.3472 202.1519 251.9459 227.724 0 
10:29:09 - 8: L (201.69,229.02) +/- (0.27,0.05), R (233.78,205.04) +/- (0.32,1.21))
10:29:18 - 250.0976 225.5821 201.1924 252.0436 227.3472 202.1519 251.9459 227.724 201.6934 
