20:42:55 - Initializing network service ...
20:42:55 - Initializing network service ... completed.
20:42:55 - Initializing complete.
20:42:57 - Verifying grabbing system.
20:42:57 - Running camera callback.
20:43:18 - Waiting for camera...
20:43:38 - Waiting for camera...
20:43:59 - Camera reports 1
20:50:15 - Finished head tracker loop.
11:06:08 - Grabber loop finished.
11:06:08 - Process loop finished.
11:06:08 - Process loop finished.
11:06:08 - Process loop finished.
11:06:08 - Process loop finished.
11:06:08 - Output loop finished.
