14:29:56 - Initializing network service ...
14:29:56 - Initializing network service ... completed.
14:29:56 - Initializing complete.
14:29:58 - Verifying grabbing system.
14:29:59 - Running camera callback.
14:29:59 - Camera reports 0
