15:50:54 - Initializing network service ...
15:50:54 - Initializing network service ... completed.
15:50:54 - Initializing complete.
15:51:00 - Verifying grabbing system.
15:51:00 - Running camera callback.
15:51:01 - Camera reports 0
15:51:08 - Finished head tracker loop.
15:51:12 - Verifying grabbing system.
15:51:12 - Running camera callback.
15:51:12 - Camera reports 0
15:51:27 - Finished head tracker loop.
15:51:34 - Verifying grabbing system.
15:51:34 - Running camera callback.
15:51:34 - Camera reports 0
15:52:22 - Finished head tracker loop.
15:52:25 - Grabber loop finished.
15:52:25 - Process loop finished.
15:52:25 - Process loop finished.
15:52:25 - Process loop finished.
15:52:25 - Process loop finished.
15:52:25 - Output loop finished.
