13:59:53 - Initializing network service ...
13:59:54 - Initializing network service ... completed.
13:59:54 - Initializing complete.
14:00:01 - Error initializating the system, going into simulation mode.
14:00:01 - Object reference not set to an instance of an object.
