18:28:01 - Initializing network service ...
18:28:01 - Initializing network service ... completed.
18:28:01 - Initializing complete.
18:28:02 - Verifying grabbing system.
18:28:03 - Running camera callback.
18:28:07 - Finished head tracker loop.
