15:18:32 - Initializing network service ...
15:18:33 - Initializing network service ... completed.
15:18:34 - Initializing complete.
15:18:57 - Waiting for camera...
15:18:57 - Verifying grabbing system.
15:18:57 - Running camera callback.
15:18:57 - Camera reports 0
15:20:03 - 0: L (189.81,210.21) +/- (0.91,1.68), R (358.19,183.67) +/- (5.27,4.16))
15:20:03 - 189.8106 0 0 0 0 0 0 0 0 
15:20:06 - 1: L (184.27,212.36) +/- (5.66,0.25), R (350.08,186.48) +/- (5.45,0.07))
15:20:06 - 189.8106 184.2657 0 0 0 0 0 0 0 
15:20:10 - 2: L (180.00,213.31) +/- (8.00,0.05), R (344.98,187.00) +/- (10.29,0.15))
15:20:10 - 189.8106 184.2657 180.0034 0 0 0 0 0 0 
15:20:14 - 3: L (189.83,218.59) +/- (34.01,6.81), R (353.47,193.11) +/- (30.54,8.42))
15:20:14 - 189.8106 184.2657 180.0034 189.831 0 0 0 0 0 
15:20:19 - 4: L (188.32,220.02) +/- (14.85,0.44), R (351.61,194.63) +/- (17.10,0.13))
15:20:19 - 189.8106 184.2657 180.0034 189.831 188.3188 0 0 0 0 
15:20:23 - 5: L (181.16,221.38) +/- (10.06,0.20), R (343.47,195.52) +/- (12.39,0.11))
15:20:23 - 189.8106 184.2657 180.0034 189.831 188.3188 181.1552 0 0 0 
15:20:29 - 6: L (193.69,225.68) +/- (0.31,0.95), R (356.81,199.81) +/- (0.91,2.68))
15:20:29 - 189.8106 184.2657 180.0034 189.831 188.3188 181.1552 193.69 0 0 
15:20:33 - 7: L (189.22,225.37) +/- (6.37,0.38), R (350.85,200.66) +/- (8.95,0.18))
15:20:33 - 189.8106 184.2657 180.0034 189.831 188.3188 181.1552 193.69 189.224 0 
15:20:37 - 8: L (185.80,225.21) +/- (7.11,0.29), R (345.82,201.30) +/- (7.20,0.18))
15:20:38 - 189.8106 184.2657 180.0034 189.831 188.3188 181.1552 193.69 189.224 185.7967 
15:20:38 - Calibration error: Error using VOG_Calibration_9_Points_Physical
Too many input arguments.
