16:20:21 - Initializing network service ...
16:20:23 - Initializing network service ... completed.
16:20:23 - Initializing complete.
16:20:32 - compType: 'LabyrinthAcc' is not a known compType
16:20:32 - Error initializating the system, going into simulation mode.
16:20:32 - Unable to load DLL 'ueye_api_64.dll': The specified module could not be found. (Exception from HRESULT: 0x8007007E)
