16:18:10 - Initializing network service ...
16:18:10 - Initializing network service ... completed.
16:18:10 - Initializing complete.
16:18:13 - Error initializating the system, going into simulation mode.
16:18:13 - Object reference not set to an instance of an object.
16:18:24 - Grabber loop finished.
16:18:24 - Process loop finished.
16:18:24 - Process loop finished.
16:18:24 - Process loop finished.
16:18:24 - Process loop finished.
16:18:24 - Output loop finished.
