15:55:13 - Initializing network service ...
15:55:13 - Initializing network service ... completed.
15:55:13 - Initializing complete.
15:57:55 - Verifying grabbing system.
15:57:55 - Running camera callback.
15:57:55 - Camera reports 0
15:59:47 - 2016-11-02-15:59:47.610 11096 M: KEYPRESS D: 
15:59:48 - 2016-11-02-15:59:48.235 11158 M: KEYPRESS D: 8
16:00:05 - 0: L (311.64,153.62) +/- (109.86,1.93), R (241.83,115.39) +/- (131.77,0.59))
16:00:07 - 311.637 0 0 0 0 0 0 0 0 
16:00:10 - 1: L (296.15,149.65) +/- (0.32,0.22), R (224.24,111.00) +/- (0.70,0.08))
16:00:10 - 311.637 296.1491 0 0 0 0 0 0 0 
16:00:10 - An error occured, cannot finalize calibration implmentation.
16:00:10 - Calibration loop finished.
16:01:22 - 0: L (319.34,116.31) +/- (0.29,0.82), R (248.39,121.20) +/- (0.22,0.25))
16:01:22 - 319.3434 0 0 0 0 0 0 0 0 
16:01:27 - 1: L (293.31,116.15) +/- (0.25,0.06), R (221.82,119.99) +/- (0.11,0.04))
16:01:27 - 319.3434 293.309 0 0 0 0 0 0 0 
16:01:32 - 2: L (267.54,118.89) +/- (0.11,0.05), R (195.61,120.46) +/- (0.09,0.06))
16:01:32 - 319.3434 293.309 267.5356 0 0 0 0 0 0 
16:01:36 - 3: L (322.15,141.68) +/- (0.11,0.05), R (246.28,141.58) +/- (0.18,0.17))
16:01:36 - 319.3434 293.309 267.5356 322.1496 0 0 0 0 0 
16:01:41 - 4: L (295.28,139.34) +/- (0.64,0.11), R (218.85,139.98) +/- (0.76,0.02))
16:01:41 - 319.3434 293.309 267.5356 322.1496 295.2849 0 0 0 0 
16:01:46 - 5: L (268.26,139.25) +/- (0.10,0.20), R (192.03,140.43) +/- (0.05,0.18))
16:01:46 - 319.3434 293.309 267.5356 322.1496 295.2849 268.2617 0 0 0 
16:01:51 - 6: L (320.37,164.91) +/- (1.45,0.15), R (243.58,164.98) +/- (1.34,0.10))
16:01:51 - 319.3434 293.309 267.5356 322.1496 295.2849 268.2617 320.3652 0 0 
16:01:55 - 7: L (293.81,160.52) +/- (0.13,0.37), R (216.71,163.15) +/- (0.02,0.01))
16:01:55 - 319.3434 293.309 267.5356 322.1496 295.2849 268.2617 320.3652 293.8094 0 
16:01:59 - 8: L (284.01,158.83) +/- (135.70,2.00), R (208.39,161.99) +/- (107.40,1.67))
16:02:08 - Calibration finished
16:02:08 - Calibration loop finished.
16:02:11 - 319.3434 293.309 267.5356 322.1496 295.2849 268.2617 320.3652 293.8094 284.0129 
16:02:31 - 0: L (211.74,102.86) +/- (16672.27,4258.24), R (222.18,139.00) +/- (743.75,470.32))
16:02:31 - 211.7354 0 0 0 0 0 0 0 0 
16:02:31 - An error occured, cannot finalize calibration implmentation.
16:02:31 - Calibration loop finished.
16:02:35 - 0: L (244.97,87.00) +/- (18951.13,2389.99), R (248.40,120.24) +/- (0.37,0.03))
16:02:35 - 244.9711 0 0 0 0 0 0 0 0 
16:02:40 - 1: L (295.06,112.88) +/- (1.23,0.45), R (221.73,119.51) +/- (0.38,0.29))
16:02:41 - 244.9711 295.058 0 0 0 0 0 0 0 
16:02:43 - An error occured, cannot finalize calibration implmentation.
16:02:43 - Calibration loop finished.
16:02:54 - 0: L (258.74,92.11) +/- (16216.47,2055.04), R (248.34,119.42) +/- (0.23,0.07))
16:02:54 - 258.7353 0 0 0 0 0 0 0 0 
16:02:59 - 1: L (293.76,112.70) +/- (0.27,0.15), R (221.47,118.47) +/- (0.29,0.03))
16:02:59 - 258.7353 293.7627 0 0 0 0 0 0 0 
16:03:17 - An error occured, cannot finalize calibration implmentation.
16:03:17 - Calibration loop finished.
16:03:23 - 0: L (317.92,114.55) +/- (0.66,0.18), R (246.89,118.46) +/- (0.86,0.10))
16:03:23 - 317.9168 0 0 0 0 0 0 0 0 
16:03:28 - 1: L (293.47,112.52) +/- (0.72,0.07), R (220.95,116.57) +/- (0.68,0.05))
16:03:28 - 317.9168 293.471 0 0 0 0 0 0 0 
16:03:33 - 2: L (265.43,112.92) +/- (0.27,0.08), R (194.23,117.17) +/- (0.31,0.27))
16:03:33 - 317.9168 293.471 265.4284 0 0 0 0 0 0 
16:03:38 - 3: L (319.22,136.72) +/- (1.70,0.08), R (244.37,139.63) +/- (1.88,0.06))
16:03:38 - 317.9168 293.471 265.4284 319.2216 0 0 0 0 0 
16:03:43 - 4: L (293.56,135.24) +/- (1.37,0.20), R (219.01,138.82) +/- (1.05,0.16))
16:03:43 - 317.9168 293.471 265.4284 319.2216 293.5616 0 0 0 0 
16:03:47 - 5: L (265.95,133.59) +/- (1.96,0.09), R (191.00,137.59) +/- (1.73,0.10))
16:03:48 - 317.9168 293.471 265.4284 319.2216 293.5616 265.9493 0 0 0 
16:03:52 - 6: L (318.91,158.20) +/- (0.88,0.05), R (243.63,161.44) +/- (1.03,0.41))
16:03:52 - 317.9168 293.471 265.4284 319.2216 293.5616 265.9493 318.9069 0 0 
16:03:57 - 7: L (292.61,157.67) +/- (0.64,0.05), R (217.41,159.78) +/- (0.54,0.09))
16:03:57 - 317.9168 293.471 265.4284 319.2216 293.5616 265.9493 318.9069 292.607 0 
16:04:00 - 8: L (265.68,157.12) +/- (0.15,0.06), R (191.58,159.92) +/- (0.54,0.08))
16:04:01 - 317.9168 293.471 265.4284 319.2216 293.5616 265.9493 318.9069 292.607 265.6787 
16:04:09 - Calibration finished
16:04:09 - Calibration loop finished.
16:04:25 - Finished EyeCollection`1 consumer  loop : 901 frames queued; Queued: 37714-38614, Saved: 37714-38614
16:04:25 - Finished EyeTrackerDataAndImages consumer  loop : 892 frames queued; Queued: 37714-38605, Saved: 37714-38605
16:04:25 - Finished EyeTrackerEvent consumer  loop : 0 frames queued; Queued: -1--1, Saved: -1--1
16:09:20 - Finished EyeCollection`1 consumer  loop : 26361 frames queued; Queued: 41490-67850, Saved: 41490-67850
16:09:20 - Finished EyeTrackerDataAndImages consumer  loop : 26361 frames queued; Queued: 41490-67850, Saved: 41490-67850
16:09:20 - Finished EyeTrackerEvent consumer  loop : 0 frames queued; Queued: -1--1, Saved: -1--1
16:13:50 - Finished EyeCollection`1 consumer  loop : 26246 frames queued; Queued: 68422-94667, Saved: 68422-94667
16:13:50 - Finished EyeTrackerDataAndImages consumer  loop : 26246 frames queued; Queued: 68422-94667, Saved: 68422-94667
16:13:50 - Finished EyeTrackerEvent consumer  loop : 0 frames queued; Queued: -1--1, Saved: -1--1
16:18:23 - Finished EyeCollection`1 consumer  loop : 26796 frames queued; Queued: 94948-121743, Saved: 94948-121743
16:18:23 - Finished EyeTrackerDataAndImages consumer  loop : 26796 frames queued; Queued: 94948-121743, Saved: 94948-121743
16:18:23 - Finished EyeTrackerEvent consumer  loop : 0 frames queued; Queued: -1--1, Saved: -1--1
16:18:50 - Finished head tracker loop.
