17:51:58 - Initializing network service ...
17:51:58 - Initializing network service ... completed.
17:51:58 - Initializing complete.
17:52:05 - Verifying grabbing system.
17:52:05 - Running camera callback.
17:52:05 - Camera reports 0
17:54:06 - Finished head tracker loop.
