15:30:10 - Initializing network service ...
15:30:10 - Initializing network service ... completed.
15:30:10 - Initializing complete.
15:30:14 - Error initializating the system, going into simulation mode.
15:30:14 - Object reference not set to an instance of an object.
15:30:26 - Grabber loop finished.
15:30:26 - Process loop finished.
15:30:26 - Process loop finished.
15:30:26 - Process loop finished.
15:30:26 - Process loop finished.
15:30:26 - Output loop finished.
