12:12:24 - Initializing network service ...
12:12:26 - Initializing network service ... completed.
12:12:26 - Initializing complete.
12:12:28 - Verifying grabbing system.
12:12:28 - Running camera callback.
12:12:29 - Camera reports 1
