11:56:42 - Initializing network service ...
11:56:43 - Initializing network service ... completed.
11:56:43 - Initializing complete.
20:21:42 - Grabber loop finished.
20:21:42 - Process loop finished.
20:21:42 - Process loop finished.
20:21:42 - Process loop finished.
20:21:42 - Process loop finished.
20:21:42 - Output loop finished.
