09:32:57 - Initializing network service ...
09:32:58 - Initializing network service ... completed.
09:32:58 - Initializing complete.
09:33:04 - Verifying grabbing system.
09:33:04 - Running camera callback.
09:33:04 - Camera reports 0
09:35:08 - 0: L (282.78,200.17) +/- (85.43,974.01), R (279.63,169.62) +/- (86.41,1034.35))
09:35:09 - 282.7838 0 0 0 0 0 0 0 0 
09:35:36 - 2018-09-25-09:35:36.978 15085 M: KEYPRESS D: 5
09:35:37 - 2018-09-25-09:35:37.218 15109 M: KEYPRESS D: 4
09:35:40 - An error occured, cannot finalize calibration implmentation.
09:35:40 - Calibration loop finished.
09:35:48 - 0: L (293.45,147.64) +/- (0.70,0.48), R (292.29,113.81) +/- (0.24,0.77))
09:35:49 - 293.4451 0 0 0 0 0 0 0 0 
09:35:55 - 1: L (255.22,147.18) +/- (0.05,0.07), R (251.73,118.04) +/- (0.05,0.11))
09:35:55 - 293.4451 255.2153 0 0 0 0 0 0 0 
09:36:01 - 2: L (217.99,151.05) +/- (0.18,0.06), R (213.20,125.60) +/- (0.04,0.03))
09:36:01 - 293.4451 255.2153 217.9948 0 0 0 0 0 0 
09:36:06 - 3: L (297.98,179.37) +/- (0.11,0.06), R (293.43,148.05) +/- (0.10,0.08))
09:36:07 - 293.4451 255.2153 217.9948 297.9751 0 0 0 0 0 
09:36:13 - 4: L (257.66,179.33) +/- (0.07,0.05), R (251.98,151.91) +/- (0.05,0.08))
09:36:13 - 293.4451 255.2153 217.9948 297.9751 257.6605 0 0 0 0 
09:36:19 - 5: L (221.04,182.05) +/- (0.18,0.03), R (212.48,158.09) +/- (0.20,0.05))
09:36:20 - 293.4451 255.2153 217.9948 297.9751 257.6605 221.0443 0 0 0 
09:36:25 - 6: L (299.23,213.38) +/- (0.02,0.05), R (294.19,183.76) +/- (0.04,0.11))
09:36:26 - 293.4451 255.2153 217.9948 297.9751 257.6605 221.0443 299.231 0 0 
09:36:31 - 7: L (260.71,213.49) +/- (0.05,0.38), R (254.22,186.58) +/- (0.19,0.45))
09:36:32 - 293.4451 255.2153 217.9948 297.9751 257.6605 221.0443 299.231 260.7138 0 
09:36:37 - 8: L (224.76,216.11) +/- (0.07,0.06), R (216.55,191.96) +/- (0.02,0.03))
09:36:40 - 293.4451 255.2153 217.9948 297.9751 257.6605 221.0443 299.231 260.7138 224.7614 
09:37:04 - Calibration finished
09:37:04 - Calibration loop finished.
09:48:20 - Finished EyeCollection`1 consumer  loop : 59375 frames queued; Queued: 31422-90796, Saved: 31422-90796
09:48:20 - Finished EyeTrackerDataAndImages consumer  loop : 59373 frames queued; Queued: 31422-90794, Saved: 31422-90794
09:48:20 - Finished EyeTrackerEvent consumer  loop : 0 frames queued; Queued: -1--1, Saved: -1--1
09:57:38 - Finished EyeCollection`1 consumer  loop : 55230 frames queued; Queued: 90882-146111, Saved: 90882-146111
09:57:38 - Finished EyeTrackerDataAndImages consumer  loop : 55229 frames queued; Queued: 90882-146110, Saved: 90882-146110
09:57:38 - Finished EyeTrackerEvent consumer  loop : 0 frames queued; Queued: -1--1, Saved: -1--1
09:59:16 - Finished head tracker loop.
10:00:41 - Verifying grabbing system.
10:00:42 - Running camera callback.
10:00:42 - Camera reports 0
10:02:25 - Finished EyeCollection`1 consumer  loop : 7926 frames queued; Queued: 2335-10260, Saved: 2335-10260
10:02:25 - Finished EyeTrackerDataAndImages consumer  loop : 7925 frames queued; Queued: 2335-10259, Saved: 2335-10259
10:02:25 - Finished EyeTrackerEvent consumer  loop : 0 frames queued; Queued: -1--1, Saved: -1--1
10:02:26 - Error details: lastRawFrameNumber: 10417, currentFrameNumber: 0
10:02:26 - Error grabbing: Frame counter is not consistently growing!.
10:02:27 - FATAL ERROR: FlyCapture2Managed.FC2Exception: Low level failure reading register 0x70008. Error: 0x15.
   at FlyCapture2Managed.ManagedCameraBase.ReadRegister(UInt32 address)
   at OculomotorLab.VOG.ImageGrabbing.CameraEyePointGreyLabyrinth.ReadSensors() in c:\VOG\Labyrinth VOG Software - MVI Working Version - Testing Software Trigger\labyrinth\LabryinthVOG\ImageGrabbing\CameraEyePointGreyLabyrinth.cs:line 710
   at OculomotorLab.VOG.ImageGrabbing.CameraEyePointGreyLabyrinth.HeadSensorLabyrinth.GrabHeadData(Boolean SoftwareTriggerOn) in c:\VOG\Labyrinth VOG Software - MVI Working Version - Testing Software Trigger\labyrinth\LabryinthVOG\HeadTracking\HeadSensorLabyrinth.cs:line 62
   at OculomotorLab.VOG.EyeTrackerHeadTracker.TrackingLoop() in C:\VOG\Labyrinth VOG Software - MVI Working Version - Testing Software Trigger\source\VOGLib\HeadTracking\EyeTrackerHeadTracker.cs:line 235
10:02:27 - FATAL ERROR: System.InvalidOperationException: Frame counter is not consistently growing!.
   at OculomotorLab.VOG.ImageGrabbing.CameraEyePointGreyLabyrinth.GrabImageEye() in c:\VOG\Labyrinth VOG Software - MVI Working Version - Testing Software Trigger\labyrinth\LabryinthVOG\ImageGrabbing\CameraEyePointGreyLabyrinth.cs:line 639
   at OculomotorLab.VOG.EyeTrackerImageGrabber.GrabImages() in C:\VOG\Labyrinth VOG Software - MVI Working Version - Testing Software Trigger\source\VOGLib\EyeTrackerImageGrabber.cs:line 552
   at OculomotorLab.VOG.EyeTrackerImageGrabber.GrabLoop() in C:\VOG\Labyrinth VOG Software - MVI Working Version - Testing Software Trigger\source\VOGLib\EyeTrackerImageGrabber.cs:line 478
