16:57:17 - Initializing network service ...
16:57:17 - Initializing network service ... completed.
16:57:18 - timerRefreshUI_Tick: System.NullReferenceException: Object reference not set to an instance of an object.
   at OculomotorLab.VOG.UI.EyeTrackerGui.UpdateUI() in C:\VOG\Labyrinth VOG Software - MVI Working Version - Testing Software Trigger\source\EyeTrackerGui\EyeTrackerGui.cs:line 808
   at OculomotorLab.VOG.UI.EyeTrackerGui.UpdateGraphics() in C:\VOG\Labyrinth VOG Software - MVI Working Version - Testing Software Trigger\source\EyeTrackerGui\EyeTrackerGui.cs:line 199
   at OculomotorLab.VOG.UI.EyeTrackerGui.timerRefreshUI_Tick(Object sender, EventArgs e) in C:\VOG\Labyrinth VOG Software - MVI Working Version - Testing Software Trigger\source\EyeTrackerGui\EyeTrackerGui.cs:line 899
16:57:18 - Initializing complete.
16:57:31 - Verifying grabbing system.
16:57:31 - Running camera callback.
16:57:31 - Camera reports 0
17:10:17 - Finished head tracker loop.
17:11:23 - Grabber loop finished.
17:11:23 - Process loop finished.
17:11:23 - Process loop finished.
17:11:23 - Process loop finished.
17:11:23 - Process loop finished.
17:11:23 - Output loop finished.
