15:14:07 - Initializing network service ...
15:14:09 - Initializing network service ... completed.
15:14:09 - Initializing complete.
15:14:14 - Error initializating the system, going into simulation mode.
15:14:14 - Low level failure reading register 0x70008. Error: 0x15.
