11:17:28 - Initializing network service ...
11:17:28 - Initializing network service ... completed.
11:17:28 - Initializing complete.
11:41:20 - Grabber loop finished.
11:41:20 - Process loop finished.
11:41:20 - Process loop finished.
11:41:20 - Process loop finished.
11:41:20 - Process loop finished.
11:41:20 - Output loop finished.
