17:50:10 - Initializing network service ...
17:50:11 - Initializing network service ... completed.
17:50:11 - Initializing complete.
17:50:13 - Verifying grabbing system.
17:50:13 - Running camera callback.
17:50:13 - Camera reports 0
18:00:21 - Finished EyeCollection`1 consumer  loop : 59780 frames queued; Queued: 439-60218, Saved: 439-60218
18:00:21 - Finished EyeTrackerDataAndImages consumer  loop : 59537 frames queued; Queued: 439-60211, Saved: 439-60211
18:00:21 - Finished EyeTrackerEvent consumer  loop : 0 frames queued; Queued: -1--1, Saved: -1--1
18:02:17 - Finished head tracker loop.
18:03:45 - Grabber loop finished.
18:03:45 - Process loop finished.
18:03:45 - Process loop finished.
18:03:45 - Process loop finished.
18:03:45 - Process loop finished.
18:03:45 - Output loop finished.
