22:49:13 - Initializing network service ...
22:49:13 - Initializing network service ... completed.
22:49:14 - Initializing complete.
22:49:15 - Verifying grabbing system.
22:49:16 - Running camera callback.
22:49:16 - Camera reports 1
22:49:36 - Finished head tracker loop.
22:49:40 - Grabber loop finished.
22:49:40 - Process loop finished.
22:49:40 - Process loop finished.
22:49:40 - Process loop finished.
22:49:40 - Process loop finished.
22:49:40 - Output loop finished.
