15:16:13 - Initializing network service ...
15:16:13 - Initializing network service ... completed.
15:16:13 - Initializing complete.
15:16:36 - Verifying grabbing system.
15:16:36 - Running camera callback.
15:16:50 - Camera reports 1
15:17:57 - Finished head tracker loop.
15:17:59 - Grabber loop finished.
15:17:59 - Process loop finished.
15:17:59 - Process loop finished.
15:17:59 - Process loop finished.
15:17:59 - Process loop finished.
15:17:59 - Output loop finished.
