19:19:12 - Initializing network service ...
19:19:12 - Initializing network service ... completed.
19:19:13 - timerRefreshUI_Tick: System.NullReferenceException: Object reference not set to an instance of an object.
   at OculomotorLab.VOG.UI.EyeTrackerGui.UpdateUI() in c:\VOG\Labyrinth VOG Software - MVI Working Version - Testing Software Trigger\source\EyeTrackerGui\EyeTrackerGui.cs:line 808
   at OculomotorLab.VOG.UI.EyeTrackerGui.UpdateGraphics() in c:\VOG\Labyrinth VOG Software - MVI Working Version - Testing Software Trigger\source\EyeTrackerGui\EyeTrackerGui.cs:line 199
   at OculomotorLab.VOG.UI.EyeTrackerGui.timerRefreshUI_Tick(Object sender, EventArgs e) in c:\VOG\Labyrinth VOG Software - MVI Working Version - Testing Software Trigger\source\EyeTrackerGui\EyeTrackerGui.cs:line 899
19:19:13 - timerRefreshUI_Tick: System.NullReferenceException: Object reference not set to an instance of an object.
   at OculomotorLab.VOG.UI.EyeTrackerGui.UpdateUI() in c:\VOG\Labyrinth VOG Software - MVI Working Version - Testing Software Trigger\source\EyeTrackerGui\EyeTrackerGui.cs:line 808
   at OculomotorLab.VOG.UI.EyeTrackerGui.UpdateGraphics() in c:\VOG\Labyrinth VOG Software - MVI Working Version - Testing Software Trigger\source\EyeTrackerGui\EyeTrackerGui.cs:line 199
   at OculomotorLab.VOG.UI.EyeTrackerGui.timerRefreshUI_Tick(Object sender, EventArgs e) in c:\VOG\Labyrinth VOG Software - MVI Working Version - Testing Software Trigger\source\EyeTrackerGui\EyeTrackerGui.cs:line 899
19:19:13 - timerRefreshUI_Tick: System.NullReferenceException: Object reference not set to an instance of an object.
   at OculomotorLab.VOG.UI.EyeTrackerGui.UpdateUI() in c:\VOG\Labyrinth VOG Software - MVI Working Version - Testing Software Trigger\source\EyeTrackerGui\EyeTrackerGui.cs:line 808
   at OculomotorLab.VOG.UI.EyeTrackerGui.UpdateGraphics() in c:\VOG\Labyrinth VOG Software - MVI Working Version - Testing Software Trigger\source\EyeTrackerGui\EyeTrackerGui.cs:line 199
   at OculomotorLab.VOG.UI.EyeTrackerGui.timerRefreshUI_Tick(Object sender, EventArgs e) in c:\VOG\Labyrinth VOG Software - MVI Working Version - Testing Software Trigger\source\EyeTrackerGui\EyeTrackerGui.cs:line 899
19:19:13 - Initializing complete.
19:19:16 - Grabber loop finished.
19:19:16 - Process loop finished.
19:19:16 - Process loop finished.
19:19:16 - Process loop finished.
19:19:16 - Process loop finished.
19:19:16 - Output loop finished.
