19:38:09 - Initializing network service ...
19:38:09 - Initializing network service ... completed.
19:38:10 - Initializing complete.
19:38:13 - Verifying grabbing system.
19:38:13 - Running camera callback.
19:38:13 - Camera reports 0
19:38:35 - 2017-07-11-19:38:35.024 2118 M: KEYPRESS D: 
19:38:35 - 2017-07-11-19:38:35.425 2159 M: KEYPRESS D: 8
19:38:43 - 0: L (321.45,137.67) +/- (0.17,0.03), R (212.34,92.17) +/- (0.14,0.01))
19:38:43 - 321.4491 0 0 0 0 0 0 0 0 
19:38:50 - 1: L (294.11,136.85) +/- (0.28,0.15), R (184.17,92.66) +/- (0.30,0.04))
19:38:50 - 321.4491 294.1143 0 0 0 0 0 0 0 
19:38:56 - 2: L (265.87,137.63) +/- (0.46,0.03), R (156.39,94.82) +/- (0.39,0.02))
19:38:56 - 321.4491 294.1143 265.8735 0 0 0 0 0 0 
19:39:03 - 3: L (324.19,158.96) +/- (0.24,0.06), R (213.20,114.04) +/- (0.15,0.05))
19:39:03 - 321.4491 294.1143 265.8735 324.1875 0 0 0 0 0 
19:39:10 - 4: L (296.28,158.55) +/- (0.05,0.03), R (184.67,114.69) +/- (0.03,0.03))
19:39:10 - 321.4491 294.1143 265.8735 324.1875 296.2797 0 0 0 0 
19:39:16 - 5: L (268.79,159.02) +/- (0.06,0.06), R (156.89,116.15) +/- (0.03,0.11))
19:39:16 - 321.4491 294.1143 265.8735 324.1875 296.2797 268.7946 0 0 0 
19:39:23 - 6: L (324.68,180.41) +/- (0.45,0.03), R (215.12,136.64) +/- (0.27,0.03))
19:39:23 - 321.4491 294.1143 265.8735 324.1875 296.2797 268.7946 324.6804 0 0 
19:39:30 - 7: L (298.61,181.27) +/- (0.03,0.08), R (186.71,137.02) +/- (0.02,0.02))
19:39:30 - 321.4491 294.1143 265.8735 324.1875 296.2797 268.7946 324.6804 298.605 0 
19:39:35 - 8: L (270.91,182.36) +/- (0.13,0.15), R (159.65,138.39) +/- (0.12,0.14))
19:39:35 - 321.4491 294.1143 265.8735 324.1875 296.2797 268.7946 324.6804 298.605 270.913 
19:39:48 - Calibration finished
19:39:49 - Calibration loop finished.
19:48:19 - Finished EyeCollection`1 consumer  loop : 46591 frames queued; Queued: 13492-60082, Saved: 13492-60082
19:48:19 - Finished EyeTrackerDataAndImages consumer  loop : 46591 frames queued; Queued: 13492-60082, Saved: 13492-60082
19:48:19 - Finished EyeTrackerEvent consumer  loop : 0 frames queued; Queued: -1--1, Saved: -1--1
19:49:07 - Finished head tracker loop.
19:49:08 - Error details: lastRawFrameNumber: 64884, currentFrameNumber: 0
15:34:53 - Grabber loop finished.
15:34:53 - Process loop finished.
15:34:53 - Process loop finished.
15:34:53 - Process loop finished.
15:34:53 - Process loop finished.
15:34:53 - Output loop finished.
