10:44:49 - Initializing network service ...
10:44:50 - Initializing network service ... completed.
10:44:50 - Initializing complete.
10:44:55 - Grabber loop finished.
10:44:55 - Process loop finished.
10:44:55 - Process loop finished.
10:44:55 - Process loop finished.
10:44:55 - Process loop finished.
10:44:55 - Output loop finished.
