16:31:16 - Initializing network service ...
16:31:16 - Initializing network service ... completed.
16:31:17 - Initializing complete.
16:32:05 - Error initializating the system, going into simulation mode.
16:32:05 - Object reference not set to an instance of an object.
16:32:08 - Grabber loop finished.
16:32:08 - Process loop finished.
16:32:08 - Process loop finished.
16:32:08 - Process loop finished.
16:32:08 - Process loop finished.
16:32:08 - Output loop finished.
