16:43:46 - Initializing network service ...
16:43:46 - Initializing network service ... completed.
16:43:46 - Initializing complete.
16:44:42 - Grabber loop finished.
16:44:42 - Process loop finished.
16:44:42 - Process loop finished.
16:44:42 - Process loop finished.
16:44:42 - Process loop finished.
16:44:42 - Output loop finished.
