16:00:32 - Initializing network service ...
16:00:32 - Initializing network service ... completed.
16:00:32 - Initializing complete.
16:00:35 - Verifying grabbing system.
16:00:35 - Running camera callback.
16:00:35 - Camera reports 0
16:01:36 - Finished head tracker loop.
16:04:23 - Verifying grabbing system.
16:04:23 - Running camera callback.
16:04:23 - Camera reports 0
16:07:35 - Finished head tracker loop.
18:32:16 - Grabber loop finished.
18:32:16 - Process loop finished.
18:32:16 - Process loop finished.
18:32:16 - Process loop finished.
18:32:16 - Process loop finished.
18:32:16 - Output loop finished.
