10:16:41 - Initializing network service ...
10:16:41 - Initializing network service ... completed.
10:16:41 - Initializing complete.
10:16:48 - Verifying grabbing system.
10:16:48 - Running camera callback.
10:16:48 - Camera reports 0
