09:44:09 - Initializing network service ...
09:44:09 - Initializing network service ... completed.
09:44:09 - Initializing complete.
10:48:24 - Error initializating the system, going into simulation mode.
10:48:24 - Object reference not set to an instance of an object.
10:48:41 - Grabber loop finished.
10:48:41 - Process loop finished.
10:48:41 - Process loop finished.
10:48:41 - Process loop finished.
10:48:41 - Process loop finished.
10:48:41 - Output loop finished.
