10:51:51 - Initializing network service ...
10:51:51 - Initializing network service ... completed.
10:51:51 - Initializing complete.
10:51:54 - Verifying grabbing system.
10:51:54 - Running camera callback.
10:51:54 - Camera reports 0
10:56:16 - 0: L (0.00,0.00) +/- (0.00,0.00), R (0.00,0.00) +/- (0.00,0.00))
10:56:16 - 0 0 0 0 0 0 0 0 0 
10:56:33 - An error occured, cannot finalize calibration implmentation.
10:56:33 - Calibration loop finished.
10:56:38 - 0: L (292.63,114.25) +/- (0.48,0.12), R (330.37,55.17) +/- (0.44,0.17))
10:56:38 - 292.6251 0 0 0 0 0 0 0 0 
10:56:44 - 1: L (256.02,111.93) +/- (0.56,0.49), R (293.57,53.78) +/- (0.29,0.22))
10:56:44 - 292.6251 256.0217 0 0 0 0 0 0 0 
10:56:48 - 2: L (217.68,114.19) +/- (0.54,0.13), R (255.13,56.09) +/- (0.25,0.15))
10:56:48 - 292.6251 256.0217 217.6837 0 0 0 0 0 0 
10:56:53 - 3: L (290.94,143.30) +/- (0.39,0.10), R (333.32,84.47) +/- (0.38,0.11))
10:56:53 - 292.6251 256.0217 217.6837 290.9352 0 0 0 0 0 
10:56:58 - 4: L (252.88,140.75) +/- (0.54,1.06), R (294.25,83.02) +/- (0.04,0.06))
10:56:58 - 292.6251 256.0217 217.6837 290.9352 252.8822 0 0 0 0 
10:57:03 - 5: L (214.97,142.97) +/- (0.08,0.22), R (256.48,85.41) +/- (0.18,0.04))
10:57:03 - 292.6251 256.0217 217.6837 290.9352 252.8822 214.966 0 0 0 
10:57:08 - 6: L (288.09,175.23) +/- (0.86,0.09), R (334.61,116.34) +/- (0.58,0.24))
10:57:08 - 292.6251 256.0217 217.6837 290.9352 252.8822 214.966 288.0895 0 0 
10:57:12 - 7: L (251.71,173.27) +/- (0.33,0.38), R (296.49,114.55) +/- (0.11,0.26))
10:57:12 - 292.6251 256.0217 217.6837 290.9352 252.8822 214.966 288.0895 251.7137 0 
10:57:16 - 8: L (115.85,93.35) +/- (11208.99,7289.44), R (259.87,117.41) +/- (0.15,0.14))
10:57:16 - 292.6251 256.0217 217.6837 290.9352 252.8822 214.966 288.0895 251.7137 115.8528 
10:57:28 - Calibration finished
10:57:28 - Calibration loop finished.
10:57:35 - 0: L (177.12,82.76) +/- (17962.39,4189.06), R (295.71,85.99) +/- (1336.84,951.97))
10:57:35 - 177.122 0 0 0 0 0 0 0 0 
10:57:40 - 1: L (256.00,112.68) +/- (0.73,0.25), R (294.19,53.44) +/- (0.68,0.12))
10:57:40 - 177.122 255.9976 0 0 0 0 0 0 0 
10:57:42 - An error occured, cannot finalize calibration implmentation.
10:57:42 - Calibration loop finished.
10:57:51 - 0: L (293.58,113.71) +/- (0.15,0.04), R (330.79,53.73) +/- (0.14,0.12))
10:57:52 - 293.5757 0 0 0 0 0 0 0 0 
10:57:57 - 1: L (256.38,112.22) +/- (0.12,0.21), R (293.41,53.02) +/- (0.16,0.14))
10:57:57 - 293.5757 256.3778 0 0 0 0 0 0 0 
10:58:02 - 2: L (218.40,114.88) +/- (0.14,0.12), R (254.68,56.86) +/- (0.04,0.06))
10:58:02 - 293.5757 256.3778 218.4033 0 0 0 0 0 0 
10:58:06 - 3: L (291.52,143.42) +/- (0.48,0.05), R (333.63,84.55) +/- (0.17,0.17))
10:58:07 - 293.5757 256.3778 218.4033 291.5206 0 0 0 0 0 
10:58:11 - 4: L (253.53,141.07) +/- (0.05,0.46), R (294.10,82.46) +/- (0.10,0.29))
10:58:11 - 293.5757 256.3778 218.4033 291.5206 253.5305 0 0 0 0 
10:58:16 - 5: L (215.80,143.62) +/- (0.40,0.09), R (256.78,84.79) +/- (0.14,0.15))
10:58:16 - 293.5757 256.3778 218.4033 291.5206 253.5305 215.7961 0 0 0 
10:58:21 - 6: L (288.35,174.72) +/- (0.43,0.14), R (334.02,115.47) +/- (0.71,0.23))
10:58:21 - 293.5757 256.3778 218.4033 291.5206 253.5305 215.7961 288.3528 0 0 
10:58:25 - 7: L (252.20,172.70) +/- (0.25,1.02), R (296.03,113.63) +/- (0.24,1.02))
10:58:25 - 293.5757 256.3778 218.4033 291.5206 253.5305 215.7961 288.3528 252.2003 0 
10:58:30 - 8: L (215.13,174.92) +/- (0.43,0.04), R (259.32,115.79) +/- (0.12,0.14))
10:58:31 - 293.5757 256.3778 218.4033 291.5206 253.5305 215.7961 288.3528 252.2003 215.127 
10:58:41 - Calibration finished
10:58:41 - Calibration loop finished.
11:21:49 - Finished EyeCollection`1 consumer  loop : 132150 frames queued; Queued: 45725-177874, Saved: 45725-177874
11:21:49 - Finished EyeTrackerDataAndImages consumer  loop : 132147 frames queued; Queued: 45725-177871, Saved: 45725-177871
11:21:49 - Finished EyeTrackerEvent consumer  loop : 0 frames queued; Queued: -1--1, Saved: -1--1
11:24:25 - Error details: lastRawFrameNumber: 193346, currentFrameNumber: 0
11:24:25 - Error grabbing: Frame counter is not consistently growing!.
11:24:25 - FATAL ERROR: FlyCapture2Managed.FC2Exception: Low level failure reading register 0x70008. Error: 0x15.
   at FlyCapture2Managed.ManagedCameraBase.ReadRegister(UInt32 address)
   at OculomotorLab.VOG.ImageGrabbing.CameraEyePointGreyLabyrinth.ReadSensors() in c:\VOG\Labyrinth VOG Software - MVI Working Version - Testing Software Trigger\labyrinth\LabryinthVOG\ImageGrabbing\CameraEyePointGreyLabyrinth.cs:line 710
   at OculomotorLab.VOG.ImageGrabbing.CameraEyePointGreyLabyrinth.HeadSensorLabyrinth.GrabHeadData(Boolean SoftwareTriggerOn) in c:\VOG\Labyrinth VOG Software - MVI Working Version - Testing Software Trigger\labyrinth\LabryinthVOG\HeadTracking\HeadSensorLabyrinth.cs:line 62
   at OculomotorLab.VOG.EyeTrackerHeadTracker.TrackingLoop() in c:\VOG\Labyrinth VOG Software - MVI Working Version - Testing Software Trigger\source\VOGLib\HeadTracking\EyeTrackerHeadTracker.cs:line 235
11:24:25 - FATAL ERROR: System.InvalidOperationException: Frame counter is not consistently growing!.
   at OculomotorLab.VOG.ImageGrabbing.CameraEyePointGreyLabyrinth.GrabImageEye() in c:\VOG\Labyrinth VOG Software - MVI Working Version - Testing Software Trigger\labyrinth\LabryinthVOG\ImageGrabbing\CameraEyePointGreyLabyrinth.cs:line 639
   at OculomotorLab.VOG.EyeTrackerImageGrabber.GrabImages() in c:\VOG\Labyrinth VOG Software - MVI Working Version - Testing Software Trigger\source\VOGLib\EyeTrackerImageGrabber.cs:line 552
   at OculomotorLab.VOG.EyeTrackerImageGrabber.GrabLoop() in c:\VOG\Labyrinth VOG Software - MVI Working Version - Testing Software Trigger\source\VOGLib\EyeTrackerImageGrabber.cs:line 478
