17:49:38 - Initializing network service ...
17:49:38 - Initializing network service ... completed.
17:49:38 - Initializing complete.
17:49:41 - Verifying grabbing system.
17:49:42 - Running camera callback.
17:49:42 - Camera reports 0
17:49:46 - Finished head tracker loop.
17:50:45 - Verifying grabbing system.
17:50:45 - Running camera callback.
17:50:45 - Camera reports 0
17:52:59 - Finished EyeCollection`1 consumer  loop : 1800 frames queued; Queued: 18284-20083, Saved: 18284-20083
17:52:59 - Finished EyeTrackerDataAndImages consumer  loop : 1797 frames queued; Queued: 18284-20080, Saved: 18284-20080
17:52:59 - Finished EyeTrackerEvent consumer  loop : 0 frames queued; Queued: -1--1, Saved: -1--1
17:53:08 - Calibration finished
17:53:08 - Calibration loop finished.
17:53:29 - Finished EyeCollection`1 consumer  loop : 2549 frames queued; Queued: 22010-24558, Saved: 22010-24558
17:53:29 - Finished EyeTrackerDataAndImages consumer  loop : 2533 frames queued; Queued: 22010-24542, Saved: 22010-24542
17:53:29 - Finished EyeTrackerEvent consumer  loop : 0 frames queued; Queued: -1--1, Saved: -1--1
17:55:22 - Finished head tracker loop.
18:01:02 - Verifying grabbing system.
18:01:02 - Running camera callback.
18:01:03 - Camera reports 0
18:02:28 - Finished EyeCollection`1 consumer  loop : 1794 frames queued; Queued: 11035-12828, Saved: 11035-12828
18:02:28 - Finished EyeTrackerDataAndImages consumer  loop : 1400 frames queued; Queued: 11035-12697, Saved: 11035-12697
18:02:28 - Finished EyeTrackerEvent consumer  loop : 0 frames queued; Queued: -1--1, Saved: -1--1
18:02:29 - Finished EyeCollection`1 consumer  loop : 106 frames queued; Queued: 12910-13015, Saved: 12910-13015
18:02:29 - Finished EyeTrackerDataAndImages consumer  loop : 0 frames queued; Queued: -1--1, Saved: -1--1
18:02:29 - Finished EyeTrackerEvent consumer  loop : 0 frames queued; Queued: -1--1, Saved: -1--1
18:02:42 - Calibration finished
18:02:42 - Calibration loop finished.
18:03:08 - Finished EyeCollection`1 consumer  loop : 3565 frames queued; Queued: 15223-18787, Saved: 15223-18787
18:03:08 - Finished EyeTrackerDataAndImages consumer  loop : 2955 frames queued; Queued: 15223-18663, Saved: 15223-18663
18:03:08 - Finished EyeTrackerEvent consumer  loop : 0 frames queued; Queued: -1--1, Saved: -1--1
18:03:21 - Finished EyeCollection`1 consumer  loop : 1042 frames queued; Queued: 19702-20743, Saved: 19702-20743
18:03:21 - Finished EyeTrackerDataAndImages consumer  loop : 754 frames queued; Queued: 19702-20620, Saved: 19702-20620
18:03:21 - Finished EyeTrackerEvent consumer  loop : 0 frames queued; Queued: -1--1, Saved: -1--1
18:03:30 - Finished head tracker loop.
18:03:33 - Verifying grabbing system.
18:03:33 - Running camera callback.
18:03:33 - Camera reports 0
18:03:38 - Finished head tracker loop.
18:08:33 - Verifying grabbing system.
18:08:33 - Running camera callback.
18:08:33 - 2016-07-27-18:08:33.265 0 M: KEYPRESS D: 1
18:08:33 - Camera reports 0
18:09:01 - Finished head tracker loop.
18:09:03 - Verifying grabbing system.
18:09:03 - Running camera callback.
18:09:03 - Camera reports 0
18:09:31 - Error in EyeTrackerSettingsForm: Object reference not set to an instance of an object.
18:09:46 - Finished EyeCollection`1 consumer  loop : 1814 frames queued; Queued: 4678-6491, Saved: 4678-6491
18:09:46 - Finished EyeTrackerDataAndImages consumer  loop : 1375 frames queued; Queued: 4678-6359, Saved: 4678-6359
18:09:46 - Finished EyeTrackerEvent consumer  loop : 0 frames queued; Queued: -1--1, Saved: -1--1
18:09:49 - Calibration finished
18:09:49 - Calibration loop finished.
18:10:08 - Finished EyeCollection`1 consumer  loop : 2323 frames queued; Queued: 7433-9755, Saved: 7433-9755
18:10:08 - Finished EyeTrackerDataAndImages consumer  loop : 2250 frames queued; Queued: 7433-9749, Saved: 7433-9749
18:10:08 - Finished EyeTrackerEvent consumer  loop : 0 frames queued; Queued: -1--1, Saved: -1--1
18:10:10 - Finished EyeCollection`1 consumer  loop : 133 frames queued; Queued: 9925-10057, Saved: 9925-10057
18:10:10 - Finished EyeTrackerDataAndImages consumer  loop : 124 frames queued; Queued: 9925-10048, Saved: 9925-10048
18:10:10 - Finished EyeTrackerEvent consumer  loop : 0 frames queued; Queued: -1--1, Saved: -1--1
18:10:13 - Calibration finished
18:10:13 - Calibration loop finished.
18:10:39 - Finished EyeCollection`1 consumer  loop : 3642 frames queued; Queued: 10674-14315, Saved: 10674-14315
18:10:39 - Finished EyeTrackerDataAndImages consumer  loop : 3638 frames queued; Queued: 10674-14311, Saved: 10674-14311
18:10:39 - Finished EyeTrackerEvent consumer  loop : 0 frames queued; Queued: -1--1, Saved: -1--1
18:10:59 - Finished head tracker loop.
18:21:39 - Verifying grabbing system.
18:21:39 - Running camera callback.
18:21:39 - Camera reports 0
18:23:55 - Finished head tracker loop.
18:28:40 - Error initializating the system, going into simulation mode.
18:28:40 - Object reference not set to an instance of an object.
18:28:45 - Grabber loop finished.
18:28:45 - Process loop finished.
18:28:45 - Process loop finished.
18:28:45 - Process loop finished.
18:28:45 - Process loop finished.
18:28:45 - Output loop finished.
