08:11:08 - Initializing network service ...
08:11:08 - Initializing network service ... completed.
08:11:08 - Initializing complete.
08:11:12 - Verifying grabbing system.
08:11:12 - Running camera callback.
08:11:12 - Camera reports 0
08:11:17 - Finished head tracker loop.
08:11:20 - Grabber loop finished.
08:11:20 - Process loop finished.
08:11:20 - Process loop finished.
08:11:20 - Process loop finished.
08:11:20 - Process loop finished.
08:11:20 - Output loop finished.
