16:23:35 - Initializing network service ...
16:23:36 - Initializing network service ... completed.
16:23:36 - Initializing complete.
16:23:45 - Grabber loop finished.
16:23:45 - Process loop finished.
16:23:45 - Process loop finished.
16:23:45 - Process loop finished.
16:23:45 - Process loop finished.
16:23:45 - Output loop finished.
