14:18:57 - Initializing network service ...
14:18:59 - Initializing network service ... completed.
14:19:00 - Initializing complete.
14:19:29 - Grabber loop finished.
14:19:29 - Process loop finished.
14:19:29 - Process loop finished.
14:19:29 - Process loop finished.
14:19:29 - Process loop finished.
14:19:29 - Output loop finished.
