18:47:30 - Initializing network service ...
18:47:30 - Initializing network service ... completed.
18:47:30 - Initializing complete.
18:47:32 - Verifying grabbing system.
18:47:32 - Running camera callback.
18:47:41 - Finished head tracker loop.
18:47:44 - Grabber loop finished.
18:47:44 - Process loop finished.
18:47:44 - Process loop finished.
18:47:44 - Process loop finished.
18:47:44 - Process loop finished.
18:47:44 - Output loop finished.
