09:00:32 - Initializing network service ...
09:00:34 - Initializing network service ... completed.
09:00:34 - Initializing complete.
09:06:25 - Grabber loop finished.
09:06:25 - Process loop finished.
09:06:25 - Process loop finished.
09:06:25 - Process loop finished.
09:06:25 - Process loop finished.
09:06:25 - Output loop finished.
