12:41:17 - Initializing network service ...
12:41:18 - Initializing network service ... completed.
12:41:18 - Initializing complete.
12:42:27 - Verifying grabbing system.
12:42:27 - Running camera callback.
12:42:28 - Camera reports 0
12:42:32 - Finished head tracker loop.
12:42:35 - Verifying grabbing system.
12:42:35 - Running camera callback.
12:42:35 - Camera reports 0
12:42:37 - Finished head tracker loop.
12:42:40 - Verifying grabbing system.
12:42:40 - Running camera callback.
12:42:40 - Camera reports 0
12:42:42 - Finished head tracker loop.
12:42:45 - Verifying grabbing system.
12:42:45 - Running camera callback.
12:42:45 - Camera reports 0
12:42:50 - Finished head tracker loop.
12:43:02 - Verifying grabbing system.
12:43:02 - Running camera callback.
12:43:02 - Camera reports 0
12:43:18 - Finished head tracker loop.
12:43:20 - Verifying grabbing system.
12:43:20 - Running camera callback.
12:43:20 - Camera reports 0
12:43:29 - Finished head tracker loop.
12:43:31 - Verifying grabbing system.
12:43:31 - Running camera callback.
12:43:31 - Camera reports 0
12:43:36 - Finished head tracker loop.
12:44:28 - Verifying grabbing system.
12:44:28 - Running camera callback.
12:44:29 - Camera reports 0
12:44:31 - Finished head tracker loop.
