10:26:49 - Initializing network service ...
10:26:49 - Initializing network service ... completed.
10:26:49 - Initializing complete.
10:26:51 - Verifying grabbing system.
10:26:51 - Running camera callback.
10:28:18 - Finished head tracker loop.
