17:40:01 - Initializing network service ...
17:40:02 - Initializing network service ... completed.
17:40:03 - Initializing complete.
17:40:05 - Verifying grabbing system.
17:40:06 - Running camera callback.
17:40:06 - Camera reports 0
17:40:55 - Finished head tracker loop.
17:40:57 - Grabber loop finished.
17:40:57 - Process loop finished.
17:40:57 - Process loop finished.
17:40:58 - Process loop finished.
17:40:58 - Process loop finished.
17:40:58 - Output loop finished.
