10:44:59 - Initializing network service ...
10:45:00 - Initializing network service ... completed.
10:45:00 - Initializing complete.
10:45:02 - Verifying grabbing system.
10:45:02 - Running camera callback.
10:45:03 - Camera reports 0
10:47:26 - Finished head tracker loop.
10:47:32 - Grabber loop finished.
10:47:33 - Process loop finished.
10:47:33 - Process loop finished.
10:47:33 - Process loop finished.
10:47:33 - Process loop finished.
10:47:33 - Output loop finished.
