11:08:28 - Initializing network service ...
11:08:29 - Initializing network service ... completed.
11:08:29 - Initializing complete.
11:37:17 - Verifying grabbing system.
11:37:17 - Running camera callback.
11:37:17 - Camera reports 0
11:43:54 - 0: L (365.62,161.43) +/- (0.44,2.36), R (327.99,160.92) +/- (1.20,36.34))
11:43:54 - 365.6222 0 0 0 0 0 0 0 0 
11:44:01 - 1: L (329.93,155.52) +/- (2.47,14.02), R (287.97,158.60) +/- (14.01,19.90))
11:44:01 - 365.6222 329.9268 0 0 0 0 0 0 0 
11:44:07 - 2: L (289.93,159.34) +/- (0.15,0.25), R (245.22,156.93) +/- (2.73,33.00))
11:44:07 - 365.6222 329.9268 289.929 0 0 0 0 0 0 
11:44:13 - 3: L (365.79,196.63) +/- (0.07,0.09), R (323.81,203.21) +/- (0.13,0.07))
11:44:13 - 365.6222 329.9268 289.929 365.7859 0 0 0 0 0 
11:44:20 - 4: L (327.98,194.75) +/- (0.08,0.08), R (283.91,200.20) +/- (0.67,0.26))
11:44:20 - 365.6222 329.9268 289.929 365.7859 327.9773 0 0 0 0 
11:44:26 - 5: L (289.92,193.10) +/- (0.03,0.06), R (244.13,200.51) +/- (0.09,0.05))
11:44:26 - 365.6222 329.9268 289.929 365.7859 327.9773 289.9181 0 0 0 
11:44:32 - 6: L (364.27,231.31) +/- (0.10,0.32), R (320.52,239.66) +/- (0.69,0.06))
11:44:32 - 365.6222 329.9268 289.929 365.7859 327.9773 289.9181 364.2659 0 0 
11:44:37 - 7: L (326.99,229.58) +/- (0.08,0.05), R (282.02,236.91) +/- (0.06,0.06))
11:44:37 - 365.6222 329.9268 289.929 365.7859 327.9773 289.9181 364.2659 326.9873 0 
11:44:43 - 8: L (290.46,228.00) +/- (0.04,0.15), R (242.59,235.34) +/- (0.12,0.24))
11:44:43 - 365.6222 329.9268 289.929 365.7859 327.9773 289.9181 364.2659 326.9873 290.459 
11:45:04 - Calibration finished
11:45:04 - Calibration loop finished.
12:00:18 - 2017-02-01-12:00:18.451 137961 M: KEYPRESS D: 
12:00:18 - 2017-02-01-12:00:18.938 138009 M: KEYPRESS D: 1
12:02:07 - Finished EyeCollection`1 consumer  loop : 99769 frames queued; Queued: 49043-148818, Saved: 49043-148818
12:02:07 - Finished EyeTrackerDataAndImages consumer  loop : 99768 frames queued; Queued: 49043-148817, Saved: 49043-148817
12:02:07 - Finished EyeTrackerEvent consumer  loop : 2 frames queued; Queued: 137961-138009, Saved: 137961-138009
12:13:17 - Finished EyeCollection`1 consumer  loop : 62998 frames queued; Queued: 152816-215813, Saved: 152816-215813
12:13:17 - Finished EyeTrackerDataAndImages consumer  loop : 62996 frames queued; Queued: 152816-215811, Saved: 152816-215811
12:13:17 - Finished EyeTrackerEvent consumer  loop : 0 frames queued; Queued: -1--1, Saved: -1--1
12:22:45 - Finished head tracker loop.
12:33:50 - Verifying grabbing system.
12:33:50 - Running camera callback.
12:33:50 - Camera reports 0
12:33:57 - 0: L (142.40,111.77) +/- (21107.57,13004.00), R (120.72,117.70) +/- (14641.03,13949.57))
12:33:57 - 142.4048 0 0 0 0 0 0 0 0 
12:33:57 - An error occured, cannot finalize calibration implmentation.
12:33:57 - Calibration loop finished.
12:36:12 - 0: L (322.21,163.47) +/- (0.52,8.68), R (279.28,176.47) +/- (0.28,0.10))
12:36:12 - 322.213 0 0 0 0 0 0 0 0 
12:36:18 - 1: L (283.21,163.43) +/- (0.10,0.04), R (238.38,176.28) +/- (0.30,0.10))
12:36:18 - 322.213 283.2063 0 0 0 0 0 0 0 
12:36:24 - 2: L (243.18,166.26) +/- (0.14,0.06), R (198.17,177.98) +/- (0.51,0.10))
12:36:24 - 322.213 283.2063 243.1829 0 0 0 0 0 0 
12:36:30 - 3: L (326.31,200.64) +/- (0.05,0.07), R (279.16,212.79) +/- (0.07,0.10))
12:36:30 - 322.213 283.2063 243.1829 326.3078 0 0 0 0 0 
12:36:37 - 4: L (285.26,201.17) +/- (0.08,0.03), R (237.17,213.23) +/- (0.08,0.08))
12:36:37 - 322.213 283.2063 243.1829 326.3078 285.2641 0 0 0 0 
12:36:43 - 5: L (244.67,201.08) +/- (0.18,0.06), R (196.40,213.78) +/- (0.06,0.02))
12:36:43 - 322.213 283.2063 243.1829 326.3078 285.2641 244.6741 0 0 0 
12:36:48 - 6: L (325.67,239.00) +/- (0.37,0.46), R (278.17,249.39) +/- (0.56,0.19))
12:36:48 - 322.213 283.2063 243.1829 326.3078 285.2641 244.6741 325.6668 0 0 
12:36:54 - 7: L (287.15,238.52) +/- (0.08,0.11), R (236.56,249.38) +/- (0.10,0.08))
12:36:54 - 322.213 283.2063 243.1829 326.3078 285.2641 244.6741 325.6668 287.1546 0 
12:37:00 - 8: L (247.70,238.60) +/- (0.40,0.54), R (197.61,249.05) +/- (0.13,0.04))
12:37:00 - 322.213 283.2063 243.1829 326.3078 285.2641 244.6741 325.6668 287.1546 247.7026 
12:37:10 - Calibration finished
12:37:11 - Calibration loop finished.
12:47:54 - Finished EyeCollection`1 consumer  loop : 59931 frames queued; Queued: 24406-84336, Saved: 24406-84336
12:47:54 - Finished EyeTrackerDataAndImages consumer  loop : 59931 frames queued; Queued: 24406-84336, Saved: 24406-84336
12:47:54 - Finished EyeTrackerEvent consumer  loop : 0 frames queued; Queued: -1--1, Saved: -1--1
12:54:47 - Finished EyeCollection`1 consumer  loop : 40710 frames queued; Queued: 84900-125609, Saved: 84900-125609
12:54:47 - Finished EyeTrackerDataAndImages consumer  loop : 40710 frames queued; Queued: 84900-125609, Saved: 84900-125609
12:54:47 - Finished EyeTrackerEvent consumer  loop : 0 frames queued; Queued: -1--1, Saved: -1--1
12:55:04 - Finished EyeCollection`1 consumer  loop : 1172 frames queued; Queued: 126081-127252, Saved: 126081-127252
12:55:04 - Finished EyeTrackerDataAndImages consumer  loop : 1171 frames queued; Queued: 126081-127251, Saved: 126081-127251
12:55:04 - Finished EyeTrackerEvent consumer  loop : 0 frames queued; Queued: -1--1, Saved: -1--1
13:03:56 - 0: L (109.82,104.58) +/- (15502.91,14047.16), R (84.81,107.82) +/- (9542.08,15419.67))
13:04:04 - An error occured, cannot finalize calibration implmentation.
13:04:04 - Calibration loop finished.
13:04:32 - 0: L (309.03,203.74) +/- (2.47,0.11), R (249.33,208.04) +/- (1.49,0.09))
13:04:34 - An error occured, cannot finalize calibration implmentation.
13:04:34 - Calibration loop finished.
13:12:28 - Finished EyeCollection`1 consumer  loop : 45684 frames queued; Queued: 185927-231610, Saved: 185927-231610
13:12:28 - Finished EyeTrackerDataAndImages consumer  loop : 45684 frames queued; Queued: 185927-231610, Saved: 185927-231610
13:12:28 - Finished EyeTrackerEvent consumer  loop : 0 frames queued; Queued: -1--1, Saved: -1--1
13:12:31 - Error details: lastRawFrameNumber: 231946, currentFrameNumber: 0
13:12:31 - Error grabbing: Frame counter is not consistently growing!.
13:12:32 - FATAL ERROR: System.InvalidOperationException: Frame counter is not consistently growing!.
   at OculomotorLab.VOG.ImageGrabbing.CameraEyePointGreyLabyrinth.GrabImageEye() in c:\VOG\Labyrinth VOG Software - MVI Working Version - Testing Software Trigger\labyrinth\LabryinthVOG\ImageGrabbing\CameraEyePointGreyLabyrinth.cs:line 639
   at OculomotorLab.VOG.EyeTrackerImageGrabber.GrabImages() in c:\VOG\Labyrinth VOG Software - MVI Working Version - Testing Software Trigger\source\VOGLib\EyeTrackerImageGrabber.cs:line 552
   at OculomotorLab.VOG.EyeTrackerImageGrabber.GrabLoop() in c:\VOG\Labyrinth VOG Software - MVI Working Version - Testing Software Trigger\source\VOGLib\EyeTrackerImageGrabber.cs:line 478
13:12:32 - FATAL ERROR: FlyCapture2Managed.FC2Exception: Low level failure reading register 0x1100. Error: 0x15.
   at FlyCapture2Managed.ManagedCameraBase.ReadRegister(UInt32 address)
   at OculomotorLab.VOG.ImageGrabbing.CameraEyePointGreyLabyrinth.ReadSensors() in c:\VOG\Labyrinth VOG Software - MVI Working Version - Testing Software Trigger\labyrinth\LabryinthVOG\ImageGrabbing\CameraEyePointGreyLabyrinth.cs:line 696
   at OculomotorLab.VOG.ImageGrabbing.CameraEyePointGreyLabyrinth.HeadSensorLabyrinth.GrabHeadData(Boolean SoftwareTriggerOn) in c:\VOG\Labyrinth VOG Software - MVI Working Version - Testing Software Trigger\labyrinth\LabryinthVOG\HeadTracking\HeadSensorLabyrinth.cs:line 62
   at OculomotorLab.VOG.EyeTrackerHeadTracker.TrackingLoop() in c:\VOG\Labyrinth VOG Software - MVI Working Version - Testing Software Trigger\source\VOGLib\HeadTracking\EyeTrackerHeadTracker.cs:line 235
13:22:21 - Finished EyeCollection`1 consumer  loop : 0 frames queued; Queued: -1--1, Saved: -1--1
13:22:21 - Finished EyeTrackerDataAndImages consumer  loop : 0 frames queued; Queued: -1--1, Saved: -1--1
13:22:21 - Finished EyeTrackerEvent consumer  loop : 0 frames queued; Queued: -1--1, Saved: -1--1
13:22:23 - Finished EyeCollection`1 consumer  loop : 0 frames queued; Queued: -1--1, Saved: -1--1
13:22:23 - Finished EyeTrackerDataAndImages consumer  loop : 0 frames queued; Queued: -1--1, Saved: -1--1
13:22:23 - Finished EyeTrackerEvent consumer  loop : 0 frames queued; Queued: -1--1, Saved: -1--1
13:22:30 - Finished EyeCollection`1 consumer  loop : 0 frames queued; Queued: -1--1, Saved: -1--1
13:22:30 - Finished EyeTrackerDataAndImages consumer  loop : 0 frames queued; Queued: -1--1, Saved: -1--1
13:22:30 - Finished EyeTrackerEvent consumer  loop : 0 frames queued; Queued: -1--1, Saved: -1--1
13:22:45 - Finished EyeCollection`1 consumer  loop : 0 frames queued; Queued: -1--1, Saved: -1--1
13:22:45 - Finished EyeTrackerDataAndImages consumer  loop : 0 frames queued; Queued: -1--1, Saved: -1--1
13:22:45 - Finished EyeTrackerEvent consumer  loop : 0 frames queued; Queued: -1--1, Saved: -1--1
