18:08:08 - Initializing network service ...
18:08:09 - Initializing network service ... completed.
18:08:09 - Initializing complete.
18:08:10 - Verifying grabbing system.
18:08:10 - Camera reports 1
18:08:10 - 8420: 0.17,0.41,-2.40
18:08:10 - 8421: 0.37,0.41,-2.23
18:08:10 - 8422: 0.23,-0.02,-2.37
18:08:10 - 8423: 0.21,0.34,-2.37
18:08:23 - Finished head tracker loop.
18:08:39 - Verifying grabbing system.
18:08:39 - Camera reports 0
18:08:39 - 1173: 0.15,0.46,-2.27
18:08:39 - 1174: 0.31,0.60,-2.24
18:08:39 - 1175: 0.20,0.50,-2.26
18:08:39 - 1176: 0.40,0.29,-2.58
18:08:45 - Finished head tracker loop.
18:08:47 - Verifying grabbing system.
18:08:47 - Camera reports 0
18:08:47 - 1789: 0.18,0.61,-2.23
18:08:47 - 1790: 0.21,0.60,-2.24
18:08:47 - 1791: 0.24,0.50,-2.44
18:08:47 - 1792: 0.40,0.49,-2.41
18:08:51 - Finished head tracker loop.
18:09:18 - Grabber loop finished.
18:09:18 - Process loop finished.
18:09:18 - Process loop finished.
18:09:18 - Process loop finished.
18:09:18 - Process loop finished.
18:09:18 - Output loop finished.
