11:24:06 - Initializing network service ...
11:24:06 - Initializing network service ... completed.
11:24:07 - Initializing complete.
11:24:08 - Verifying grabbing system.
11:24:08 - Running camera callback.
11:24:08 - Camera reports 0
11:24:13 - Finished head tracker loop.
11:24:16 - Grabber loop finished.
11:24:16 - Process loop finished.
11:24:16 - Process loop finished.
11:24:17 - Process loop finished.
11:24:17 - Process loop finished.
11:24:17 - Output loop finished.
