16:22:11 - Initializing network service ...
16:22:12 - Initializing network service ... completed.
16:22:12 - Initializing complete.
16:22:56 - Verifying grabbing system.
16:22:57 - Running camera callback.
16:22:57 - Camera reports 0
16:23:00 - Error details: lastRawFrameNumber: 734402, currentFrameNumber: 0
16:23:00 - Error grabbing: Frame counter is not consistently growing!.
16:23:00 - FATAL ERROR: System.InvalidOperationException: Frame counter is not consistently growing!.
   at OculomotorLab.VOG.ImageGrabbing.CameraEyePointGreyLabyrinth.GrabImageEye() in c:\VOG\Labyrinth VOG Software - MVI Working Version - Testing Software Trigger\labyrinth\LabryinthVOG\ImageGrabbing\CameraEyePointGreyLabyrinth.cs:line 639
   at OculomotorLab.VOG.EyeTrackerImageGrabber.GrabImages() in c:\VOG\Labyrinth VOG Software - MVI Working Version - Testing Software Trigger\source\VOGLib\EyeTrackerImageGrabber.cs:line 552
   at OculomotorLab.VOG.EyeTrackerImageGrabber.GrabLoop() in c:\VOG\Labyrinth VOG Software - MVI Working Version - Testing Software Trigger\source\VOGLib\EyeTrackerImageGrabber.cs:line 478
16:23:00 - Finished head tracker loop.
