10:11:01 - Initializing network service ...
10:11:01 - Initializing network service ... completed.
10:11:01 - Initializing complete.
10:11:05 - Verifying grabbing system.
10:11:05 - Running camera callback.
10:11:05 - Camera reports 0
10:11:12 - 0: L (236.33,212.17) +/- (1267.05,203.96), R (140.00,217.31) +/- (910.61,294.19))
10:11:12 - 236.3306 0 0 0 0 0 0 0 0 
10:11:25 - Finished head tracker loop.
10:11:31 - An error occured, cannot finalize calibration implmentation.
10:11:31 - Calibration loop finished.
10:11:31 - Grabber loop finished.
10:11:31 - Process loop finished.
10:11:31 - Process loop finished.
10:11:31 - Process loop finished.
10:11:31 - Process loop finished.
10:11:31 - Output loop finished.
