19:37:36 - Initializing network service ...
19:37:36 - Initializing network service ... completed.
19:37:36 - Initializing complete.
19:37:53 - Error initializating the system, going into simulation mode.
19:37:53 - Object reference not set to an instance of an object.
19:37:58 - Grabber loop finished.
19:37:58 - Process loop finished.
19:37:58 - Process loop finished.
19:37:58 - Process loop finished.
19:37:58 - Process loop finished.
19:37:58 - Output loop finished.
