17:12:34 - Initializing network service ...
17:12:34 - Initializing network service ... completed.
17:12:34 - Initializing complete.
17:12:36 - Verifying grabbing system.
17:12:36 - Running camera callback.
17:12:36 - Camera reports 0
17:12:48 - Finished head tracker loop.
17:12:52 - Grabber loop finished.
17:12:52 - Process loop finished.
17:12:52 - Process loop finished.
17:12:52 - Process loop finished.
17:12:52 - Process loop finished.
17:12:52 - Output loop finished.
