15:32:44 - Initializing network service ...
15:32:45 - Initializing network service ... completed.
15:32:45 - Initializing complete.
15:32:47 - Waiting for camera...
15:32:48 - Verifying grabbing system.
15:32:48 - Running camera callback.
15:32:48 - Camera reports 1
15:32:55 - 0: L (244.98,195.01) +/- (0.87,0.42), R (271.80,135.18) +/- (0.19,0.49))
15:32:55 - 244.9762 0 0 0 0 0 0 0 0 
15:32:57 - 1: L (220.99,196.53) +/- (0.14,0.16), R (245.57,135.98) +/- (0.50,0.05))
15:32:57 - 244.9762 220.9906 0 0 0 0 0 0 0 
15:33:00 - 2: L (196.62,198.61) +/- (0.22,0.11), R (220.75,136.62) +/- (0.02,0.16))
15:33:00 - 244.9762 220.9906 196.6155 0 0 0 0 0 0 
15:33:03 - 3: L (246.81,218.08) +/- (0.13,0.13), R (269.27,159.24) +/- (0.21,0.07))
15:33:03 - 244.9762 220.9906 196.6155 246.8066 0 0 0 0 0 
15:33:05 - 4: L (222.89,218.53) +/- (0.18,0.46), R (244.43,158.74) +/- (0.13,0.25))
15:33:06 - 244.9762 220.9906 196.6155 246.8066 222.8887 0 0 0 0 
15:33:08 - 5: L (197.36,219.69) +/- (0.02,0.04), R (219.24,158.91) +/- (0.04,0.04))
15:33:08 - 244.9762 220.9906 196.6155 246.8066 222.8887 197.363 0 0 0 
15:33:11 - 6: L (247.84,239.88) +/- (0.07,0.24), R (270.67,182.00) +/- (0.04,0.06))
15:33:11 - 244.9762 220.9906 196.6155 246.8066 222.8887 197.363 247.8402 0 0 
15:33:14 - 7: L (223.77,239.93) +/- (0.06,0.04), R (244.51,180.48) +/- (0.10,0.06))
15:33:14 - 244.9762 220.9906 196.6155 246.8066 222.8887 197.363 247.8402 223.7713 0 
15:33:17 - 8: L (197.48,240.39) +/- (0.03,0.04), R (220.70,180.22) +/- (0.22,0.67))
15:33:21 - 244.9762 220.9906 196.6155 246.8066 222.8887 197.363 247.8402 223.7713 197.4787 
15:33:24 - Calibration error: Error using dlmwrite (line 130)
Could not open file C:\VOG\Data\Scripts\Calibration\SESSION-2016Aug07-153321_Polynomial.txt
