15:21:01 - Initializing network service ...
15:21:01 - Initializing network service ... completed.
15:21:01 - Initializing complete.
15:21:03 - Error initializating the system, going into simulation mode.
15:21:03 - Object reference not set to an instance of an object.
15:21:06 - Grabber loop finished.
15:21:06 - Process loop finished.
15:21:06 - Process loop finished.
15:21:06 - Process loop finished.
15:21:06 - Process loop finished.
15:21:06 - Output loop finished.
