15:10:50 - Initializing network service ...
15:10:51 - Initializing network service ... completed.
15:10:52 - Initializing complete.
15:11:23 - Waiting for camera...
15:11:23 - Verifying grabbing system.
15:11:23 - Running camera callback.
15:11:23 - Camera reports 0
15:11:29 - 0: L (260.68,185.77) +/- (0.40,0.71), R (287.48,156.35) +/- (0.26,0.79))
15:11:29 - 260.6826 0 0 0 0 0 0 0 0 
15:11:32 - 1: L (235.85,186.20) +/- (0.21,0.27), R (261.25,156.20) +/- (0.92,0.20))
15:11:32 - 260.6826 235.8531 0 0 0 0 0 0 0 
15:11:35 - 2: L (209.66,187.56) +/- (0.37,0.05), R (236.17,156.42) +/- (0.33,0.05))
15:11:35 - 260.6826 235.8531 209.6596 0 0 0 0 0 0 
15:11:37 - 3: L (260.82,207.24) +/- (0.15,0.58), R (285.78,178.39) +/- (0.13,0.41))
15:11:37 - 260.6826 235.8531 209.6596 260.8205 0 0 0 0 0 
15:11:40 - 4: L (235.56,208.26) +/- (0.05,0.11), R (260.92,178.69) +/- (0.05,0.14))
15:11:40 - 260.6826 235.8531 209.6596 260.8205 235.5553 0 0 0 0 
15:11:43 - 5: L (210.74,210.07) +/- (0.10,0.03), R (235.32,177.89) +/- (0.04,0.02))
15:11:43 - 260.6826 235.8531 209.6596 260.8205 235.5553 210.7382 0 0 0 
15:11:46 - 6: L (260.95,228.33) +/- (0.14,0.16), R (285.60,198.83) +/- (0.23,0.07))
15:11:46 - 260.6826 235.8531 209.6596 260.8205 235.5553 210.7382 260.9518 0 0 
15:11:48 - 7: L (237.07,229.69) +/- (0.03,0.25), R (260.72,198.74) +/- (0.07,0.21))
15:11:48 - 260.6826 235.8531 209.6596 260.8205 235.5553 210.7382 260.9518 237.0676 0 
15:11:51 - 8: L (211.05,230.41) +/- (0.15,0.08), R (236.16,198.09) +/- (0.20,0.10))
15:12:02 - 260.6826 235.8531 209.6596 260.8205 235.5553 210.7382 260.9518 237.0676 211.0521 
