18:06:10 - Initializing network service ...
18:06:10 - Initializing network service ... completed.
18:06:10 - Initializing complete.
18:06:13 - Verifying grabbing system.
18:06:13 - Running camera callback.
18:06:13 - Camera reports 1
18:06:16 - Finished head tracker loop.
18:14:51 - Verifying grabbing system.
18:14:51 - Running camera callback.
18:14:51 - 2017-02-02-18:14:51.531 0 M: KEYPRESS D: 
18:14:51 - Camera reports 0
18:14:56 - Finished head tracker loop.
18:14:56 - Grabber loop finished.
18:14:56 - Process loop finished.
18:14:56 - Process loop finished.
18:14:56 - Process loop finished.
18:14:56 - Process loop finished.
18:14:56 - Output loop finished.
