16:37:20 - Initializing network service ...
16:37:20 - Initializing network service ... completed.
16:37:20 - Initializing complete.
16:37:23 - Verifying grabbing system.
16:37:23 - Running camera callback.
16:37:23 - Camera reports 0
16:48:11 - Finished EyeCollection`1 consumer  loop : 34228 frames queued; Queued: 30455-64682, Saved: 30455-64682
16:48:11 - Finished EyeTrackerDataAndImages consumer  loop : 34224 frames queued; Queued: 30455-64678, Saved: 30455-64678
16:48:11 - Finished EyeTrackerEvent consumer  loop : 0 frames queued; Queued: -1--1, Saved: -1--1
17:01:35 - Finished EyeCollection`1 consumer  loop : 51165 frames queued; Queued: 93847-145011, Saved: 93847-145011
17:01:35 - Finished EyeTrackerDataAndImages consumer  loop : 51165 frames queued; Queued: 93847-145011, Saved: 93847-145011
17:01:35 - Finished EyeTrackerEvent consumer  loop : 0 frames queued; Queued: -1--1, Saved: -1--1
17:02:59 - Finished head tracker loop.
17:05:08 - Verifying grabbing system.
17:05:08 - Running camera callback.
17:16:44 - Finished EyeCollection`1 consumer  loop : 68198 frames queued; Queued: 1320-69517, Saved: 1320-69517
17:16:44 - Finished EyeTrackerDataAndImages consumer  loop : 68198 frames queued; Queued: 1320-69517, Saved: 1320-69517
17:16:44 - Finished EyeTrackerEvent consumer  loop : 0 frames queued; Queued: -1--1, Saved: -1--1
17:16:53 - Finished head tracker loop.
17:20:40 - Error initializating the system, going into simulation mode.
17:20:40 - Object reference not set to an instance of an object.
17:20:57 - Error initializating the system, going into simulation mode.
17:20:57 - Object reference not set to an instance of an object.
17:21:01 - Grabber loop finished.
17:21:01 - Process loop finished.
17:21:01 - Process loop finished.
17:21:01 - Process loop finished.
17:21:01 - Process loop finished.
17:21:01 - Output loop finished.
