15:20:26 - Initializing network service ...
15:20:26 - Initializing network service ... completed.
15:20:27 - Initializing complete.
15:20:34 - Verifying grabbing system.
15:20:34 - Running camera callback.
15:20:34 - Waiting for camera...
15:20:34 - Camera reports 0
15:21:00 - Finished EyeCollection`1 consumer  loop : 1116 frames queued; Queued: 1489-2604, Saved: 1489-2604
15:21:00 - Finished EyeTrackerDataAndImages consumer  loop : 970 frames queued; Queued: 1489-2583, Saved: 1489-2583
15:21:00 - Finished EyeTrackerEvent consumer  loop : 0 frames queued; Queued: -1--1, Saved: -1--1
15:22:16 - Finished EyeCollection`1 consumer  loop : 1016 frames queued; Queued: 9189-10204, Saved: 9189-10204
15:22:16 - Finished EyeTrackerDataAndImages consumer  loop : 690 frames queued; Queued: 9189-10068, Saved: 9189-10068
15:22:16 - Finished EyeTrackerEvent consumer  loop : 0 frames queued; Queued: -1--1, Saved: -1--1
15:22:31 - Finished EyeCollection`1 consumer  loop : 745 frames queued; Queued: 10869-11613, Saved: 10869-11613
15:22:31 - Finished EyeTrackerDataAndImages consumer  loop : 459 frames queued; Queued: 10871-11472, Saved: 10871-11472
15:22:31 - Finished EyeTrackerEvent consumer  loop : 0 frames queued; Queued: -1--1, Saved: -1--1
15:24:57 - Finished EyeCollection`1 consumer  loop : 1562 frames queued; Queued: 24716-26277, Saved: 24716-26277
15:24:57 - Finished EyeTrackerDataAndImages consumer  loop : 1014 frames queued; Queued: 24716-26133, Saved: 24716-26133
15:24:57 - Finished EyeTrackerEvent consumer  loop : 0 frames queued; Queued: -1--1, Saved: -1--1
15:29:50 - Finished EyeCollection`1 consumer  loop : 4741 frames queued; Queued: 50813-55553, Saved: 50813-55553
15:29:50 - Finished EyeTrackerDataAndImages consumer  loop : 3443 frames queued; Queued: 50813-55398, Saved: 50813-55398
15:29:50 - Finished EyeTrackerEvent consumer  loop : 0 frames queued; Queued: -1--1, Saved: -1--1
15:37:23 - Finished EyeCollection`1 consumer  loop : 1431 frames queued; Queued: 99345-100775, Saved: 99345-100775
15:37:23 - Finished EyeTrackerDataAndImages consumer  loop : 991 frames queued; Queued: 99345-100637, Saved: 99345-100637
15:37:23 - Finished EyeTrackerEvent consumer  loop : 0 frames queued; Queued: -1--1, Saved: -1--1
15:53:20 - Error details: lastRawFrameNumber: 161108, currentFrameNumber: 0
15:53:20 - Error grabbing: Frame counter is not consistently growing!.
15:53:32 - FATAL ERROR: System.InvalidOperationException: Frame counter is not consistently growing!.
   at OculomotorLab.VOG.ImageGrabbing.CameraEyePointGreyLabyrinth.GrabImageEye() in c:\VOG\Local_VOG_with_CamCalib_Emgu_2.4.10_v2 - LatestFlyCapture\labyrinth\LabryinthVOG\ImageGrabbing\CameraEyePointGreyLabyrinth.cs:line 625
   at OculomotorLab.VOG.EyeTrackerImageGrabber.GrabImages() in c:\VOG\Local_VOG_with_CamCalib_Emgu_2.4.10_v2 - LatestFlyCapture\source\VOGLib\EyeTrackerImageGrabber.cs:line 552
   at OculomotorLab.VOG.EyeTrackerImageGrabber.GrabLoop() in c:\VOG\Local_VOG_with_CamCalib_Emgu_2.4.10_v2 - LatestFlyCapture\source\VOGLib\EyeTrackerImageGrabber.cs:line 478
15:53:32 - FATAL ERROR: FlyCapture2Managed.FC2Exception: Low level failure reading register 0x70008. Error: 0x19.
   at FlyCapture2Managed.ManagedCameraBase.ReadRegister(UInt32 address)
   at OculomotorLab.VOG.ImageGrabbing.CameraEyePointGreyLabyrinth.ReadSensors() in c:\VOG\Local_VOG_with_CamCalib_Emgu_2.4.10_v2 - LatestFlyCapture\labyrinth\LabryinthVOG\ImageGrabbing\CameraEyePointGreyLabyrinth.cs:line 694
   at OculomotorLab.VOG.ImageGrabbing.CameraEyePointGreyLabyrinth.HeadSensorLabyrinth.GrabHeadData() in c:\VOG\Local_VOG_with_CamCalib_Emgu_2.4.10_v2 - LatestFlyCapture\labyrinth\LabryinthVOG\HeadTracking\HeadSensorLabyrinth.cs:line 61
   at OculomotorLab.VOG.EyeTrackerHeadTracker.TrackingLoop() in c:\VOG\Local_VOG_with_CamCalib_Emgu_2.4.10_v2 - LatestFlyCapture\source\VOGLib\HeadTracking\EyeTrackerHeadTracker.cs:line 230
