13:17:19 - Initializing network service ...
13:17:19 - Initializing network service ... completed.
13:17:20 - Initializing complete.
13:17:45 - Error initializating the system, going into simulation mode.
13:17:45 - Object reference not set to an instance of an object.
13:17:49 - Grabber loop finished.
13:17:49 - Process loop finished.
13:17:49 - Process loop finished.
13:17:49 - Process loop finished.
13:17:49 - Process loop finished.
13:17:49 - Output loop finished.
