13:55:36 - Initializing network service ...
13:55:37 - Error starting service: There is already a listener on IP endpoint 0.0.0.0:9000. This could happen if there is another application already listening on this endpoint or if you have multiple service endpoints in your service host with the same IP endpoint but with incompatible binding configurations.
13:55:37 - Initializing network service ... completed.
13:55:37 - Initializing complete.
13:55:41 - Verifying grabbing system.
13:55:41 - Running camera callback.
13:55:48 - Finished head tracker loop.
13:56:02 - Waiting for camera...
