17:23:29 - Initializing network service ...
17:23:30 - Initializing network service ... completed.
17:23:30 - Initializing complete.
17:23:51 - Verifying grabbing system.
17:23:51 - Running camera callback.
17:23:51 - Camera reports 0
17:24:18 - 0: L (229.24,163.05) +/- (0.10,0.92), R (199.94,169.94) +/- (0.23,0.57))
17:24:19 - 229.2401 0 0 0 0 
17:24:23 - 1: L (204.78,186.89) +/- (0.17,0.19), R (171.78,193.12) +/- (0.03,0.34))
17:24:23 - 229.2401 204.7771 0 0 0 
17:24:28 - 2: L (231.31,210.00) +/- (0.10,0.13), R (197.53,217.67) +/- (0.19,0.09))
17:24:28 - 229.2401 204.7771 231.3055 0 0 
17:24:32 - 3: L (257.79,188.04) +/- (0.32,3.21), R (223.67,193.81) +/- (0.31,2.00))
17:24:32 - 229.2401 204.7771 231.3055 257.7856 0 
17:24:37 - 4: L (232.89,183.20) +/- (0.50,5.47), R (197.41,196.69) +/- (0.21,0.39))
17:24:37 - Calibration finished
17:24:37 - 229.2401 204.7771 231.3055 257.7856 232.8852 
17:24:37 - Calibration loop finished.
17:27:14 - 0: L (229.01,175.25) +/- (0.04,0.21), R (189.88,189.95) +/- (0.04,0.06))
17:27:14 - 229.0065 0 0 0 0 
17:27:57 - An error occured, cannot finalize calibration implmentation.
17:27:57 - Calibration loop finished.
17:28:02 - 0: L (225.78,182.16) +/- (0.19,0.09), R (186.61,201.66) +/- (0.11,0.04))
17:28:02 - 225.7846 0 0 0 0 
17:28:06 - 1: L (199.32,203.92) +/- (0.08,0.08), R (161.58,225.12) +/- (0.04,0.04))
17:28:06 - 225.7846 199.3229 0 0 0 
17:28:11 - 2: L (222.55,233.59) +/- (0.33,0.72), R (188.32,250.34) +/- (0.14,0.08))
17:28:11 - 225.7846 199.3229 222.545 0 0 
17:28:15 - 3: L (252.07,207.72) +/- (0.29,5.29), R (212.52,225.90) +/- (0.12,0.31))
17:28:15 - 225.7846 199.3229 222.545 252.0694 0 
17:28:19 - 4: L (226.27,208.33) +/- (0.43,0.24), R (185.75,226.75) +/- (0.06,0.79))
17:28:19 - Calibration finished
17:28:19 - Calibration loop finished.
17:28:19 - 225.7846 199.3229 222.545 252.0694 226.2711 
17:28:48 - Finished EyeCollection`1 consumer  loop : 2126 frames queued; Queued: 27229-29354, Saved: 27229-29354
17:28:48 - Finished EyeTrackerEvent consumer  loop : 0 frames queued; Queued: -1--1, Saved: -1--1
17:28:48 - Finished EyeTrackerDataAndImages consumer  loop : 2126 frames queued; Queued: 27229-29354, Saved: 27229-29354
17:31:06 - 0: L (227.08,169.51) +/- (0.06,0.03), R (186.51,181.59) +/- (0.13,0.05))
17:31:06 - 227.0768 0 0 0 0 
17:31:10 - 1: L (201.34,194.62) +/- (0.11,0.15), R (158.90,205.26) +/- (0.09,0.66))
17:31:10 - 227.0768 201.3405 0 0 0 
17:31:14 - 2: L (228.26,218.89) +/- (0.15,0.05), R (186.10,229.98) +/- (0.09,0.08))
17:31:14 - 227.0768 201.3405 228.2625 0 0 
17:31:19 - 3: L (253.33,192.30) +/- (0.19,0.09), R (214.01,205.01) +/- (0.22,0.05))
17:31:19 - 227.0768 201.3405 228.2625 253.3315 0 
17:31:23 - 4: L (228.69,194.28) +/- (0.09,0.18), R (184.96,203.46) +/- (0.04,0.20))
17:31:23 - Calibration finished
17:31:23 - 227.0768 201.3405 228.2625 253.3315 228.6857 
17:31:23 - Calibration loop finished.
17:32:00 - Finished EyeCollection`1 consumer  loop : 3106 frames queued; Queued: 45283-48388, Saved: 45283-48388
17:32:00 - Finished EyeTrackerDataAndImages consumer  loop : 3106 frames queued; Queued: 45283-48388, Saved: 45283-48388
17:32:00 - Finished EyeTrackerEvent consumer  loop : 0 frames queued; Queued: -1--1, Saved: -1--1
17:33:07 - Finished EyeCollection`1 consumer  loop : 2601 frames queued; Queued: 52480-55080, Saved: 52480-55080
17:33:07 - Finished EyeTrackerEvent consumer  loop : 0 frames queued; Queued: -1--1, Saved: -1--1
17:33:07 - Finished EyeTrackerDataAndImages consumer  loop : 2602 frames queued; Queued: 52480-55081, Saved: 52480-55081
17:35:02 - 0: L (232.55,159.73) +/- (0.20,0.03), R (185.07,167.84) +/- (0.04,0.03))
17:35:02 - 232.5473 0 0 0 0 
17:35:06 - 1: L (204.92,184.05) +/- (0.22,0.25), R (157.87,191.64) +/- (0.05,0.17))
17:35:07 - 232.5473 204.9151 0 0 0 
17:35:10 - 2: L (232.08,208.67) +/- (0.14,0.26), R (184.17,216.99) +/- (0.09,0.05))
17:35:11 - 232.5473 204.9151 232.0757 0 0 
17:35:15 - 3: L (259.17,182.94) +/- (0.22,0.23), R (211.39,192.38) +/- (0.35,0.07))
17:35:15 - 232.5473 204.9151 232.0757 259.1686 0 
17:35:19 - 4: L (233.08,183.86) +/- (0.12,0.76), R (183.77,192.07) +/- (0.38,0.10))
17:35:19 - Calibration finished
17:35:19 - Calibration loop finished.
17:35:19 - 232.5473 204.9151 232.0757 259.1686 233.0837 
17:35:55 - Finished EyeCollection`1 consumer  loop : 2542 frames queued; Queued: 69125-71666, Saved: 69125-71666
17:35:55 - Finished EyeTrackerEvent consumer  loop : 0 frames queued; Queued: -1--1, Saved: -1--1
17:35:55 - Finished EyeTrackerDataAndImages consumer  loop : 2543 frames queued; Queued: 69125-71667, Saved: 69125-71667
17:36:39 - 0: L (235.23,160.30) +/- (0.15,4.64), R (184.28,172.93) +/- (0.12,0.30))
17:36:39 - 235.2315 0 0 0 0 
17:36:44 - 1: L (210.61,183.89) +/- (0.15,0.84), R (158.31,196.00) +/- (0.16,1.48))
17:36:44 - 235.2315 210.6064 0 0 0 
17:36:48 - 2: L (234.87,209.72) +/- (3.58,34.53), R (185.63,220.52) +/- (3.72,14.01))
17:36:48 - 235.2315 210.6064 234.8682 0 0 
17:36:53 - 3: L (259.50,185.71) +/- (24.63,98.46), R (212.52,196.92) +/- (8.38,14.75))
17:36:53 - 235.2315 210.6064 234.8682 259.4995 0 
17:36:57 - 4: L (240.47,172.53) +/- (4.94,12.77), R (184.40,196.36) +/- (0.33,19.18))
17:36:57 - Calibration finished
17:36:57 - Calibration loop finished.
17:36:57 - 235.2315 210.6064 234.8682 259.4995 240.4708 
17:37:37 - Finished EyeCollection`1 consumer  loop : 2932 frames queued; Queued: 78867-81798, Saved: 78867-81798
17:37:37 - Finished EyeTrackerEvent consumer  loop : 0 frames queued; Queued: -1--1, Saved: -1--1
17:37:37 - Finished EyeTrackerDataAndImages consumer  loop : 2932 frames queued; Queued: 78867-81798, Saved: 78867-81798
17:38:02 - Finished head tracker loop.
17:38:02 - Error details: lastRawFrameNumber: 84332, currentFrameNumber: 0
