12:25:35 - Initializing network service ...
12:25:36 - Initializing network service ... completed.
12:25:36 - Initializing complete.
12:26:57 - Verifying grabbing system.
12:26:57 - Camera reports 0
12:26:57 - 1: 0.00,0.00,0.00
12:26:57 - 2: 0.34,1.79,-0.98
12:26:57 - 3: 0.03,-0.37,-1.71
12:26:57 - 4: -0.06,-1.02,-1.76
12:27:07 - Finished head tracker loop.
12:48:54 - Grabber loop finished.
12:48:54 - Process loop finished.
12:48:54 - Process loop finished.
12:48:54 - Process loop finished.
12:48:54 - Process loop finished.
12:48:54 - Output loop finished.
