15:34:10 - Initializing network service ...
15:34:10 - Initializing network service ... completed.
15:34:10 - Initializing complete.
15:34:58 - Verifying grabbing system.
15:34:58 - Running camera callback.
15:34:58 - Camera reports 0
15:42:05 - Finished EyeCollection`1 consumer  loop : 24028 frames queued; Queued: 18267-42294, Saved: 18267-42294
15:42:05 - Finished EyeTrackerDataAndImages consumer  loop : 24028 frames queued; Queued: 18267-42294, Saved: 18267-42294
15:42:05 - Finished EyeTrackerEvent consumer  loop : 0 frames queued; Queued: -1--1, Saved: -1--1
15:48:05 - Finished EyeCollection`1 consumer  loop : 35485 frames queued; Queued: 42501-77985, Saved: 42501-77985
15:48:05 - Finished EyeTrackerDataAndImages consumer  loop : 35485 frames queued; Queued: 42501-77985, Saved: 42501-77985
15:48:05 - Finished EyeTrackerEvent consumer  loop : 0 frames queued; Queued: -1--1, Saved: -1--1
15:53:56 - Finished EyeCollection`1 consumer  loop : 34654 frames queued; Queued: 78116-112769, Saved: 78116-112769
15:53:56 - Finished EyeTrackerDataAndImages consumer  loop : 34654 frames queued; Queued: 78116-112769, Saved: 78116-112769
15:53:56 - Finished EyeTrackerEvent consumer  loop : 0 frames queued; Queued: -1--1, Saved: -1--1
16:01:10 - Finished EyeCollection`1 consumer  loop : 42870 frames queued; Queued: 112901-155770, Saved: 112901-155770
16:01:10 - Finished EyeTrackerDataAndImages consumer  loop : 42869 frames queued; Queued: 112901-155769, Saved: 112901-155769
16:01:10 - Finished EyeTrackerEvent consumer  loop : 0 frames queued; Queued: -1--1, Saved: -1--1
16:02:15 - FATAL ERROR: FlyCapture2Managed.FC2Exception: Low level failure reading register 0x1100. Error: 0x15.
   at FlyCapture2Managed.ManagedCameraBase.ReadRegister(UInt32 address)
   at OculomotorLab.VOG.ImageGrabbing.CameraEyePointGreyLabyrinth.ReadSensors() in c:\VOG\Labyrinth VOG Software - MVI Working Version - Testing Software Trigger\labyrinth\LabryinthVOG\ImageGrabbing\CameraEyePointGreyLabyrinth.cs:line 696
   at OculomotorLab.VOG.ImageGrabbing.CameraEyePointGreyLabyrinth.HeadSensorLabyrinth.GrabHeadData(Boolean SoftwareTriggerOn) in c:\VOG\Labyrinth VOG Software - MVI Working Version - Testing Software Trigger\labyrinth\LabryinthVOG\HeadTracking\HeadSensorLabyrinth.cs:line 62
   at OculomotorLab.VOG.EyeTrackerHeadTracker.TrackingLoop() in C:\VOG\Labyrinth VOG Software - MVI Working Version - Testing Software Trigger\source\VOGLib\HeadTracking\EyeTrackerHeadTracker.cs:line 235
16:02:15 - Error details: lastRawFrameNumber: 162272, currentFrameNumber: 0
16:02:15 - Error grabbing: Frame counter is not consistently growing!.
16:02:15 - FATAL ERROR: System.InvalidOperationException: Frame counter is not consistently growing!.
   at OculomotorLab.VOG.ImageGrabbing.CameraEyePointGreyLabyrinth.GrabImageEye() in c:\VOG\Labyrinth VOG Software - MVI Working Version - Testing Software Trigger\labyrinth\LabryinthVOG\ImageGrabbing\CameraEyePointGreyLabyrinth.cs:line 639
   at OculomotorLab.VOG.EyeTrackerImageGrabber.GrabImages() in C:\VOG\Labyrinth VOG Software - MVI Working Version - Testing Software Trigger\source\VOGLib\EyeTrackerImageGrabber.cs:line 552
   at OculomotorLab.VOG.EyeTrackerImageGrabber.GrabLoop() in C:\VOG\Labyrinth VOG Software - MVI Working Version - Testing Software Trigger\source\VOGLib\EyeTrackerImageGrabber.cs:line 478
