15:25:27 - Initializing network service ...
15:25:28 - Initializing network service ... completed.
15:25:28 - Initializing complete.
15:25:45 - Verifying grabbing system.
15:25:45 - Error grabbing: Could not load file or assembly 'Emgu.CV, Version=2.4.2.1777, Culture=neutral, PublicKeyToken=7281126722ab4438' or one of its dependencies. The located assembly's manifest definition does not match the assembly reference. (Exception from HRESULT: 0x80131040)
15:25:45 - Running camera callback.
15:25:45 - FATAL ERROR: System.IO.FileLoadException: Could not load file or assembly 'Emgu.CV, Version=2.4.2.1777, Culture=neutral, PublicKeyToken=7281126722ab4438' or one of its dependencies. The located assembly's manifest definition does not match the assembly reference. (Exception from HRESULT: 0x80131040)
File name: 'Emgu.CV, Version=2.4.2.1777, Culture=neutral, PublicKeyToken=7281126722ab4438'
   at OculomotorLab.VOG.ImageGrabbing.CameraEyePointGreyLabyrinth.GrabImageEye()
   at OculomotorLab.VOG.EyeTrackerImageGrabber.GrabImages() in c:\VOG\Local_VOG_with_CamCalib_Emgu_2.4.10_v2\source\VOGLib\EyeTrackerImageGrabber.cs:line 513
   at OculomotorLab.VOG.EyeTrackerImageGrabber.GrabLoop() in c:\VOG\Local_VOG_with_CamCalib_Emgu_2.4.10_v2\source\VOGLib\EyeTrackerImageGrabber.cs:line 454

=== Pre-bind state information ===
LOG: DisplayName = Emgu.CV, Version=2.4.2.1777, Culture=neutral, PublicKeyToken=7281126722ab4438
 (Fully-specified)
LOG: Appbase = file:///C:/VOG/Local_VOG_with_CamCalib_Emgu_2.4.10_v2/bin/Debug/
LOG: Initial PrivatePath = NULL
Calling assembly : LabyrinthVOG, Version=1.0.0.0, Culture=neutral, PublicKeyToken=null.
===
LOG: This bind starts in default load context.
LOG: Using application configuration file: C:\VOG\Local_VOG_with_CamCalib_Emgu_2.4.10_v2\bin\Debug\EyeTrackerGui.vshost.exe.Config
LOG: Using host configuration file: 
LOG: Using machine configuration file from C:\Windows\Microsoft.NET\Framework64\v4.0.30319\config\machine.config.
LOG: Post-policy reference: Emgu.CV, Version=2.4.2.1777, Culture=neutral, PublicKeyToken=7281126722ab4438
LOG: Attempting download of new URL file:///C:/VOG/Local_VOG_with_CamCalib_Emgu_2.4.10_v2/bin/Debug/Emgu.CV.DLL.
WRN: Comparing the assembly name resulted in the mismatch: Revision Number
ERR: Failed to complete setup of assembly (hr = 0x80131040). Probing terminated.

15:25:45 - Finished head tracker loop.
