12:08:11 - Initializing network service ...
12:08:11 - Initializing network service ... completed.
12:08:11 - Initializing complete.
12:08:15 - Grabber loop finished.
12:08:15 - Process loop finished.
12:08:15 - Process loop finished.
12:08:15 - Process loop finished.
12:08:15 - Process loop finished.
12:08:15 - Output loop finished.
