12:08:44 - Initializing network service ...
12:08:44 - Initializing network service ... completed.
12:08:44 - Initializing complete.
12:08:56 - Verifying grabbing system.
12:08:57 - Running camera callback.
12:08:57 - Camera reports 0
12:09:14 - Finished head tracker loop.
12:09:16 - Grabber loop finished.
12:09:16 - Process loop finished.
12:09:16 - Process loop finished.
12:09:16 - Process loop finished.
12:09:16 - Process loop finished.
12:09:16 - Output loop finished.
