09:18:55 - Initializing network service ...
09:18:56 - Initializing network service ... completed.
09:18:56 - Initializing complete.
09:19:30 - Verifying grabbing system.
09:19:30 - Running camera callback.
09:19:30 - Camera reports 0
09:19:36 - Finished head tracker loop.
09:48:05 - Verifying grabbing system.
09:48:05 - Running camera callback.
09:48:05 - Camera reports 0
09:48:19 - Calibration finished
09:48:19 - Calibration loop finished.
09:48:41 - Calibration finished
09:48:41 - Calibration loop finished.
09:49:04 - FATAL ERROR: FlyCapture2Managed.FC2Exception: Low level failure writing register 0x70008 with value 0xe0000. Error: 0xf.
   at FlyCapture2Managed.ManagedCameraBase.WriteRegister(UInt32 address, UInt32 value, Boolean broadcast)
   at OculomotorLab.VOG.ImageGrabbing.CameraEyePointGreyLabyrinth.ReadSensors() in c:\VOG\Labyrinth VOG Software - MVI Working Version - Testing Software Trigger\labyrinth\LabryinthVOG\ImageGrabbing\CameraEyePointGreyLabyrinth.cs:line 720
   at OculomotorLab.VOG.ImageGrabbing.CameraEyePointGreyLabyrinth.HeadSensorLabyrinth.GrabHeadData(Boolean SoftwareTriggerOn) in c:\VOG\Labyrinth VOG Software - MVI Working Version - Testing Software Trigger\labyrinth\LabryinthVOG\HeadTracking\HeadSensorLabyrinth.cs:line 62
   at OculomotorLab.VOG.EyeTrackerHeadTracker.TrackingLoop() in c:\VOG\Labyrinth VOG Software - MVI Working Version - Testing Software Trigger\source\VOGLib\HeadTracking\EyeTrackerHeadTracker.cs:line 235
09:49:57 - Error details: lastRawFrameNumber: 181109, currentFrameNumber: 0
09:49:57 - Error grabbing: Frame counter is not consistently growing!.
09:49:57 - FATAL ERROR: System.InvalidOperationException: Frame counter is not consistently growing!.
   at OculomotorLab.VOG.ImageGrabbing.CameraEyePointGreyLabyrinth.GrabImageEye() in c:\VOG\Labyrinth VOG Software - MVI Working Version - Testing Software Trigger\labyrinth\LabryinthVOG\ImageGrabbing\CameraEyePointGreyLabyrinth.cs:line 639
   at OculomotorLab.VOG.EyeTrackerImageGrabber.GrabImages() in c:\VOG\Labyrinth VOG Software - MVI Working Version - Testing Software Trigger\source\VOGLib\EyeTrackerImageGrabber.cs:line 552
   at OculomotorLab.VOG.EyeTrackerImageGrabber.GrabLoop() in c:\VOG\Labyrinth VOG Software - MVI Working Version - Testing Software Trigger\source\VOGLib\EyeTrackerImageGrabber.cs:line 478
09:50:01 - 2017-12-10-09:50:01.730 11099 M: KEYPRESS D: 5
09:50:01 - 2017-12-10-09:50:01.900 11099 M: KEYPRESS D: 4
09:50:09 - 2017-12-10-09:50:09.281 11099 M: KEYPRESS D: 
09:50:12 - 2017-12-10-09:50:12.551 11099 M: KEYPRESS D: 
09:50:12 - 2017-12-10-09:50:12.911 11099 M: KEYPRESS D: 2
