17:18:37 - Initializing network service ...
17:18:37 - Initializing network service ... completed.
17:18:38 - timerRefreshUI_Tick: System.NullReferenceException: Object reference not set to an instance of an object.
   at OculomotorLab.VOG.UI.EyeTrackerGui.UpdateUI() in C:\VOG\Labyrinth VOG Software - MVI Working Version - Testing Software Trigger\source\EyeTrackerGui\EyeTrackerGui.cs:line 808
   at OculomotorLab.VOG.UI.EyeTrackerGui.UpdateGraphics() in C:\VOG\Labyrinth VOG Software - MVI Working Version - Testing Software Trigger\source\EyeTrackerGui\EyeTrackerGui.cs:line 199
   at OculomotorLab.VOG.UI.EyeTrackerGui.timerRefreshUI_Tick(Object sender, EventArgs e) in C:\VOG\Labyrinth VOG Software - MVI Working Version - Testing Software Trigger\source\EyeTrackerGui\EyeTrackerGui.cs:line 899
17:18:38 - Initializing complete.
17:19:17 - Verifying grabbing system.
17:19:18 - Running camera callback.
17:19:42 - Calibration finished
17:19:42 - Calibration loop finished.
17:19:47 - Finished head tracker loop.
17:19:59 - Verifying grabbing system.
17:19:59 - Running camera callback.
17:20:33 - Finished head tracker loop.
17:20:33 - Grabber loop finished.
17:20:33 - Process loop finished.
17:20:33 - Process loop finished.
17:20:33 - Process loop finished.
17:20:33 - Process loop finished.
17:20:33 - Output loop finished.
