15:29:51 - Initializing network service ...
15:29:52 - Initializing network service ... completed.
15:29:52 - Initializing complete.
15:30:59 - Verifying grabbing system.
15:30:59 - Running camera callback.
15:31:12 - Camera reports 0
15:36:24 - 2016-06-22-15:36:24.904 31182 M: KEYPRESS D: 2
15:36:24 - 2016-06-22-15:36:24.904 31183 M: KEYPRESS D: 5
15:36:37 - Finished head tracker loop.
