12:46:35 - Initializing network service ...
12:46:35 - Initializing network service ... completed.
12:46:35 - Initializing complete.
12:46:37 - Verifying grabbing system.
12:46:37 - Running camera callback.
