17:38:10 - Initializing network service ...
17:38:10 - Initializing network service ... completed.
17:38:10 - Initializing complete.
17:38:13 - Verifying grabbing system.
17:38:13 - Running camera callback.
17:38:13 - Finished head tracker loop.
17:49:51 - Verifying grabbing system.
17:49:51 - Running camera callback.
17:51:08 - Calibration finished
17:51:08 - Calibration loop finished.
17:51:28 - Calibration finished
17:51:28 - Calibration loop finished.
17:51:55 - Finished head tracker loop.
17:52:15 - Verifying grabbing system.
17:52:15 - Running camera callback.
17:54:09 - An error occured, cannot finalize calibration implmentation.
17:54:09 - Calibration loop finished.
17:57:08 - Finished head tracker loop.
17:57:10 - Verifying grabbing system.
17:57:10 - Running camera callback.
17:57:12 - Finished head tracker loop.
17:57:16 - Grabber loop finished.
17:57:16 - Process loop finished.
17:57:16 - Process loop finished.
17:57:16 - Process loop finished.
17:57:16 - Process loop finished.
17:57:16 - Output loop finished.
