17:25:15 - Initializing network service ...
17:25:15 - Initializing network service ... completed.
17:25:16 - Initializing complete.
17:25:21 - Verifying grabbing system.
17:25:21 - Running camera callback.
17:25:21 - Waiting for camera...
17:25:21 - Camera reports 0
17:25:44 - Finished head tracker loop.
17:26:20 - Verifying grabbing system.
17:26:20 - Running camera callback.
17:26:20 - Camera reports 0
17:26:58 - Finished head tracker loop.
17:27:01 - Verifying grabbing system.
17:27:01 - Running camera callback.
17:27:01 - Camera reports 0
17:27:14 - Finished head tracker loop.
17:27:17 - Grabber loop finished.
17:27:17 - Process loop finished.
17:27:17 - Process loop finished.
17:27:17 - Process loop finished.
17:27:17 - Process loop finished.
17:27:17 - Output loop finished.
