11:44:03 - Initializing network service ...
11:44:03 - Initializing network service ... completed.
11:44:03 - Initializing complete.
12:29:36 - Grabber loop finished.
12:29:36 - Process loop finished.
12:29:36 - Process loop finished.
12:29:36 - Process loop finished.
12:29:36 - Process loop finished.
12:29:36 - Output loop finished.
