14:01:10 - Initializing network service ...
14:01:11 - Initializing network service ... completed.
14:01:11 - Initializing complete.
14:01:14 - Verifying grabbing system.
14:01:14 - Running camera callback.
14:01:14 - Camera reports 0
14:10:40 - Finished head tracker loop.
