16:23:13 - Initializing network service ...
16:23:14 - Initializing network service ... completed.
16:23:22 - Initializing complete.
16:24:20 - compType: 'LabyrinthAcc' is not a known compType
16:24:20 - Error initializating the system, going into simulation mode.
16:24:20 - Unable to load DLL 'ueye_api_64.dll': The specified module could not be found. (Exception from HRESULT: 0x8007007E)
