12:56:48 - Initializing network service ...
12:56:48 - Initializing network service ... completed.
12:56:48 - Initializing complete.
12:56:49 - Verifying grabbing system.
12:56:49 - Running camera callback.
12:59:17 - Calibration finished
12:59:17 - Calibration loop finished.
13:01:37 - Finished head tracker loop.
13:01:57 - Grabber loop finished.
13:01:57 - Process loop finished.
13:01:57 - Process loop finished.
13:01:57 - Process loop finished.
13:01:57 - Process loop finished.
13:01:57 - Output loop finished.
