20:06:01 - Initializing network service ...
20:06:02 - Initializing network service ... completed.
20:06:02 - Initializing complete.
20:06:05 - Verifying grabbing system.
20:06:05 - Running camera callback.
20:06:05 - Camera reports 0
20:06:21 - Finished head tracker loop.
20:06:26 - Grabber loop finished.
20:06:26 - Process loop finished.
20:06:26 - Process loop finished.
20:06:26 - Process loop finished.
20:06:26 - Process loop finished.
20:06:26 - Output loop finished.
