14:11:36 - Initializing network service ...
14:11:36 - Initializing network service ... completed.
14:11:36 - Initializing complete.
18:03:51 - Grabber loop finished.
18:03:51 - Process loop finished.
18:03:51 - Process loop finished.
18:03:51 - Process loop finished.
18:03:51 - Process loop finished.
18:03:51 - Output loop finished.
