12:46:11 - Initializing network service ...
12:46:11 - Initializing network service ... completed.
12:46:11 - Initializing complete.
12:47:39 - Verifying grabbing system.
12:47:39 - Running camera callback.
12:47:55 - Finished head tracker loop.
12:48:13 - Verifying grabbing system.
12:48:13 - Running camera callback.
12:48:24 - Finished head tracker loop.
12:48:35 - Grabber loop finished.
12:48:35 - Process loop finished.
12:48:35 - Process loop finished.
12:48:35 - Process loop finished.
12:48:35 - Process loop finished.
12:48:35 - Output loop finished.
