20:32:21 - Initializing network service ...
20:32:23 - Initializing network service ... completed.
20:32:23 - Initializing complete.
20:32:42 - Waiting for camera...
20:32:42 - Verifying grabbing system.
20:32:42 - Running camera callback.
20:32:42 - Camera reports 0
20:32:48 - 0: L (242.28,195.46) +/- (107.32,125.59), R (271.45,168.05) +/- (127.85,123.90))
20:32:48 - 242.2757 0 0 0 0 0 0 0 0 
20:32:51 - 1: L (241.33,182.90) +/- (110.24,0.95), R (268.75,154.97) +/- (115.40,0.39))
20:32:51 - 242.2757 241.3329 0 0 0 0 0 0 0 
20:32:54 - 2: L (216.28,184.00) +/- (121.97,1.08), R (243.99,154.99) +/- (117.99,0.76))
20:32:54 - 242.2757 241.3329 216.2798 0 0 0 0 0 0 
20:32:57 - 3: L (249.36,200.58) +/- (363.43,60.45), R (277.51,173.03) +/- (366.19,66.32))
20:32:57 - 242.2757 241.3329 216.2798 249.356 0 0 0 0 0 
20:33:00 - 4: L (241.60,203.56) +/- (119.44,0.25), R (268.08,176.47) +/- (125.95,0.05))
20:33:00 - 242.2757 241.3329 216.2798 249.356 241.5993 0 0 0 0 
20:33:03 - 5: L (214.18,205.36) +/- (84.49,1.23), R (241.05,176.45) +/- (79.03,0.46))
20:33:03 - 242.2757 241.3329 216.2798 249.356 241.5993 214.1839 0 0 0 
20:33:06 - 6: L (246.82,220.23) +/- (453.41,77.85), R (274.40,192.34) +/- (465.01,85.14))
20:33:06 - 242.2757 241.3329 216.2798 249.356 241.5993 214.1839 246.8185 0 0 
20:33:09 - 7: L (240.88,225.53) +/- (91.51,0.15), R (267.24,197.50) +/- (94.46,0.18))
20:33:09 - 242.2757 241.3329 216.2798 249.356 241.5993 214.1839 246.8185 240.8817 0 
20:33:12 - 8: L (218.95,225.27) +/- (138.97,0.21), R (246.42,196.13) +/- (129.42,0.06))
20:36:15 - 242.2757 241.3329 216.2798 249.356 241.5993 214.1839 246.8185 240.8817 218.9528 
20:36:20 - Calibration error: Offset and length were out of bounds for the array or count is greater than the number of elements from index to the end of the source collection.
