13:05:25 - Initializing network service ...
13:05:25 - Initializing network service ... completed.
13:05:26 - Initializing complete.
13:05:26 - timerRefreshUI_Tick: System.NullReferenceException: Object reference not set to an instance of an object.
   at OculomotorLab.VOG.UI.EyeTrackerGui.UpdateUI() in c:\VOG\Labyrinth VOG Software - MVI Working Version - Testing Software Trigger\source\EyeTrackerGui\EyeTrackerGui.cs:line 808
   at OculomotorLab.VOG.UI.EyeTrackerGui.UpdateGraphics() in c:\VOG\Labyrinth VOG Software - MVI Working Version - Testing Software Trigger\source\EyeTrackerGui\EyeTrackerGui.cs:line 199
   at OculomotorLab.VOG.UI.EyeTrackerGui.timerRefreshUI_Tick(Object sender, EventArgs e) in c:\VOG\Labyrinth VOG Software - MVI Working Version - Testing Software Trigger\source\EyeTrackerGui\EyeTrackerGui.cs:line 899
13:05:29 - Grabber loop finished.
13:05:29 - Process loop finished.
13:05:29 - Process loop finished.
13:05:29 - Process loop finished.
13:05:29 - Process loop finished.
13:05:29 - Output loop finished.
