16:22:38 - Initializing network service ...
16:22:38 - Initializing network service ... completed.
16:22:38 - Initializing complete.
16:22:46 - Verifying grabbing system.
16:22:47 - Running camera callback.
16:22:47 - Camera reports 0
16:25:41 - 0: L (77.59,51.61) +/- (18562.48,8234.42), R (61.44,45.66) +/- (12860.49,7111.47))
16:25:41 - 77.59065 0 0 0 0 0 0 0 0 
16:25:47 - An error occured, cannot finalize calibration implmentation.
16:25:47 - Calibration loop finished.
16:25:51 - 0: L (338.15,142.40) +/- (0.09,0.07), R (309.54,130.45) +/- (0.09,0.05))
16:25:51 - 338.1511 0 0 0 0 0 0 0 0 
16:26:01 - 1: L (300.77,140.45) +/- (0.04,0.13), R (267.14,129.14) +/- (0.09,0.07))
16:26:01 - 338.1511 300.7748 0 0 0 0 0 0 0 
16:26:08 - 2: L (261.50,143.69) +/- (0.15,0.07), R (226.50,131.95) +/- (0.17,0.30))
16:26:08 - 338.1511 300.7748 261.5049 0 0 0 0 0 0 
16:26:16 - 3: L (342.00,176.33) +/- (0.14,0.03), R (307.57,165.23) +/- (0.32,1.90))
16:26:16 - 338.1511 300.7748 261.5049 342.0015 0 0 0 0 0 
16:26:22 - 4: L (301.51,175.67) +/- (0.10,0.10), R (266.13,165.59) +/- (0.06,0.15))
16:26:23 - 338.1511 300.7748 261.5049 342.0015 301.5055 0 0 0 0 
16:26:35 - 5: L (263.19,177.42) +/- (0.06,0.17), R (225.85,166.17) +/- (0.12,0.08))
16:26:35 - 338.1511 300.7748 261.5049 342.0015 301.5055 263.1948 0 0 0 
16:26:50 - 6: L (340.50,211.36) +/- (0.07,0.10), R (305.89,200.91) +/- (0.27,0.16))
16:26:50 - 338.1511 300.7748 261.5049 342.0015 301.5055 263.1948 340.5044 0 0 
16:26:58 - 7: L (303.16,212.27) +/- (0.18,0.07), R (264.93,201.00) +/- (0.35,0.04))
16:26:58 - 338.1511 300.7748 261.5049 342.0015 301.5055 263.1948 340.5044 303.1582 0 
16:27:05 - 8: L (264.98,212.35) +/- (0.11,0.13), R (225.60,201.06) +/- (0.09,0.02))
16:27:05 - 338.1511 300.7748 261.5049 342.0015 301.5055 263.1948 340.5044 303.1582 264.977 
16:27:20 - Calibration finished
16:27:20 - Calibration loop finished.
16:35:28 - FATAL ERROR: FlyCapture2Managed.FC2Exception: Low level failure reading register 0x70008. Error: 0x15.
   at FlyCapture2Managed.ManagedCameraBase.ReadRegister(UInt32 address)
   at OculomotorLab.VOG.ImageGrabbing.CameraEyePointGreyLabyrinth.ReadSensors() in c:\VOG\Labyrinth VOG Software - MVI Working Version - Testing Software Trigger\labyrinth\LabryinthVOG\ImageGrabbing\CameraEyePointGreyLabyrinth.cs:line 710
   at OculomotorLab.VOG.ImageGrabbing.CameraEyePointGreyLabyrinth.HeadSensorLabyrinth.GrabHeadData(Boolean SoftwareTriggerOn) in c:\VOG\Labyrinth VOG Software - MVI Working Version - Testing Software Trigger\labyrinth\LabryinthVOG\HeadTracking\HeadSensorLabyrinth.cs:line 62
   at OculomotorLab.VOG.EyeTrackerHeadTracker.TrackingLoop() in c:\VOG\Labyrinth VOG Software - MVI Working Version - Testing Software Trigger\source\VOGLib\HeadTracking\EyeTrackerHeadTracker.cs:line 235
16:35:29 - Error details: lastRawFrameNumber: 76060, currentFrameNumber: 0
16:35:29 - Error grabbing: Frame counter is not consistently growing!.
16:35:29 - FATAL ERROR: System.InvalidOperationException: Frame counter is not consistently growing!.
   at OculomotorLab.VOG.ImageGrabbing.CameraEyePointGreyLabyrinth.GrabImageEye() in c:\VOG\Labyrinth VOG Software - MVI Working Version - Testing Software Trigger\labyrinth\LabryinthVOG\ImageGrabbing\CameraEyePointGreyLabyrinth.cs:line 639
   at OculomotorLab.VOG.EyeTrackerImageGrabber.GrabImages() in c:\VOG\Labyrinth VOG Software - MVI Working Version - Testing Software Trigger\source\VOGLib\EyeTrackerImageGrabber.cs:line 552
   at OculomotorLab.VOG.EyeTrackerImageGrabber.GrabLoop() in c:\VOG\Labyrinth VOG Software - MVI Working Version - Testing Software Trigger\source\VOGLib\EyeTrackerImageGrabber.cs:line 478
16:35:56 - Finished EyeCollection`1 consumer  loop : 19922 frames queued; Queued: 56084-76005, Saved: 56084-76005
16:35:56 - Finished EyeTrackerDataAndImages consumer  loop : 19922 frames queued; Queued: 56084-76005, Saved: 56084-76005
16:35:56 - Finished EyeTrackerEvent consumer  loop : 0 frames queued; Queued: -1--1, Saved: -1--1
