16:48:17 - Initializing network service ...
16:48:18 - Initializing network service ... completed.
16:48:18 - Initializing complete.
16:48:21 - Verifying grabbing system.
16:48:21 - Camera reports 0
16:48:21 - 1: 0.00,0.00,0.00
16:48:21 - 2: 1.86,-2.34,-1.98
16:48:21 - 3: 4.49,-2.96,-2.47
16:48:21 - 4: 2.32,-2.29,-0.63
16:48:28 - Finished EyeCollection`1 consumer  loop : 476 frames queued; Queued: 177-652, Saved: 177-652
16:48:28 - Finished EyeTrackerDataAndImages consumer  loop : 477 frames queued; Queued: 177-653, Saved: 177-653
16:48:28 - Finished EyeTrackerEvent consumer  loop : 0 frames queued; Queued: -1--1, Saved: -1--1
16:48:49 - FATAL ERROR: FlyCapture2Managed.FC2Exception: Low level failure reading register 0x70008. Error: 0x15.
   at FlyCapture2Managed.ManagedCameraBase.ReadRegister(UInt32 address)
   at OculomotorLab.VOG.ImageGrabbing.CameraEyePointGreyLabyrinth.ReadSensors() in c:\Users\Labyrinth\Documents\VOG\labyrinth\LabryinthVOG\ImageGrabbing\CameraEyePointGreyLabyrinth.cs:line 561
   at OculomotorLab.VOG.HeadTracking.HeadSensorLabyrinth.GrabHeadData() in c:\Users\Labyrinth\Documents\VOG\labyrinth\LabryinthVOG\HeadTracking\HeadSensorLabyrinth.cs:line 36
   at OculomotorLab.VOG.EyeTrackerHeadTracker.TrackingLoop() in c:\Labyrinth\OneDrive\Mehdi\LocalGitRepos\Local_VOG\source\VOGLib\HeadTracking\EyeTrackerHeadTracker.cs:line 230
16:48:50 - Error grabbing: Isochronous image transfer is not started.
16:48:50 - FATAL ERROR: FlyCapture2Managed.FC2Exception: Isochronous image transfer is not started.
   at FlyCapture2Managed.ManagedCameraBase.RetrieveBuffer(ManagedImage image)
   at OculomotorLab.VOG.ImageGrabbing.CameraEyePointGreyLabyrinth.GrabImageEye() in c:\Users\Labyrinth\Documents\VOG\labyrinth\LabryinthVOG\ImageGrabbing\CameraEyePointGreyLabyrinth.cs:line 469
   at OculomotorLab.VOG.EyeTrackerImageGrabber.GrabImages() in c:\Labyrinth\OneDrive\Mehdi\LocalGitRepos\Local_VOG\source\VOGLib\EyeTrackerImageGrabber.cs:line 513
   at OculomotorLab.VOG.EyeTrackerImageGrabber.GrabLoop() in c:\Labyrinth\OneDrive\Mehdi\LocalGitRepos\Local_VOG\source\VOGLib\EyeTrackerImageGrabber.cs:line 454
