16:11:10 - Initializing network service ...
16:11:10 - Initializing network service ... completed.
16:11:10 - Initializing complete.
16:11:17 - Verifying grabbing system.
16:11:17 - Running camera callback.
16:11:35 - Could not find a part of the path 'C:\Users\mrahman\Documents\VOGData\Calibration\SESSION-2015Dec17-161135.csv'.
16:11:37 - 0: L (271.30,168.59) +/- (0.32,0.66), R (266.51,153.67) +/- (1.32,1.21))
16:11:57 - Finished head tracker loop.
16:12:02 - An error occured, cannot finalize calibration implmentation.
16:12:02 - Calibration loop finished.
16:12:02 - Grabber loop finished.
16:12:02 - Process loop finished.
16:12:02 - Process loop finished.
16:12:02 - Process loop finished.
16:12:02 - Process loop finished.
16:12:02 - Output loop finished.
