17:06:38 - Initializing network service ...
17:06:38 - Initializing network service ... completed.
17:06:39 - Initializing complete.
17:08:00 - Verifying grabbing system.
17:08:01 - Running camera callback.
17:08:01 - Camera reports 0
17:08:29 - Finished head tracker loop.
17:09:41 - Verifying grabbing system.
17:09:41 - Running camera callback.
17:09:41 - Camera reports 0
17:09:58 - Finished head tracker loop.
17:10:01 - Grabber loop finished.
17:10:01 - Process loop finished.
17:10:01 - Process loop finished.
17:10:01 - Process loop finished.
17:10:01 - Process loop finished.
17:10:01 - Output loop finished.
