18:51:14 - Initializing network service ...
18:51:14 - Initializing network service ... completed.
18:51:14 - Initializing complete.
18:51:16 - Verifying grabbing system.
18:51:16 - Running camera callback.
18:51:16 - Camera reports 0
18:51:25 - Finished head tracker loop.
18:51:25 - Error details: lastRawFrameNumber: 20518, currentFrameNumber: 0
18:51:27 - Grabber loop finished.
18:51:27 - Process loop finished.
18:51:27 - Process loop finished.
18:51:27 - Process loop finished.
18:51:27 - Process loop finished.
18:51:27 - Output loop finished.
