14:40:55 - Initializing network service ...
14:40:56 - Initializing network service ... completed.
14:40:56 - Initializing complete.
14:41:37 - Verifying grabbing system.
14:41:38 - Running camera callback.
