12:35:17 - Initializing network service ...
12:35:17 - Initializing network service ... completed.
12:35:17 - Initializing complete.
12:35:19 - Verifying grabbing system.
12:35:19 - Running camera callback.
12:35:19 - Camera reports 0
12:35:35 - Finished head tracker loop.
12:35:37 - Verifying grabbing system.
12:35:37 - Running camera callback.
12:35:37 - Camera reports 0
12:35:53 - Finished head tracker loop.
12:36:17 - Verifying grabbing system.
12:36:17 - Running camera callback.
12:36:17 - Camera reports 0
12:36:29 - Finished head tracker loop.
13:36:28 - Verifying grabbing system.
13:36:28 - Running camera callback.
13:36:28 - Camera reports 0
13:37:45 - Finished head tracker loop.
13:39:56 - Verifying grabbing system.
13:39:56 - Running camera callback.
13:39:56 - Camera reports 0
13:40:23 - 0: L (247.04,216.06) +/- (27.31,21.79), R (237.65,217.88) +/- (35.71,19.70))
13:40:23 - 247.0407 0 0 0 0 0 0 0 0 
13:40:29 - 1: L (233.09,213.97) +/- (0.01,0.01), R (224.05,214.56) +/- (0.01,0.04))
13:40:29 - 247.0407 233.0854 0 0 0 0 0 0 0 
13:40:34 - 2: L (217.90,213.94) +/- (0.02,0.02), R (208.12,213.49) +/- (0.08,0.02))
13:40:34 - 247.0407 233.0854 217.8978 0 0 0 0 0 0 
13:40:38 - 3: L (250.70,224.52) +/- (0.12,0.04), R (237.32,227.53) +/- (0.04,0.06))
13:40:38 - 247.0407 233.0854 217.8978 250.6957 0 0 0 0 0 
13:40:42 - 4: L (235.00,225.25) +/- (0.04,0.11), R (222.02,227.27) +/- (0.02,0.12))
13:40:42 - 247.0407 233.0854 217.8978 250.6957 235.0016 0 0 0 0 
13:40:46 - 5: L (219.07,224.11) +/- (0.09,0.05), R (206.17,225.01) +/- (0.02,0.09))
13:40:47 - 247.0407 233.0854 217.8978 250.6957 235.0016 219.0701 0 0 0 
13:40:52 - 6: L (251.55,235.80) +/- (0.06,0.02), R (235.28,239.38) +/- (0.05,0.03))
13:40:52 - 247.0407 233.0854 217.8978 250.6957 235.0016 219.0701 251.5482 0 0 
13:40:57 - 7: L (235.40,235.14) +/- (0.01,0.05), R (218.93,237.25) +/- (0.03,0.08))
13:40:57 - 247.0407 233.0854 217.8978 250.6957 235.0016 219.0701 251.5482 235.4039 0 
13:41:01 - 8: L (219.93,235.56) +/- (0.17,0.10), R (203.76,236.48) +/- (0.03,0.03))
13:41:01 - 247.0407 233.0854 217.8978 250.6957 235.0016 219.0701 251.5482 235.4039 219.9251 
13:41:10 - Calibration finished
13:41:10 - Calibration loop finished.
13:42:00 - Finished EyeCollection`1 consumer  loop : 1804 frames queued; Queued: 10544-12347, Saved: 10544-12347
13:42:00 - Finished EyeTrackerDataAndImages consumer  loop : 1803 frames queued; Queued: 10544-12346, Saved: 10544-12346
13:42:00 - Finished EyeTrackerEvent consumer  loop : 0 frames queued; Queued: -1--1, Saved: -1--1
13:42:43 - Finished head tracker loop.
13:43:03 - Grabber loop finished.
13:43:03 - Process loop finished.
13:43:03 - Process loop finished.
13:43:03 - Process loop finished.
13:43:03 - Process loop finished.
13:43:03 - Output loop finished.
