16:34:54 - Initializing network service ...
16:34:54 - Initializing network service ... completed.
16:34:54 - Initializing complete.
16:35:06 - Error initializating the system, going into simulation mode.
16:35:06 - Object reference not set to an instance of an object.
16:35:19 - Grabber loop finished.
16:35:19 - Process loop finished.
16:35:19 - Process loop finished.
16:35:19 - Process loop finished.
16:35:19 - Process loop finished.
16:35:19 - Output loop finished.
