14:00:53 - Initializing network service ...
14:00:53 - Initializing network service ... completed.
14:00:53 - Initializing complete.
14:00:54 - Verifying grabbing system.
14:00:55 - Running camera callback.
14:00:55 - Camera reports 0
15:03:56 - Finished EyeCollection`1 consumer  loop : 371693 frames queued; Queued: 3121-374813, Saved: 3121-374813
15:03:56 - Finished EyeTrackerDataAndImages consumer  loop : 371692 frames queued; Queued: 3121-374812, Saved: 3121-374812
15:03:56 - Finished EyeTrackerEvent consumer  loop : 0 frames queued; Queued: -1--1, Saved: -1--1
15:04:04 - Finished head tracker loop.
15:04:49 - Verifying grabbing system.
15:04:49 - Running camera callback.
15:04:50 - Camera reports 0
16:07:42 - Finished EyeCollection`1 consumer  loop : 374926 frames queued; Queued: 2095-377020, Saved: 2095-377020
16:07:42 - Finished EyeTrackerDataAndImages consumer  loop : 374925 frames queued; Queued: 2095-377019, Saved: 2095-377019
16:07:42 - Finished EyeTrackerEvent consumer  loop : 0 frames queued; Queued: -1--1, Saved: -1--1
16:16:23 - Error details: lastRawFrameNumber: 429034, currentFrameNumber: 0
16:16:23 - Error grabbing: Frame counter is not consistently growing!.
16:16:23 - FATAL ERROR: FlyCapture2Managed.FC2Exception: Low level failure reading register 0x1100. Error: 0x15.
   at FlyCapture2Managed.ManagedCameraBase.ReadRegister(UInt32 address)
   at OculomotorLab.VOG.ImageGrabbing.CameraEyePointGreyLabyrinth.ReadSensors() in c:\VOG\Local_VOG_with_CamCalib_Emgu_2.4.10_v2 - LatestFlyCapture - New Calibration - New Goggles - Sync Line - Copy\labyrinth\LabryinthVOG\ImageGrabbing\CameraEyePointGreyLabyrinth.cs:line 696
   at OculomotorLab.VOG.ImageGrabbing.CameraEyePointGreyLabyrinth.HeadSensorLabyrinth.GrabHeadData() in c:\VOG\Local_VOG_with_CamCalib_Emgu_2.4.10_v2 - LatestFlyCapture - New Calibration - New Goggles - Sync Line - Copy\labyrinth\LabryinthVOG\HeadTracking\HeadSensorLabyrinth.cs:line 62
   at OculomotorLab.VOG.EyeTrackerHeadTracker.TrackingLoop() in c:\VOG\Local_VOG_with_CamCalib_Emgu_2.4.10_v2 - LatestFlyCapture - New Calibration - New Goggles - Sync Line - Copy\source\VOGLib\HeadTracking\EyeTrackerHeadTracker.cs:line 232
16:16:23 - FATAL ERROR: System.InvalidOperationException: Frame counter is not consistently growing!.
   at OculomotorLab.VOG.ImageGrabbing.CameraEyePointGreyLabyrinth.GrabImageEye() in c:\VOG\Local_VOG_with_CamCalib_Emgu_2.4.10_v2 - LatestFlyCapture - New Calibration - New Goggles - Sync Line - Copy\labyrinth\LabryinthVOG\ImageGrabbing\CameraEyePointGreyLabyrinth.cs:line 639
   at OculomotorLab.VOG.EyeTrackerImageGrabber.GrabImages() in c:\VOG\Local_VOG_with_CamCalib_Emgu_2.4.10_v2 - LatestFlyCapture - New Calibration - New Goggles - Sync Line - Copy\source\VOGLib\EyeTrackerImageGrabber.cs:line 552
   at OculomotorLab.VOG.EyeTrackerImageGrabber.GrabLoop() in c:\VOG\Local_VOG_with_CamCalib_Emgu_2.4.10_v2 - LatestFlyCapture - New Calibration - New Goggles - Sync Line - Copy\source\VOGLib\EyeTrackerImageGrabber.cs:line 478
