11:27:07 - Initializing network service ...
11:27:07 - Initializing network service ... completed.
11:27:07 - Initializing complete.
11:30:27 - Grabber loop finished.
11:30:27 - Process loop finished.
11:30:27 - Process loop finished.
11:30:27 - Process loop finished.
11:30:27 - Process loop finished.
11:30:27 - Output loop finished.
