19:04:31 - Initializing network service ...
19:04:32 - Initializing network service ... completed.
19:04:33 - Initializing complete.
19:04:35 - Waiting for camera...
19:04:35 - Verifying grabbing system.
19:04:36 - Running camera callback.
19:04:36 - Camera reports 0
19:05:13 - 0: L (244.12,205.77) +/- (560.16,305.79), R (287.52,166.52) +/- (464.72,235.56))
19:05:13 - 244.1152 0 0 0 0 0 0 0 0 
19:05:14 - An error occured, cannot finalize calibration implmentation.
19:05:14 - Calibration loop finished.
19:05:19 - 0: L (263.15,192.37) +/- (1.52,0.58), R (302.33,154.33) +/- (1.37,1.10))
19:05:19 - 263.1502 0 0 0 0 0 0 0 0 
19:05:21 - 1: L (239.69,194.15) +/- (0.05,0.07), R (277.27,155.05) +/- (0.07,0.12))
19:05:22 - 263.1502 239.6904 0 0 0 0 0 0 0 
19:05:24 - 2: L (213.89,195.25) +/- (0.25,0.14), R (252.07,155.04) +/- (0.04,0.17))
19:05:24 - 263.1502 239.6904 213.8893 0 0 0 0 0 0 
19:05:27 - 3: L (265.86,215.85) +/- (0.06,0.30), R (301.97,177.38) +/- (0.11,0.21))
19:05:27 - 263.1502 239.6904 213.8893 265.8645 0 0 0 0 0 
19:05:30 - 4: L (240.11,216.17) +/- (0.56,0.19), R (277.14,176.91) +/- (0.36,0.12))
19:05:30 - 263.1502 239.6904 213.8893 265.8645 240.1078 0 0 0 0 
19:05:32 - 5: L (214.64,216.27) +/- (0.09,0.10), R (252.63,175.10) +/- (0.13,0.10))
19:05:33 - 263.1502 239.6904 213.8893 265.8645 240.1078 214.6388 0 0 0 
19:05:35 - 6: L (265.64,236.63) +/- (0.05,0.13), R (302.23,198.08) +/- (0.22,0.08))
19:05:35 - 263.1502 239.6904 213.8893 265.8645 240.1078 214.6388 265.6425 0 0 
19:05:38 - 7: L (241.27,236.73) +/- (0.10,0.06), R (276.85,197.20) +/- (0.03,0.08))
19:05:38 - 263.1502 239.6904 213.8893 265.8645 240.1078 214.6388 265.6425 241.2654 0 
19:05:41 - 8: L (215.16,237.32) +/- (0.01,0.10), R (252.25,196.94) +/- (0.03,0.08))
19:05:41 - 263.1502 239.6904 213.8893 265.8645 240.1078 214.6388 265.6425 241.2654 215.1622 
19:05:58 - Calibration finished
19:05:58 - FATAL ERROR: System.IndexOutOfRangeException: Index was outside the bounds of the array.
   at OculomotorLab.VOG.EyeTrackerCalibrationManager.Polynomial_Surface_Mult(Double[] Coeffs, Double HPixelVal, Double VPixelVal) in c:\VOG\Local_VOG_with_CamCalib_Emgu_2.4.10_v2 - LatestFlyCapture - New Calibration\source\VOGLib\EyeTrackerCalibrationManager.cs:line 419
   at OculomotorLab.VOG.EyeTrackerCalibrationManager.GetCalibratedEyeData(EyeData eyeData) in c:\VOG\Local_VOG_with_CamCalib_Emgu_2.4.10_v2 - LatestFlyCapture - New Calibration\source\VOGLib\EyeTrackerCalibrationManager.cs:line 365
   at OculomotorLab.VOG.EyeTracker.HandleNewProcessedImages(EyeCollection`1 images) in c:\VOG\Local_VOG_with_CamCalib_Emgu_2.4.10_v2 - LatestFlyCapture - New Calibration\source\VOGLib\EyeTracker.cs:line 645
19:05:58 - Finished head tracker loop.
19:05:58 - FATAL ERROR: System.IndexOutOfRangeException: Index was outside the bounds of the array.
   at OculomotorLab.VOG.EyeTrackerCalibrationManager.Polynomial_Surface_Mult(Double[] Coeffs, Double HPixelVal, Double VPixelVal) in c:\VOG\Local_VOG_with_CamCalib_Emgu_2.4.10_v2 - LatestFlyCapture - New Calibration\source\VOGLib\EyeTrackerCalibrationManager.cs:line 419
   at OculomotorLab.VOG.EyeTrackerCalibrationManager.GetCalibratedEyeData(EyeData eyeData) in c:\VOG\Local_VOG_with_CamCalib_Emgu_2.4.10_v2 - LatestFlyCapture - New Calibration\source\VOGLib\EyeTrackerCalibrationManager.cs:line 365
   at OculomotorLab.VOG.EyeTracker.HandleNewProcessedImages(EyeCollection`1 images) in c:\VOG\Local_VOG_with_CamCalib_Emgu_2.4.10_v2 - LatestFlyCapture - New Calibration\source\VOGLib\EyeTracker.cs:line 645
19:05:58 - Calibration loop finished.
19:05:58 - FATAL ERROR: System.IndexOutOfRangeException: Index was outside the bounds of the array.
   at OculomotorLab.VOG.EyeTrackerCalibrationManager.Polynomial_Surface_Mult(Double[] Coeffs, Double HPixelVal, Double VPixelVal) in c:\VOG\Local_VOG_with_CamCalib_Emgu_2.4.10_v2 - LatestFlyCapture - New Calibration\source\VOGLib\EyeTrackerCalibrationManager.cs:line 419
   at OculomotorLab.VOG.EyeTrackerCalibrationManager.GetCalibratedEyeData(EyeData eyeData) in c:\VOG\Local_VOG_with_CamCalib_Emgu_2.4.10_v2 - LatestFlyCapture - New Calibration\source\VOGLib\EyeTrackerCalibrationManager.cs:line 365
   at OculomotorLab.VOG.EyeTracker.HandleNewProcessedImages(EyeCollection`1 images) in c:\VOG\Local_VOG_with_CamCalib_Emgu_2.4.10_v2 - LatestFlyCapture - New Calibration\source\VOGLib\EyeTracker.cs:line 645
19:05:58 - FATAL ERROR: System.IndexOutOfRangeException: Index was outside the bounds of the array.
   at OculomotorLab.VOG.EyeTrackerCalibrationManager.Polynomial_Surface_Mult(Double[] Coeffs, Double HPixelVal, Double VPixelVal) in c:\VOG\Local_VOG_with_CamCalib_Emgu_2.4.10_v2 - LatestFlyCapture - New Calibration\source\VOGLib\EyeTrackerCalibrationManager.cs:line 419
   at OculomotorLab.VOG.EyeTrackerCalibrationManager.GetCalibratedEyeData(EyeData eyeData) in c:\VOG\Local_VOG_with_CamCalib_Emgu_2.4.10_v2 - LatestFlyCapture - New Calibration\source\VOGLib\EyeTrackerCalibrationManager.cs:line 365
   at OculomotorLab.VOG.EyeTracker.HandleNewProcessedImages(EyeCollection`1 images) in c:\VOG\Local_VOG_with_CamCalib_Emgu_2.4.10_v2 - LatestFlyCapture - New Calibration\source\VOGLib\EyeTracker.cs:line 645
19:05:58 - FATAL ERROR: System.IndexOutOfRangeException: Index was outside the bounds of the array.
   at OculomotorLab.VOG.EyeTrackerCalibrationManager.Polynomial_Surface_Mult(Double[] Coeffs, Double HPixelVal, Double VPixelVal) in c:\VOG\Local_VOG_with_CamCalib_Emgu_2.4.10_v2 - LatestFlyCapture - New Calibration\source\VOGLib\EyeTrackerCalibrationManager.cs:line 419
   at OculomotorLab.VOG.EyeTrackerCalibrationManager.GetCalibratedEyeData(EyeData eyeData) in c:\VOG\Local_VOG_with_CamCalib_Emgu_2.4.10_v2 - LatestFlyCapture - New Calibration\source\VOGLib\EyeTrackerCalibrationManager.cs:line 365
   at OculomotorLab.VOG.EyeTracker.HandleNewProcessedImages(EyeCollection`1 images) in c:\VOG\Local_VOG_with_CamCalib_Emgu_2.4.10_v2 - LatestFlyCapture - New Calibration\source\VOGLib\EyeTracker.cs:line 645
19:05:58 - FATAL ERROR: System.IndexOutOfRangeException: Index was outside the bounds of the array.
   at OculomotorLab.VOG.EyeTrackerCalibrationManager.Polynomial_Surface_Mult(Double[] Coeffs, Double HPixelVal, Double VPixelVal) in c:\VOG\Local_VOG_with_CamCalib_Emgu_2.4.10_v2 - LatestFlyCapture - New Calibration\source\VOGLib\EyeTrackerCalibrationManager.cs:line 419
   at OculomotorLab.VOG.EyeTrackerCalibrationManager.GetCalibratedEyeData(EyeData eyeData) in c:\VOG\Local_VOG_with_CamCalib_Emgu_2.4.10_v2 - LatestFlyCapture - New Calibration\source\VOGLib\EyeTrackerCalibrationManager.cs:line 365
   at OculomotorLab.VOG.EyeTracker.HandleNewProcessedImages(EyeCollection`1 images) in c:\VOG\Local_VOG_with_CamCalib_Emgu_2.4.10_v2 - LatestFlyCapture - New Calibration\source\VOGLib\EyeTracker.cs:line 645
19:05:58 - FATAL ERROR: System.IndexOutOfRangeException: Index was outside the bounds of the array.
   at OculomotorLab.VOG.EyeTrackerCalibrationManager.Polynomial_Surface_Mult(Double[] Coeffs, Double HPixelVal, Double VPixelVal) in c:\VOG\Local_VOG_with_CamCalib_Emgu_2.4.10_v2 - LatestFlyCapture - New Calibration\source\VOGLib\EyeTrackerCalibrationManager.cs:line 419
   at OculomotorLab.VOG.EyeTrackerCalibrationManager.GetCalibratedEyeData(EyeData eyeData) in c:\VOG\Local_VOG_with_CamCalib_Emgu_2.4.10_v2 - LatestFlyCapture - New Calibration\source\VOGLib\EyeTrackerCalibrationManager.cs:line 365
   at OculomotorLab.VOG.EyeTracker.HandleNewProcessedImages(EyeCollection`1 images) in c:\VOG\Local_VOG_with_CamCalib_Emgu_2.4.10_v2 - LatestFlyCapture - New Calibration\source\VOGLib\EyeTracker.cs:line 645
19:05:58 - FATAL ERROR: System.IndexOutOfRangeException: Index was outside the bounds of the array.
   at OculomotorLab.VOG.EyeTrackerCalibrationManager.Polynomial_Surface_Mult(Double[] Coeffs, Double HPixelVal, Double VPixelVal) in c:\VOG\Local_VOG_with_CamCalib_Emgu_2.4.10_v2 - LatestFlyCapture - New Calibration\source\VOGLib\EyeTrackerCalibrationManager.cs:line 419
   at OculomotorLab.VOG.EyeTrackerCalibrationManager.GetCalibratedEyeData(EyeData eyeData) in c:\VOG\Local_VOG_with_CamCalib_Emgu_2.4.10_v2 - LatestFlyCapture - New Calibration\source\VOGLib\EyeTrackerCalibrationManager.cs:line 365
   at OculomotorLab.VOG.EyeTracker.HandleNewProcessedImages(EyeCollection`1 images) in c:\VOG\Local_VOG_with_CamCalib_Emgu_2.4.10_v2 - LatestFlyCapture - New Calibration\source\VOGLib\EyeTracker.cs:line 645
19:05:58 - FATAL ERROR: System.IndexOutOfRangeException: Index was outside the bounds of the array.
   at OculomotorLab.VOG.EyeTrackerCalibrationManager.Polynomial_Surface_Mult(Double[] Coeffs, Double HPixelVal, Double VPixelVal) in c:\VOG\Local_VOG_with_CamCalib_Emgu_2.4.10_v2 - LatestFlyCapture - New Calibration\source\VOGLib\EyeTrackerCalibrationManager.cs:line 419
   at OculomotorLab.VOG.EyeTrackerCalibrationManager.GetCalibratedEyeData(EyeData eyeData) in c:\VOG\Local_VOG_with_CamCalib_Emgu_2.4.10_v2 - LatestFlyCapture - New Calibration\source\VOGLib\EyeTrackerCalibrationManager.cs:line 365
   at OculomotorLab.VOG.EyeTracker.HandleNewProcessedImages(EyeCollection`1 images) in c:\VOG\Local_VOG_with_CamCalib_Emgu_2.4.10_v2 - LatestFlyCapture - New Calibration\source\VOGLib\EyeTracker.cs:line 645
19:05:58 - FATAL ERROR: System.IndexOutOfRangeException: Index was outside the bounds of the array.
   at OculomotorLab.VOG.EyeTrackerCalibrationManager.Polynomial_Surface_Mult(Double[] Coeffs, Double HPixelVal, Double VPixelVal) in c:\VOG\Local_VOG_with_CamCalib_Emgu_2.4.10_v2 - LatestFlyCapture - New Calibration\source\VOGLib\EyeTrackerCalibrationManager.cs:line 419
   at OculomotorLab.VOG.EyeTrackerCalibrationManager.GetCalibratedEyeData(EyeData eyeData) in c:\VOG\Local_VOG_with_CamCalib_Emgu_2.4.10_v2 - LatestFlyCapture - New Calibration\source\VOGLib\EyeTrackerCalibrationManager.cs:line 365
   at OculomotorLab.VOG.EyeTracker.HandleNewProcessedImages(EyeCollection`1 images) in c:\VOG\Local_VOG_with_CamCalib_Emgu_2.4.10_v2 - LatestFlyCapture - New Calibration\source\VOGLib\EyeTracker.cs:line 645
