11:59:23 - Initializing network service ...
11:59:23 - Initializing network service ... completed.
11:59:24 - Initializing complete.
10:53:12 - Verifying grabbing system.
10:53:13 - Running camera callback.
10:53:13 - Camera reports 1
10:53:22 - Finished head tracker loop.
11:09:58 - Grabber loop finished.
11:09:58 - Process loop finished.
11:09:58 - Process loop finished.
11:09:58 - Process loop finished.
11:09:58 - Process loop finished.
11:09:58 - Output loop finished.
