17:02:43 - Initializing network service ...
17:02:43 - Initializing network service ... completed.
17:02:43 - Initializing complete.
17:02:47 - Verifying grabbing system.
17:02:47 - Running camera callback.
17:02:47 - Camera reports 0
