11:49:17 - Initializing network service ...
11:49:18 - Initializing network service ... completed.
11:49:18 - Initializing complete.
11:49:21 - Verifying grabbing system.
11:49:21 - Running camera callback.
11:49:22 - Camera reports 52
11:49:28 - Finished head tracker loop.
11:49:31 - Grabber loop finished.
11:49:31 - Process loop finished.
11:49:31 - Process loop finished.
11:49:31 - Process loop finished.
11:49:31 - Process loop finished.
11:49:31 - Output loop finished.
