11:47:50 - Initializing network service ...
11:47:50 - Initializing network service ... completed.
11:47:50 - Initializing complete.
11:47:53 - Verifying grabbing system.
11:47:53 - Running camera callback.
11:47:53 - Camera reports 48
11:47:57 - Finished head tracker loop.
11:48:00 - Verifying grabbing system.
11:48:00 - Running camera callback.
11:48:00 - Camera reports 0
11:48:09 - Finished head tracker loop.
11:48:12 - Verifying grabbing system.
11:48:12 - Running camera callback.
11:48:12 - Camera reports 0
11:48:14 - Finished head tracker loop.
11:48:17 - Grabber loop finished.
11:48:17 - Process loop finished.
11:48:17 - Process loop finished.
11:48:17 - Process loop finished.
11:48:17 - Process loop finished.
11:48:17 - Output loop finished.
