15:25:04 - Initializing network service ...
15:25:04 - Initializing network service ... completed.
15:25:04 - Initializing complete.
15:25:07 - Verifying grabbing system.
15:25:07 - Running camera callback.
