17:58:09 - Initializing network service ...
17:58:09 - Initializing network service ... completed.
17:58:09 - Initializing complete.
17:58:12 - Verifying grabbing system.
17:58:12 - Running camera callback.
17:58:25 - Calibration finished
17:58:25 - Calibration loop finished.
17:59:10 - Finished head tracker loop.
17:59:20 - Grabber loop finished.
17:59:20 - Process loop finished.
17:59:20 - Process loop finished.
17:59:20 - Process loop finished.
17:59:20 - Process loop finished.
17:59:20 - Output loop finished.
