15:52:16 - Initializing network service ...
15:52:16 - Initializing network service ... completed.
15:52:16 - Initializing complete.
15:52:23 - Verifying grabbing system.
15:52:23 - Running camera callback.
15:52:24 - Camera reports 0
15:52:45 - Could not find a part of the path 'C:\VOG\Data\Calibration\SESSION-2016Jul18-155245.csv'.
15:52:47 - 0: L (110.33,171.25) +/- (10179.63,23219.28), R (321.21,305.17) +/- (2773.68,377.44))
15:52:53 - An error occured, cannot finalize calibration implmentation.
15:52:53 - Calibration loop finished.
15:52:59 - Finished head tracker loop.
15:53:10 - Verifying grabbing system.
15:53:10 - Running camera callback.
15:53:10 - Camera reports 0
15:53:56 - Could not find a part of the path 'C:\VOG\Data\Calibration\SESSION-2016Jul18-155356.csv'.
15:53:58 - 0: L (204.33,340.80) +/- (0.27,0.66), R (288.02,327.40) +/- (0.17,0.33))
15:54:05 - 1: L (203.77,317.04) +/- (0.12,0.08), R (289.60,302.62) +/- (0.60,0.06))
15:54:11 - 2: L (178.43,342.17) +/- (0.10,0.02), R (263.28,328.04) +/- (0.19,0.05))
15:54:17 - 3: L (27.08,51.30) +/- (4156.36,14913.21), R (284.48,349.09) +/- (83.54,75.40))
15:54:22 - 4: L (230.43,340.26) +/- (0.04,0.18), R (314.38,326.44) +/- (0.03,0.16))
15:54:23 - Calibration finished
15:54:23 - Calibration loop finished.
15:55:13 - Finished EyeCollection`1 consumer  loop : 1549 frames queued; Queued: 10685-12233, Saved: 10685-12233
15:55:13 - Finished EyeTrackerDataAndImages consumer  loop : 904 frames queued; Queued: 10685-12058, Saved: 10685-12058
15:55:13 - Finished EyeTrackerEvent consumer  loop : 0 frames queued; Queued: -1--1, Saved: -1--1
15:56:37 - Finished head tracker loop.
15:56:37 - Finished EyeCollection`1 consumer  loop : 4968 frames queued; Queued: 15724-20691, Saved: 15724-20691
15:56:37 - Finished EyeTrackerDataAndImages consumer  loop : 3035 frames queued; Queued: 15724-20539, Saved: 15724-20539
15:56:37 - Finished EyeTrackerEvent consumer  loop : 0 frames queued; Queued: -1--1, Saved: -1--1
16:13:31 - Grabber loop finished.
16:13:31 - Process loop finished.
16:13:31 - Process loop finished.
16:13:31 - Process loop finished.
16:13:31 - Process loop finished.
16:13:31 - Output loop finished.
