18:00:07 - Initializing network service ...
18:00:07 - Initializing network service ... completed.
18:00:07 - Initializing complete.
18:00:11 - Verifying grabbing system.
18:00:12 - Running camera callback.
18:00:12 - Waiting for camera...
18:00:12 - Camera reports 0
18:03:56 - An error occured, cannot finalize calibration implmentation.
18:03:56 - Calibration loop finished.
18:04:03 - 0: L (314.55,117.93) +/- (0.87,0.23), R (303.01,70.66) +/- (1.18,0.18))
18:04:04 - 314.5487 0 0 0 0 0 0 0 0 
18:04:09 - 1: L (290.17,117.94) +/- (0.48,0.08), R (278.31,72.85) +/- (0.28,0.07))
18:04:09 - 314.5487 290.1655 0 0 0 0 0 0 0 
18:04:15 - 2: L (267.18,117.87) +/- (0.82,0.19), R (254.64,74.69) +/- (0.49,0.18))
18:04:16 - 314.5487 290.1655 267.1807 0 0 0 0 0 0 
18:04:23 - 3: L (327.31,142.00) +/- (0.12,0.15), R (315.02,93.20) +/- (0.09,0.25))
18:04:25 - 314.5487 290.1655 267.1807 327.3062 0 0 0 0 0 
18:04:30 - 4: L (302.12,138.07) +/- (0.25,0.10), R (287.43,90.60) +/- (0.16,0.10))
18:04:30 - 314.5487 290.1655 267.1807 327.3062 302.1166 0 0 0 0 
18:04:39 - 5: L (279.02,137.08) +/- (0.06,0.07), R (264.00,92.22) +/- (0.07,0.11))
18:04:39 - 314.5487 290.1655 267.1807 327.3062 302.1166 279.0171 0 0 0 
18:04:46 - 6: L (336.79,159.37) +/- (0.09,0.06), R (324.58,109.18) +/- (0.04,0.16))
18:04:47 - 314.5487 290.1655 267.1807 327.3062 302.1166 279.0171 336.7915 0 0 
18:04:53 - 7: L (307.77,160.22) +/- (0.16,0.05), R (293.78,111.77) +/- (0.40,0.04))
18:05:04 - 8: L (292.39,160.55) +/- (0.62,1.61), R (274.76,113.36) +/- (0.66,0.52))
18:05:05 - 314.5487 290.1655 267.1807 327.3062 302.1166 279.0171 336.7915 307.7663 292.3894 
18:05:14 - Calibration finished
18:05:14 - Calibration loop finished.
18:09:11 - 0: L (305.77,151.07) +/- (181.89,80.91), R (290.08,101.22) +/- (227.54,141.89))
18:09:11 - 305.7688 0 0 0 0 0 0 0 0 
18:09:15 - 1: L (293.76,139.54) +/- (0.24,0.26), R (277.03,88.61) +/- (0.26,0.30))
18:09:15 - 305.7688 293.7607 0 0 0 0 0 0 0 
18:09:18 - An error occured, cannot finalize calibration implmentation.
18:09:18 - Calibration loop finished.
18:09:24 - 0: L (297.59,135.99) +/- (0.26,0.07), R (282.85,86.31) +/- (0.37,0.18))
18:09:24 - 297.5948 0 0 0 0 0 0 0 0 
18:09:29 - 1: L (278.20,133.54) +/- (1.35,0.12), R (262.65,84.96) +/- (0.49,0.14))
18:09:29 - 297.5948 278.2041 0 0 0 0 0 0 0 
18:09:34 - 2: L (258.60,133.02) +/- (0.60,0.10), R (243.00,86.08) +/- (0.57,0.13))
18:09:34 - 297.5948 278.2041 258.6015 0 0 0 0 0 0 
18:09:41 - 3: L (313.65,155.95) +/- (0.28,0.12), R (299.67,105.50) +/- (0.14,0.07))
18:09:41 - 297.5948 278.2041 258.6015 313.647 0 0 0 0 0 
18:09:48 - 4: L (287.15,162.87) +/- (0.19,0.15), R (268.61,109.68) +/- (0.24,0.16))
18:09:49 - 297.5948 278.2041 258.6015 313.647 287.1525 0 0 0 0 
18:09:58 - 5: L (273.12,150.17) +/- (0.44,0.20), R (255.10,100.28) +/- (0.48,0.07))
18:09:59 - 297.5948 278.2041 258.6015 313.647 287.1525 273.1247 0 0 0 
18:10:07 - An error occured, cannot finalize calibration implmentation.
18:10:07 - Calibration loop finished.
18:10:09 - An error occured, cannot finalize calibration implmentation.
18:10:09 - Calibration loop finished.
18:10:27 - 0: L (306.95,146.99) +/- (0.32,1.36), R (289.84,89.74) +/- (1.13,1.53))
18:10:27 - 306.9549 0 0 0 0 0 0 0 0 
18:10:29 - An error occured, cannot finalize calibration implmentation.
18:10:29 - Calibration loop finished.
18:10:33 - 0: L (297.56,142.14) +/- (167.39,4.25), R (282.00,88.80) +/- (181.79,1.05))
18:10:33 - 297.5629 0 0 0 0 0 0 0 0 
18:10:34 - An error occured, cannot finalize calibration implmentation.
18:10:34 - Calibration loop finished.
18:10:38 - 0: L (297.83,149.85) +/- (110.02,2.05), R (282.04,92.61) +/- (123.57,5.08))
18:10:38 - 297.8303 0 0 0 0 0 0 0 0 
18:10:40 - An error occured, cannot finalize calibration implmentation.
18:10:40 - Calibration loop finished.
18:10:47 - 0: L (316.04,146.01) +/- (0.21,0.13), R (302.39,89.72) +/- (0.40,0.04))
18:10:48 - 316.0377 0 0 0 0 0 0 0 0 
18:10:49 - An error occured, cannot finalize calibration implmentation.
18:10:49 - Calibration loop finished.
18:10:59 - 0: L (308.10,147.44) +/- (0.06,0.84), R (294.13,91.01) +/- (0.07,0.34))
18:10:59 - 308.0981 0 0 0 0 0 0 0 0 
18:11:04 - 1: L (284.70,145.64) +/- (0.12,0.21), R (270.27,91.11) +/- (0.02,0.36))
18:11:04 - 308.0981 284.6987 0 0 0 0 0 0 0 
18:11:08 - 2: L (258.52,144.23) +/- (0.01,0.02), R (243.09,92.42) +/- (0.06,0.15))
18:11:08 - 308.0981 284.6987 258.5228 0 0 0 0 0 0 
18:11:15 - 3: L (310.66,164.55) +/- (0.19,0.57), R (293.34,110.69) +/- (0.79,0.62))
18:11:15 - 308.0981 284.6987 258.5228 310.6584 0 0 0 0 0 
18:11:20 - 4: L (283.42,164.42) +/- (0.16,0.02), R (265.46,111.32) +/- (0.04,0.10))
18:11:20 - 308.0981 284.6987 258.5228 310.6584 283.4151 0 0 0 0 
18:11:25 - 5: L (257.23,163.77) +/- (0.15,0.06), R (238.05,113.64) +/- (0.43,0.09))
18:11:25 - 308.0981 284.6987 258.5228 310.6584 283.4151 257.2336 0 0 0 
18:11:31 - 6: L (312.46,182.79) +/- (0.21,0.05), R (296.17,130.36) +/- (0.30,0.15))
18:11:31 - 308.0981 284.6987 258.5228 310.6584 283.4151 257.2336 312.4571 0 0 
18:11:35 - 7: L (288.13,181.04) +/- (0.04,0.09), R (271.19,130.66) +/- (0.20,0.20))
18:11:35 - 308.0981 284.6987 258.5228 310.6584 283.4151 257.2336 312.4571 288.1311 0 
18:11:40 - 8: L (261.27,181.09) +/- (0.18,0.31), R (244.02,132.50) +/- (0.30,0.69))
18:11:40 - 308.0981 284.6987 258.5228 310.6584 283.4151 257.2336 312.4571 288.1311 261.2678 
18:11:50 - Calibration finished
18:11:50 - Calibration loop finished.
18:12:23 - Calibration finished
18:12:23 - Calibration loop finished.
18:12:36 - Calibration finished
18:12:36 - Calibration loop finished.
18:13:20 - 0: L (294.53,153.08) +/- (759.57,628.62), R (279.87,103.51) +/- (936.75,686.18))
18:13:22 - 294.5302 0 0 0 0 0 0 0 0 
18:13:25 - An error occured, cannot finalize calibration implmentation.
18:13:25 - Calibration loop finished.
18:13:31 - 0: L (313.98,137.24) +/- (0.11,0.04), R (298.33,81.44) +/- (0.14,0.05))
18:13:31 - 313.9805 0 0 0 0 0 0 0 0 
18:13:35 - 1: L (288.97,133.71) +/- (0.10,0.08), R (272.34,80.14) +/- (0.12,0.13))
18:13:35 - 313.9805 288.9677 0 0 0 0 0 0 0 
18:13:40 - 2: L (262.55,133.37) +/- (0.13,0.02), R (245.89,82.60) +/- (0.10,0.05))
18:13:40 - 313.9805 288.9677 262.5531 0 0 0 0 0 0 
18:13:44 - 3: L (317.88,151.38) +/- (0.09,0.17), R (302.51,98.16) +/- (0.04,0.16))
18:13:44 - 313.9805 288.9677 262.5531 317.8777 0 0 0 0 0 
18:13:48 - 4: L (291.66,149.02) +/- (0.27,0.48), R (273.98,98.37) +/- (0.11,0.81))
18:13:48 - 313.9805 288.9677 262.5531 317.8777 291.6552 0 0 0 0 
18:13:53 - 5: L (266.52,147.91) +/- (0.52,0.12), R (248.57,99.74) +/- (0.36,0.07))
18:13:53 - 313.9805 288.9677 262.5531 317.8777 291.6552 266.5194 0 0 0 
18:13:57 - 6: L (321.48,169.20) +/- (0.10,0.13), R (306.53,118.70) +/- (0.01,0.08))
18:13:57 - 313.9805 288.9677 262.5531 317.8777 291.6552 266.5194 321.4778 0 0 
18:14:01 - 7: L (295.21,167.50) +/- (0.12,0.03), R (278.73,118.56) +/- (0.04,0.18))
18:14:01 - 313.9805 288.9677 262.5531 317.8777 291.6552 266.5194 321.4778 295.2111 0 
18:14:05 - 8: L (268.58,167.33) +/- (0.20,0.02), R (251.83,120.36) +/- (0.03,0.08))
18:14:06 - 313.9805 288.9677 262.5531 317.8777 291.6552 266.5194 321.4778 295.2111 268.5833 
18:14:16 - Calibration finished
18:14:16 - Calibration loop finished.
18:32:37 - Finished EyeCollection`1 consumer  loop : 104449 frames queued; Queued: 88332-192780, Saved: 88332-192780
18:32:37 - Finished EyeTrackerDataAndImages consumer  loop : 104446 frames queued; Queued: 88332-192777, Saved: 88332-192777
18:32:37 - Finished EyeTrackerEvent consumer  loop : 0 frames queued; Queued: -1--1, Saved: -1--1
18:33:30 - Finished head tracker loop.
18:33:30 - Grabber loop finished.
18:33:30 - Process loop finished.
18:33:30 - Process loop finished.
18:33:30 - Process loop finished.
18:33:30 - Process loop finished.
18:33:30 - Output loop finished.
