16:55:51 - Initializing network service ...
16:55:52 - Initializing network service ... completed.
16:55:52 - Initializing complete.
16:55:58 - Verifying grabbing system.
16:55:58 - Running camera callback.
16:55:58 - Error grabbing: Object reference not set to an instance of an object.
16:55:58 - FATAL ERROR: System.NullReferenceException: Object reference not set to an instance of an object.
   at OculomotorLab.VOG.EyeTrackingSystemLabyrinthAcc.PreProcessImagesFromCameras(EyeCollection`1 images) in c:\VOG\Local_VOG_with_CamCalib_Emgu_2.4.10_v2 - LatestFlyCapture\labyrinth\LabryinthVOG\EyeTrackingSystems\EyeTrackingSystemLabyrinthAcc.cs:line 130
   at OculomotorLab.VOG.EyeTrackerImageGrabber.GrabLoop() in c:\VOG\Local_VOG_with_CamCalib_Emgu_2.4.10_v2 - LatestFlyCapture\source\VOGLib\EyeTrackerImageGrabber.cs:line 460
16:55:58 - Finished head tracker loop.
