22:26:36 - Initializing network service ...
22:26:36 - Initializing network service ... completed.
22:26:36 - Initializing complete.
22:26:38 - Waiting for camera...
22:26:51 - Verifying grabbing system.
22:26:52 - Running camera callback.
22:27:04 - Camera reports 0
22:28:06 - Finished head tracker loop.
22:28:08 - Grabber loop finished.
22:28:08 - Process loop finished.
22:28:08 - Process loop finished.
22:28:08 - Process loop finished.
22:28:08 - Process loop finished.
22:28:08 - Output loop finished.
