17:17:30 - Initializing network service ...
17:17:30 - Initializing network service ... completed.
17:17:31 - Initializing complete.
17:17:34 - Verifying grabbing system.
17:17:34 - Running camera callback.
17:17:34 - Waiting for camera...
17:17:34 - Camera reports 1
17:18:40 - Finished EyeCollection`1 consumer  loop : 1440 frames queued; Queued: 5172-6611, Saved: 5172-6611
17:18:40 - Finished EyeTrackerDataAndImages consumer  loop : 1007 frames queued; Queued: 5172-6478, Saved: 5172-6478
17:18:40 - Finished EyeTrackerEvent consumer  loop : 0 frames queued; Queued: -1--1, Saved: -1--1
17:19:11 - Finished EyeCollection`1 consumer  loop : 2026 frames queued; Queued: 7670-9695, Saved: 7670-9695
17:19:11 - Finished EyeTrackerDataAndImages consumer  loop : 1453 frames queued; Queued: 7670-9551, Saved: 7670-9551
17:19:11 - Finished EyeTrackerEvent consumer  loop : 0 frames queued; Queued: -1--1, Saved: -1--1
17:20:14 - Finished EyeCollection`1 consumer  loop : 6105 frames queued; Queued: 9864-15968, Saved: 9864-15968
17:20:14 - Finished EyeTrackerDataAndImages consumer  loop : 4674 frames queued; Queued: 9864-15823, Saved: 9864-15823
17:20:14 - Finished EyeTrackerEvent consumer  loop : 0 frames queued; Queued: -1--1, Saved: -1--1
17:20:33 - Finished head tracker loop.
18:06:29 - Grabber loop finished.
18:06:29 - Process loop finished.
18:06:29 - Process loop finished.
18:06:29 - Process loop finished.
18:06:29 - Process loop finished.
18:06:29 - Output loop finished.
