18:41:33 - Initializing network service ...
18:41:33 - Initializing network service ... completed.
18:41:33 - Initializing complete.
18:41:35 - Grabber loop finished.
18:41:35 - Process loop finished.
18:41:35 - Process loop finished.
18:41:35 - Process loop finished.
18:41:35 - Process loop finished.
18:41:35 - Output loop finished.
