17:11:29 - Initializing network service ...
17:11:29 - Initializing network service ... completed.
17:11:29 - Initializing complete.
17:11:31 - Verifying grabbing system.
17:11:31 - Running camera callback.
17:11:31 - Camera reports 0
17:12:18 - Finished head tracker loop.
17:12:21 - Grabber loop finished.
17:12:21 - Process loop finished.
17:12:21 - Process loop finished.
17:12:21 - Process loop finished.
17:12:21 - Process loop finished.
17:12:21 - Output loop finished.
