18:52:26 - Initializing network service ...
18:52:26 - Initializing network service ... completed.
18:52:26 - Initializing complete.
18:52:28 - Verifying grabbing system.
18:52:28 - Running camera callback.
18:52:28 - Camera reports 0
19:05:26 - Finished EyeCollection`1 consumer  loop : 2890 frames queued; Queued: 74194-77083, Saved: 74194-77083
19:05:26 - Finished EyeTrackerDataAndImages consumer  loop : 2889 frames queued; Queued: 74194-77082, Saved: 74194-77082
19:05:26 - Finished EyeTrackerEvent consumer  loop : 0 frames queued; Queued: -1--1, Saved: -1--1
19:09:22 - Finished EyeCollection`1 consumer  loop : 2778 frames queued; Queued: 97798-100575, Saved: 97798-100575
19:09:22 - Finished EyeTrackerDataAndImages consumer  loop : 2777 frames queued; Queued: 97798-100574, Saved: 97798-100574
19:09:22 - Finished EyeTrackerEvent consumer  loop : 0 frames queued; Queued: -1--1, Saved: -1--1
19:09:24 - Finished head tracker loop.
