15:24:50 - Initializing network service ...
15:24:51 - Error starting service: There is already a listener on IP endpoint 0.0.0.0:9000. This could happen if there is another application already listening on this endpoint or if you have multiple service endpoints in your service host with the same IP endpoint but with incompatible binding configurations.
15:24:51 - Initializing network service ... completed.
15:24:51 - Initializing complete.
15:24:59 - Verifying grabbing system.
15:24:59 - Running camera callback.
15:25:19 - Camera reports 0
15:26:29 - Finished EyeCollection`1 consumer  loop : 2993 frames queued; Queued: 4015-7007, Saved: 4015-7007
15:26:29 - Finished EyeTrackerDataAndImages consumer  loop : 2993 frames queued; Queued: 4015-7007, Saved: 4015-7007
15:26:29 - Finished EyeTrackerEvent consumer  loop : 0 frames queued; Queued: -1--1, Saved: -1--1
15:26:32 - Finished head tracker loop.
16:35:37 - Grabber loop finished.
16:35:37 - Process loop finished.
16:35:37 - Process loop finished.
16:35:37 - Process loop finished.
16:35:37 - Process loop finished.
16:35:37 - Output loop finished.
