10:54:02 - Initializing network service ...
10:54:02 - Initializing network service ... completed.
10:54:02 - Initializing complete.
10:59:00 - Waiting for camera...
10:59:00 - Verifying grabbing system.
10:59:00 - Running camera callback.
10:59:00 - Camera reports 0
11:01:45 - 2016-11-02-11:01:45.865 16347 M: KEYPRESS D: 
11:01:45 - 2016-11-02-11:01:45.865 16347 M: KEYPRESS D: 8
11:01:57 - 0: L (315.94,120.17) +/- (0.41,0.04), R (250.51,111.60) +/- (0.29,0.03))
11:01:57 - 315.9423 0 0 0 0 0 0 0 0 
11:02:00 - An error occured, cannot finalize calibration implmentation.
11:02:00 - Calibration loop finished.
11:02:11 - 0: L (171.50,62.66) +/- (24555.77,3278.07), R (249.42,111.14) +/- (0.28,0.01))
11:02:11 - 171.5013 0 0 0 0 0 0 0 0 
11:02:17 - 1: L (287.59,111.50) +/- (0.31,0.07), R (221.91,108.31) +/- (0.30,0.07))
11:02:17 - 171.5013 287.5908 0 0 0 0 0 0 0 
11:02:19 - An error occured, cannot finalize calibration implmentation.
11:02:19 - Calibration loop finished.
11:02:31 - 0: L (0.00,0.00) +/- (0.00,0.00), R (248.77,110.26) +/- (0.28,0.02))
11:02:31 - 0 0 0 0 0 0 0 0 0 
11:02:35 - 1: L (288.00,110.85) +/- (0.24,0.05), R (221.08,107.36) +/- (0.09,0.12))
11:02:36 - 0 288.0033 0 0 0 0 0 0 0 
11:02:59 - 2: L (314.40,114.04) +/- (0.77,0.02), R (248.11,110.22) +/- (0.67,0.03))
11:02:59 - 0 288.0033 314.4037 0 0 0 0 0 0 
11:03:01 - An error occured, cannot finalize calibration implmentation.
11:03:02 - Calibration loop finished.
11:03:10 - 0: L (313.72,113.72) +/- (0.30,0.07), R (248.58,110.54) +/- (0.36,0.09))
11:03:10 - 313.7187 0 0 0 0 0 0 0 0 
11:03:15 - 1: L (287.55,110.82) +/- (0.37,0.03), R (220.71,108.00) +/- (0.46,0.02))
11:03:15 - 313.7187 287.5537 0 0 0 0 0 0 0 
11:03:19 - 2: L (260.08,109.94) +/- (0.19,0.04), R (193.55,107.75) +/- (0.19,0.04))
11:03:19 - 313.7187 287.5537 260.0761 0 0 0 0 0 0 
11:03:24 - 3: L (314.60,132.80) +/- (0.05,0.12), R (245.69,129.81) +/- (0.23,0.69))
11:03:24 - 313.7187 287.5537 260.0761 314.5989 0 0 0 0 0 
11:03:29 - 4: L (287.53,130.75) +/- (0.26,0.03), R (219.11,128.80) +/- (0.25,0.05))
11:03:29 - 313.7187 287.5537 260.0761 314.5989 287.5254 0 0 0 0 
11:03:33 - 5: L (260.71,130.14) +/- (0.06,0.03), R (191.85,128.26) +/- (0.10,0.01))
11:03:34 - 313.7187 287.5537 260.0761 314.5989 287.5254 260.7131 0 0 0 
11:03:38 - 6: L (313.56,152.44) +/- (0.13,0.04), R (243.77,151.29) +/- (2.00,0.23))
11:03:38 - 313.7187 287.5537 260.0761 314.5989 287.5254 260.7131 313.5613 0 0 
11:03:43 - 7: L (287.94,151.01) +/- (0.52,0.02), R (217.46,149.31) +/- (0.80,0.13))
11:03:44 - 313.7187 287.5537 260.0761 314.5989 287.5254 260.7131 313.5613 287.9393 0 
11:03:48 - 8: L (260.92,150.77) +/- (0.41,0.06), R (191.58,149.47) +/- (0.27,0.03))
11:03:48 - 313.7187 287.5537 260.0761 314.5989 287.5254 260.7131 313.5613 287.9393 260.9167 
11:04:00 - Calibration finished
11:04:00 - Calibration loop finished.
11:04:41 - Finished EyeCollection`1 consumer  loop : 1424 frames queued; Queued: 32302-33725, Saved: 32302-33725
11:04:41 - Finished EyeTrackerDataAndImages consumer  loop : 1424 frames queued; Queued: 32302-33725, Saved: 32302-33725
11:04:41 - Finished EyeTrackerEvent consumer  loop : 0 frames queued; Queued: -1--1, Saved: -1--1
11:23:41 - Finished EyeCollection`1 consumer  loop : 111349 frames queued; Queued: 35403-146751, Saved: 35403-146751
11:23:41 - Finished EyeTrackerDataAndImages consumer  loop : 111344 frames queued; Queued: 35403-146746, Saved: 35403-146746
11:23:41 - Finished EyeTrackerEvent consumer  loop : 0 frames queued; Queued: -1--1, Saved: -1--1
11:23:47 - Finished head tracker loop.
12:45:26 - 2016-11-02-12:45:26.391 147371 M: KEYPRESS D: 
12:45:28 - 2016-11-02-12:45:28.310 147371 M: KEYPRESS D: 
12:45:28 - 2016-11-02-12:45:28.612 147371 M: KEYPRESS D: 
12:47:53 - Verifying grabbing system.
12:47:53 - Running camera callback.
12:47:53 - Camera reports 0
12:52:14 - 0: L (279.09,164.88) +/- (554.29,238.31), R (215.36,163.62) +/- (1062.12,251.96))
12:52:14 - 279.0891 0 0 0 0 0 0 0 0 
12:52:15 - An error occured, cannot finalize calibration implmentation.
12:52:15 - Calibration loop finished.
12:52:37 - 0: L (317.94,119.44) +/- (0.06,0.45), R (251.89,113.73) +/- (0.32,0.22))
12:52:37 - 317.9406 0 0 0 0 0 0 0 0 
12:52:41 - 1: L (290.95,116.81) +/- (0.30,0.89), R (223.70,111.66) +/- (0.27,0.81))
12:52:41 - 317.9406 290.9535 0 0 0 0 0 0 0 
12:52:46 - 2: L (263.79,115.72) +/- (0.38,0.08), R (196.41,111.58) +/- (0.31,0.02))
12:52:47 - 317.9406 290.9535 263.7859 0 0 0 0 0 0 
12:52:51 - 3: L (317.69,136.31) +/- (0.17,0.38), R (248.20,132.90) +/- (0.27,0.21))
12:52:52 - 317.9406 290.9535 263.7859 317.6917 0 0 0 0 0 
12:52:55 - 4: L (289.69,133.44) +/- (0.37,0.06), R (220.63,131.04) +/- (0.33,0.07))
12:52:55 - 317.9406 290.9535 263.7859 317.6917 289.69 0 0 0 0 
12:53:01 - 5: L (263.19,132.70) +/- (0.38,0.03), R (193.05,130.96) +/- (0.38,0.03))
12:53:01 - 317.9406 290.9535 263.7859 317.6917 289.69 263.1864 0 0 0 
12:53:06 - 6: L (315.51,154.51) +/- (0.23,0.35), R (245.73,153.27) +/- (0.22,0.38))
12:53:06 - 317.9406 290.9535 263.7859 317.6917 289.69 263.1864 315.5115 0 0 
12:53:10 - 7: L (289.71,153.16) +/- (0.04,0.07), R (218.73,151.78) +/- (0.25,0.06))
12:53:10 - 317.9406 290.9535 263.7859 317.6917 289.69 263.1864 315.5115 289.7054 0 
12:53:14 - 8: L (263.09,152.38) +/- (0.82,0.01), R (191.83,151.44) +/- (0.49,0.04))
12:53:14 - 317.9406 290.9535 263.7859 317.6917 289.69 263.1864 315.5115 289.7054 263.0923 
12:53:23 - Calibration finished
12:53:23 - Calibration loop finished.
13:12:22 - Finished EyeCollection`1 consumer  loop : 100635 frames queued; Queued: 44918-145552, Saved: 44918-145552
13:12:22 - Finished EyeTrackerDataAndImages consumer  loop : 100629 frames queued; Queued: 44918-145546, Saved: 44918-145546
13:12:22 - Finished EyeTrackerEvent consumer  loop : 0 frames queued; Queued: -1--1, Saved: -1--1
13:13:26 - 0: L (283.07,160.15) +/- (173.66,331.19), R (217.31,162.90) +/- (272.64,438.31))
13:13:26 - 283.0672 0 0 0 0 0 0 0 0 
13:13:26 - An error occured, cannot finalize calibration implmentation.
13:13:26 - Calibration loop finished.
13:14:36 - 0: L (0.00,0.00) +/- (0.00,0.00), R (248.46,84.27) +/- (1.12,0.65))
13:14:37 - 0 0 0 0 0 0 0 0 0 
13:14:49 - An error occured, cannot finalize calibration implmentation.
13:14:49 - Calibration loop finished.
13:14:54 - 0: L (320.65,95.17) +/- (0.58,0.02), R (248.05,86.28) +/- (0.63,0.03))
13:14:54 - 320.6526 0 0 0 0 0 0 0 0 
13:14:59 - 1: L (292.31,92.52) +/- (0.33,0.03), R (221.10,84.64) +/- (0.29,0.02))
13:14:59 - 320.6526 292.3083 0 0 0 0 0 0 0 
13:15:04 - 2: L (265.21,90.57) +/- (0.55,0.05), R (192.77,84.52) +/- (0.61,0.03))
13:15:04 - 320.6526 292.3083 265.2145 0 0 0 0 0 0 
13:15:09 - 3: L (318.75,111.66) +/- (0.65,0.04), R (243.95,107.36) +/- (1.09,1.97))
13:15:09 - 320.6526 292.3083 265.2145 318.751 0 0 0 0 0 
13:15:14 - 4: L (290.90,108.33) +/- (0.16,0.01), R (217.14,106.88) +/- (0.02,0.11))
13:15:14 - 320.6526 292.3083 265.2145 318.751 290.9023 0 0 0 0 
13:15:18 - 5: L (262.97,107.73) +/- (0.46,0.10), R (191.88,106.64) +/- (0.52,0.06))
13:15:18 - 320.6526 292.3083 265.2145 318.751 290.9023 262.9694 0 0 0 
13:15:23 - 6: L (315.81,130.13) +/- (0.14,0.07), R (241.42,126.24) +/- (10.61,8.96))
13:15:23 - 320.6526 292.3083 265.2145 318.751 290.9023 262.9694 315.8102 0 0 
13:15:27 - 7: L (290.48,127.44) +/- (0.77,0.27), R (217.05,127.63) +/- (1.52,0.35))
13:15:27 - 320.6526 292.3083 265.2145 318.751 290.9023 262.9694 315.8102 290.4828 0 
13:15:31 - 8: L (264.56,125.35) +/- (1.04,0.75), R (191.55,125.61) +/- (0.63,0.31))
13:15:31 - 320.6526 292.3083 265.2145 318.751 290.9023 262.9694 315.8102 290.4828 264.558 
13:15:42 - Calibration finished
13:15:42 - Calibration loop finished.
13:23:33 - Finished EyeCollection`1 consumer  loop : 33782 frames queued; Queued: 178246-212027, Saved: 178246-212027
13:23:33 - Finished EyeTrackerDataAndImages consumer  loop : 33781 frames queued; Queued: 178246-212026, Saved: 178246-212026
13:23:33 - Finished EyeTrackerEvent consumer  loop : 0 frames queued; Queued: -1--1, Saved: -1--1
13:24:22 - Finished head tracker loop.
13:34:39 - Verifying grabbing system.
13:34:39 - Running camera callback.
13:34:39 - Camera reports 0
13:36:43 - 0: L (257.91,165.38) +/- (154.65,1699.11), R (195.05,156.67) +/- (215.94,1063.09))
13:36:43 - 257.9122 0 0 0 0 0 0 0 0 
13:36:44 - An error occured, cannot finalize calibration implmentation.
13:36:44 - Calibration loop finished.
13:37:07 - 0: L (326.07,123.04) +/- (0.52,0.04), R (258.39,97.08) +/- (0.59,0.05))
13:37:07 - 326.0698 0 0 0 0 0 0 0 0 
13:37:11 - 1: L (299.57,119.00) +/- (0.32,0.08), R (230.63,94.24) +/- (0.33,0.03))
13:37:11 - 326.0698 299.5718 0 0 0 0 0 0 0 
13:37:15 - 2: L (272.63,118.43) +/- (0.69,0.07), R (0.00,0.00) +/- (0.00,0.00))
13:37:16 - 326.0698 299.5718 272.6317 0 0 0 0 0 0 
13:37:27 - An error occured, cannot finalize calibration implmentation.
13:37:27 - Calibration loop finished.
13:37:31 - 0: L (324.50,119.89) +/- (0.44,0.04), R (256.78,97.47) +/- (0.43,0.18))
13:37:31 - 324.5035 0 0 0 0 0 0 0 0 
13:37:36 - 1: L (298.49,117.46) +/- (0.19,0.12), R (229.13,95.01) +/- (0.22,0.03))
13:37:37 - 324.5035 298.4914 0 0 0 0 0 0 0 
13:37:41 - 2: L (272.66,116.95) +/- (0.06,0.09), R (203.00,95.42) +/- (0.02,0.01))
13:37:42 - 324.5035 298.4914 272.6577 0 0 0 0 0 0 
13:37:46 - 3: L (324.87,139.94) +/- (0.19,0.05), R (253.03,115.24) +/- (1.19,6.41))
13:37:46 - 324.5035 298.4914 272.6577 324.866 0 0 0 0 0 
13:37:51 - 4: L (298.66,137.69) +/- (0.31,0.05), R (226.75,115.55) +/- (0.68,0.33))
13:37:51 - 324.5035 298.4914 272.6577 324.866 298.6608 0 0 0 0 
13:37:56 - 5: L (271.02,136.92) +/- (0.35,0.08), R (200.43,115.67) +/- (0.09,0.02))
13:37:56 - 324.5035 298.4914 272.6577 324.866 298.6608 271.0219 0 0 0 
13:38:01 - 6: L (324.21,161.31) +/- (0.33,0.03), R (248.43,127.81) +/- (1.07,0.13))
13:38:01 - 324.5035 298.4914 272.6577 324.866 298.6608 271.0219 324.2143 0 0 
13:38:05 - 7: L (298.77,158.61) +/- (2.17,0.26), R (225.56,136.74) +/- (0.63,0.49))
13:38:05 - 324.5035 298.4914 272.6577 324.866 298.6608 271.0219 324.2143 298.7698 0 
13:38:11 - 8: L (272.22,156.71) +/- (6.63,12.75), R (197.65,136.54) +/- (0.33,0.15))
13:38:12 - 324.5035 298.4914 272.6577 324.866 298.6608 271.0219 324.2143 298.7698 272.2173 
13:38:20 - Calibration finished
13:38:20 - Calibration loop finished.
13:39:17 - 0: L (297.15,146.90) +/- (602.22,113.36), R (224.39,127.59) +/- (695.86,80.76))
13:39:17 - 297.1524 0 0 0 0 0 0 0 0 
13:39:22 - 1: L (294.24,134.40) +/- (0.30,0.03), R (223.91,116.76) +/- (0.25,0.04))
13:39:22 - 297.1524 294.2378 0 0 0 0 0 0 0 
13:39:24 - An error occured, cannot finalize calibration implmentation.
13:39:24 - Calibration loop finished.
13:39:31 - 0: L (323.13,137.64) +/- (0.31,0.27), R (253.92,119.56) +/- (0.54,0.10))
13:39:31 - 323.1346 0 0 0 0 0 0 0 0 
13:39:36 - 1: L (295.89,133.63) +/- (0.21,0.10), R (224.68,117.29) +/- (0.20,0.19))
13:39:36 - 323.1346 295.891 0 0 0 0 0 0 0 
13:39:41 - 2: L (267.98,132.30) +/- (0.08,0.25), R (196.65,116.78) +/- (0.04,0.16))
13:39:41 - 323.1346 295.891 267.9763 0 0 0 0 0 0 
13:39:46 - 3: L (321.68,155.72) +/- (0.08,0.03), R (249.51,139.89) +/- (0.10,0.01))
13:39:46 - 323.1346 295.891 267.9763 321.6772 0 0 0 0 0 
13:39:51 - 4: L (294.78,153.24) +/- (0.34,0.10), R (222.12,137.58) +/- (0.14,0.05))
13:39:51 - 323.1346 295.891 267.9763 321.6772 294.7812 0 0 0 0 
13:39:56 - 5: L (268.26,151.36) +/- (0.53,0.42), R (194.81,136.32) +/- (0.05,0.00))
13:39:56 - 323.1346 295.891 267.9763 321.6772 294.7812 268.2637 0 0 0 
13:40:01 - 6: L (320.64,176.18) +/- (0.33,0.09), R (247.30,160.24) +/- (0.38,0.08))
13:40:01 - 323.1346 295.891 267.9763 321.6772 294.7812 268.2637 320.6379 0 0 
13:40:05 - 7: L (296.58,174.19) +/- (1.66,0.12), R (221.00,159.87) +/- (0.46,0.09))
13:40:05 - 323.1346 295.891 267.9763 321.6772 294.7812 268.2637 320.6379 296.5808 0 
13:40:09 - 8: L (271.67,167.88) +/- (1.77,10.51), R (193.42,157.86) +/- (0.41,0.03))
13:40:10 - 323.1346 295.891 267.9763 321.6772 294.7812 268.2637 320.6379 296.5808 271.6723 
13:40:18 - Calibration finished
13:40:18 - Calibration loop finished.
13:56:35 - Finished EyeCollection`1 consumer  loop : 92206 frames queued; Queued: 38209-130414, Saved: 38209-130414
13:56:35 - Finished EyeTrackerDataAndImages consumer  loop : 92205 frames queued; Queued: 38209-130413, Saved: 38209-130413
13:56:35 - Finished EyeTrackerEvent consumer  loop : 0 frames queued; Queued: -1--1, Saved: -1--1
13:57:00 - Error details: lastRawFrameNumber: 132976, currentFrameNumber: 0
13:57:00 - Error grabbing: Frame counter is not consistently growing!.
13:57:01 - FATAL ERROR: FlyCapture2Managed.FC2Exception: Low level failure reading register 0x1100. Error: 0x15.
   at FlyCapture2Managed.ManagedCameraBase.ReadRegister(UInt32 address)
   at OculomotorLab.VOG.ImageGrabbing.CameraEyePointGreyLabyrinth.ReadSensors() in c:\VOG\Local_VOG_with_CamCalib_Emgu_2.4.10_v2 - LatestFlyCapture - New Calibration - New Goggles - Sync Line - Copy\labyrinth\LabryinthVOG\ImageGrabbing\CameraEyePointGreyLabyrinth.cs:line 696
   at OculomotorLab.VOG.ImageGrabbing.CameraEyePointGreyLabyrinth.HeadSensorLabyrinth.GrabHeadData() in c:\VOG\Local_VOG_with_CamCalib_Emgu_2.4.10_v2 - LatestFlyCapture - New Calibration - New Goggles - Sync Line - Copy\labyrinth\LabryinthVOG\HeadTracking\HeadSensorLabyrinth.cs:line 62
   at OculomotorLab.VOG.EyeTrackerHeadTracker.TrackingLoop() in c:\VOG\Local_VOG_with_CamCalib_Emgu_2.4.10_v2 - LatestFlyCapture - New Calibration - New Goggles - Sync Line - Copy\source\VOGLib\HeadTracking\EyeTrackerHeadTracker.cs:line 232
13:57:01 - FATAL ERROR: System.InvalidOperationException: Frame counter is not consistently growing!.
   at OculomotorLab.VOG.ImageGrabbing.CameraEyePointGreyLabyrinth.GrabImageEye() in c:\VOG\Local_VOG_with_CamCalib_Emgu_2.4.10_v2 - LatestFlyCapture - New Calibration - New Goggles - Sync Line - Copy\labyrinth\LabryinthVOG\ImageGrabbing\CameraEyePointGreyLabyrinth.cs:line 639
   at OculomotorLab.VOG.EyeTrackerImageGrabber.GrabImages() in c:\VOG\Local_VOG_with_CamCalib_Emgu_2.4.10_v2 - LatestFlyCapture - New Calibration - New Goggles - Sync Line - Copy\source\VOGLib\EyeTrackerImageGrabber.cs:line 552
   at OculomotorLab.VOG.EyeTrackerImageGrabber.GrabLoop() in c:\VOG\Local_VOG_with_CamCalib_Emgu_2.4.10_v2 - LatestFlyCapture - New Calibration - New Goggles - Sync Line - Copy\source\VOGLib\EyeTrackerImageGrabber.cs:line 478
