14:21:21 - Initializing network service ...
14:21:22 - Initializing network service ... completed.
14:21:22 - Initializing complete.
14:29:37 - Verifying grabbing system.
14:29:37 - Running camera callback.
14:30:55 - 0: L (86.45,56.62) +/- (16944.18,7266.17), R (123.79,82.57) +/- (17222.96,6978.75))
14:30:55 - 86.44513 0 0 0 0 0 0 0 0 
14:33:11 - 1: L (326.33,118.28) +/- (0.17,0.07), R (321.04,77.10) +/- (0.23,0.12))
14:33:13 - 86.44513 326.3343 0 0 0 0 0 0 0 
14:33:15 - An error occured, cannot finalize calibration implmentation.
14:33:15 - Calibration loop finished.
14:33:22 - 0: L (326.32,117.05) +/- (0.03,0.03), R (320.42,74.83) +/- (0.03,0.08))
14:33:22 - 326.3208 0 0 0 0 0 0 0 0 
14:33:27 - 1: L (297.58,117.37) +/- (0.15,0.04), R (288.94,76.31) +/- (0.11,0.06))
14:33:29 - 326.3208 297.5771 0 0 0 0 0 0 0 
14:33:37 - 2: L (268.26,119.56) +/- (0.09,0.04), R (256.35,78.88) +/- (0.12,0.04))
14:33:39 - 326.3208 297.5771 268.2564 0 0 0 0 0 0 
14:33:45 - 3: L (326.76,142.38) +/- (0.13,0.10), R (321.88,103.26) +/- (0.19,0.15))
14:33:46 - 326.3208 297.5771 268.2564 326.7639 0 0 0 0 0 
14:33:51 - 4: L (298.66,143.06) +/- (0.14,0.06), R (290.46,104.47) +/- (0.21,0.09))
14:33:52 - 326.3208 297.5771 268.2564 326.7639 298.6589 0 0 0 0 
14:33:57 - 5: L (269.33,145.69) +/- (0.07,0.14), R (258.92,107.45) +/- (0.13,0.24))
14:33:57 - 326.3208 297.5771 268.2564 326.7639 298.6589 269.3311 0 0 0 
14:34:03 - 6: L (327.63,169.09) +/- (0.26,0.05), R (322.58,131.76) +/- (0.10,0.06))
14:34:03 - 326.3208 297.5771 268.2564 326.7639 298.6589 269.3311 327.6349 0 0 
14:34:08 - 7: L (299.91,170.32) +/- (0.16,0.12), R (291.65,133.24) +/- (0.18,0.15))
14:34:08 - 326.3208 297.5771 268.2564 326.7639 298.6589 269.3311 327.6349 299.9086 0 
14:34:14 - 8: L (272.05,171.81) +/- (0.12,0.19), R (260.93,134.56) +/- (0.19,0.08))
14:34:14 - 326.3208 297.5771 268.2564 326.7639 298.6589 269.3311 327.6349 299.9086 272.0458 
14:34:28 - Calibration finished
14:34:28 - Calibration loop finished.
14:34:45 - Finished head tracker loop.
14:35:01 - Verifying grabbing system.
14:35:01 - Running camera callback.
14:35:01 - Camera reports 0
14:47:30 - Finished EyeCollection`1 consumer  loop : 61686 frames queued; Queued: 12500-74185, Saved: 12500-74185
14:47:30 - Finished EyeTrackerDataAndImages consumer  loop : 61685 frames queued; Queued: 12500-74184, Saved: 12500-74184
14:47:30 - Finished EyeTrackerEvent consumer  loop : 0 frames queued; Queued: -1--1, Saved: -1--1
14:59:39 - Finished EyeCollection`1 consumer  loop : 64873 frames queued; Queued: 81630-146502, Saved: 81630-146502
14:59:39 - Finished EyeTrackerDataAndImages consumer  loop : 64872 frames queued; Queued: 81630-146501, Saved: 81630-146501
14:59:40 - Finished EyeTrackerEvent consumer  loop : 0 frames queued; Queued: -1--1, Saved: -1--1
15:06:13 - 0: L (301.96,138.40) +/- (891.63,1115.22), R (295.08,99.48) +/- (1126.24,1458.96))
15:06:13 - 301.963 0 0 0 0 0 0 0 0 
15:06:19 - 1: L (300.00,106.20) +/- (0.29,0.04), R (291.88,61.76) +/- (0.19,0.10))
15:06:20 - 301.963 299.9975 0 0 0 0 0 0 0 
15:06:23 - An error occured, cannot finalize calibration implmentation.
15:06:23 - Calibration loop finished.
15:06:28 - 0: L (331.63,105.01) +/- (0.08,0.04), R (326.64,59.91) +/- (0.06,0.04))
15:06:28 - 331.6334 0 0 0 0 0 0 0 0 
15:06:34 - 1: L (300.57,104.89) +/- (0.07,0.02), R (291.60,61.40) +/- (0.11,0.04))
15:06:35 - 331.6334 300.5732 0 0 0 0 0 0 0 
15:06:39 - 2: L (268.43,106.23) +/- (0.18,0.11), R (256.64,62.60) +/- (0.38,0.25))
15:06:42 - 331.6334 300.5732 268.4337 0 0 0 0 0 0 
15:06:46 - 3: L (334.38,131.66) +/- (0.17,0.07), R (328.14,88.94) +/- (0.24,0.14))
15:06:46 - 331.6334 300.5732 268.4337 334.3801 0 0 0 0 0 
15:06:52 - 4: L (302.60,131.57) +/- (0.04,0.13), R (293.81,90.80) +/- (0.30,0.18))
15:06:53 - 331.6334 300.5732 268.4337 334.3801 302.5972 0 0 0 0 
15:06:59 - 5: L (270.79,132.31) +/- (0.18,0.03), R (259.20,92.21) +/- (0.19,0.05))
15:07:02 - 331.6334 300.5732 268.4337 334.3801 302.5972 270.7858 0 0 0 
15:07:06 - 6: L (336.01,159.39) +/- (0.30,0.06), R (329.73,121.10) +/- (0.30,0.13))
15:07:07 - 331.6334 300.5732 268.4337 334.3801 302.5972 270.7858 336.0148 0 0 
15:07:13 - 7: L (304.10,160.45) +/- (0.37,0.39), R (296.16,121.67) +/- (0.30,0.05))
15:07:14 - 331.6334 300.5732 268.4337 334.3801 302.5972 270.7858 336.0148 304.0971 0 
15:07:19 - 8: L (274.59,161.11) +/- (0.60,0.16), R (262.65,123.44) +/- (0.66,0.15))
15:07:20 - 331.6334 300.5732 268.4337 334.3801 302.5972 270.7858 336.0148 304.0971 274.5916 
15:07:30 - Calibration finished
15:07:30 - Calibration loop finished.
15:21:19 - Finished EyeCollection`1 consumer  loop : 75233 frames queued; Queued: 200123-275355, Saved: 200123-275355
15:21:19 - Finished EyeTrackerDataAndImages consumer  loop : 75232 frames queued; Queued: 200123-275354, Saved: 200123-275354
15:21:19 - Finished EyeTrackerEvent consumer  loop : 0 frames queued; Queued: -1--1, Saved: -1--1
15:37:37 - Finished EyeCollection`1 consumer  loop : 90586 frames queued; Queued: 281618-372203, Saved: 281618-372203
15:37:37 - Finished EyeTrackerDataAndImages consumer  loop : 90586 frames queued; Queued: 281618-372203, Saved: 281618-372203
15:37:37 - Finished EyeTrackerEvent consumer  loop : 0 frames queued; Queued: -1--1, Saved: -1--1
15:58:44 - 0: L (289.25,164.55) +/- (275.75,17.60), R (280.94,132.92) +/- (430.41,91.68))
15:58:44 - 289.2538 0 0 0 0 0 0 0 0 
15:58:44 - An error occured, cannot finalize calibration implmentation.
15:58:44 - Calibration loop finished.
15:59:17 - 0: L (322.25,133.93) +/- (0.05,0.02), R (317.34,109.86) +/- (0.06,0.07))
15:59:18 - 322.2522 0 0 0 0 0 0 0 0 
15:59:23 - 1: L (291.41,133.75) +/- (0.14,0.07), R (283.02,109.86) +/- (0.40,0.10))
15:59:24 - 322.2522 291.4101 0 0 0 0 0 0 0 
15:59:29 - 2: L (260.00,135.96) +/- (0.19,0.01), R (247.93,113.60) +/- (0.13,0.05))
15:59:30 - 322.2522 291.4101 259.9981 0 0 0 0 0 0 
15:59:35 - 3: L (325.07,160.07) +/- (0.11,0.03), R (319.12,138.28) +/- (0.24,0.06))
15:59:36 - 322.2522 291.4101 259.9981 325.0696 0 0 0 0 0 
15:59:42 - 4: L (294.32,160.11) +/- (0.17,0.07), R (284.72,137.20) +/- (0.33,0.44))
15:59:43 - 322.2522 291.4101 259.9981 325.0696 294.3197 0 0 0 0 
15:59:48 - 5: L (262.95,162.43) +/- (0.12,0.08), R (250.13,140.53) +/- (0.14,0.17))
15:59:49 - 322.2522 291.4101 259.9981 325.0696 294.3197 262.9482 0 0 0 
15:59:55 - 6: L (326.86,187.46) +/- (0.10,0.41), R (321.25,165.53) +/- (0.07,1.79))
15:59:57 - 322.2522 291.4101 259.9981 325.0696 294.3197 262.9482 326.8587 0 0 
16:00:04 - 7: L (297.02,188.54) +/- (0.13,0.85), R (286.86,168.59) +/- (0.05,0.26))
16:00:04 - 322.2522 291.4101 259.9981 325.0696 294.3197 262.9482 326.8587 297.0219 0 
16:00:10 - 8: L (265.86,190.90) +/- (0.11,0.14), R (252.91,171.22) +/- (0.14,0.05))
16:00:10 - 322.2522 291.4101 259.9981 325.0696 294.3197 262.9482 326.8587 297.0219 265.8551 
16:00:19 - Calibration finished
16:00:19 - Calibration loop finished.
16:15:00 - Finished EyeCollection`1 consumer  loop : 79989 frames queued; Queued: 514518-594506, Saved: 514518-594506
16:15:00 - Finished EyeTrackerDataAndImages consumer  loop : 79988 frames queued; Queued: 514518-594505, Saved: 514518-594505
16:15:00 - Finished EyeTrackerEvent consumer  loop : 0 frames queued; Queued: -1--1, Saved: -1--1
16:26:57 - Finished EyeCollection`1 consumer  loop : 66781 frames queued; Queued: 598807-665587, Saved: 598807-665587
16:26:57 - Finished EyeTrackerDataAndImages consumer  loop : 66780 frames queued; Queued: 598807-665586, Saved: 598807-665586
16:26:57 - Finished EyeTrackerEvent consumer  loop : 0 frames queued; Queued: -1--1, Saved: -1--1
16:27:50 - Finished head tracker loop.
16:28:29 - 2017-04-19-16:28:29.896 670861 M: KEYPRESS D: 1
16:28:29 - 2017-04-19-16:28:29.996 670861 M: KEYPRESS D: 1
17:10:11 - Grabber loop finished.
17:10:11 - Process loop finished.
17:10:11 - Process loop finished.
17:10:11 - Process loop finished.
17:10:11 - Process loop finished.
17:10:11 - Output loop finished.
