18:24:16 - Initializing network service ...
18:24:19 - Initializing network service ... completed.
18:24:20 - Initializing complete.
18:24:25 - Verifying grabbing system.
18:24:25 - Running camera callback.
18:24:25 - Error grabbing: Object reference not set to an instance of an object.
18:24:25 - FATAL ERROR: System.NullReferenceException: Object reference not set to an instance of an object.
   at OculomotorLab.VOG.EyeTrackingSystemLabyrinthAcc.PreProcessImagesFromCameras(EyeCollection`1 images) in c:\VOG\Local_VOG_with_CamCalib_Emgu_2.4.10_v2 - LatestFlyCapture\labyrinth\LabryinthVOG\EyeTrackingSystems\EyeTrackingSystemLabyrinthAcc.cs:line 137
   at OculomotorLab.VOG.EyeTrackerImageGrabber.GrabLoop() in c:\VOG\Local_VOG_with_CamCalib_Emgu_2.4.10_v2 - LatestFlyCapture\source\VOGLib\EyeTrackerImageGrabber.cs:line 460
18:24:25 - Finished head tracker loop.
