13:29:12 - Initializing network service ...
13:29:12 - Initializing network service ... completed.
13:29:12 - Initializing complete.
13:29:14 - Verifying grabbing system.
13:29:14 - Running camera callback.
13:29:14 - Camera reports 0
13:29:26 - Finished head tracker loop.
13:29:29 - Grabber loop finished.
13:29:29 - Process loop finished.
13:29:29 - Process loop finished.
13:29:29 - Process loop finished.
13:29:29 - Process loop finished.
13:29:29 - Output loop finished.
