10:29:32 - Initializing network service ...
10:29:32 - Initializing network service ... completed.
10:29:32 - Initializing complete.
10:29:50 - Verifying grabbing system.
10:29:50 - Running camera callback.
10:29:55 - Finished head tracker loop.
