11:48:34 - Initializing network service ...
11:48:34 - Initializing network service ... completed.
11:48:34 - Initializing complete.
11:48:39 - Verifying grabbing system.
11:48:39 - Running camera callback.
11:48:40 - Camera reports 1
12:38:33 - Finished head tracker loop.
17:31:46 - Verifying grabbing system.
17:31:46 - Running camera callback.
17:31:46 - Camera reports 0
17:31:56 - Calibration finished
17:31:56 - Calibration loop finished.
17:32:04 - Calibration finished
17:32:04 - Calibration loop finished.
17:32:14 - Calibration finished
17:32:14 - Calibration loop finished.
17:32:14 - Calibration finished
17:32:14 - Calibration loop finished.
17:32:15 - Calibration finished
17:32:15 - Calibration loop finished.
17:32:17 - Calibration finished
17:32:17 - Calibration loop finished.
17:32:19 - Calibration finished
17:32:19 - Calibration loop finished.
17:32:31 - Calibration finished
17:32:31 - Calibration loop finished.
17:32:32 - Calibration finished
17:32:32 - Calibration loop finished.
17:32:33 - Calibration finished
17:32:33 - Calibration loop finished.
17:38:26 - Calibration finished
17:38:26 - Calibration loop finished.
17:38:59 - 2016-10-17-17:38:59.373 43243 M: KEYPRESS D: 
17:38:59 - 2016-10-17-17:38:59.390 43244 M: KEYPRESS D: 
17:39:00 - 2016-10-17-17:39:00.350 43340 M: KEYPRESS D: 6
17:39:00 - 2016-10-17-17:39:00.638 43368 M: KEYPRESS D: 7
17:39:01 - 2016-10-17-17:39:01.995 43505 M: KEYPRESS D: /
17:39:02 - 2016-10-17-17:39:02.179 43523 M: KEYPRESS D: /
17:39:02 - 2016-10-17-17:39:02.314 43536 M: KEYPRESS D: /
17:39:04 - 2016-10-17-17:39:04.283 43733 M: KEYPRESS D: 
17:39:04 - 2016-10-17-17:39:04.480 43753 M: KEYPRESS D: 
17:39:04 - 2016-10-17-17:39:04.688 43772 M: KEYPRESS D: 
17:39:07 - 2016-10-17-17:39:07.367 44041 M: KEYPRESS D: 
17:39:09 - 2016-10-17-17:39:09.543 44257 M: KEYPRESS D: 5
17:39:09 - 2016-10-17-17:39:09.734 44278 M: KEYPRESS D: 6
17:39:16 - 0: L (240.06,226.20) +/- (10.08,18.02), R (402.90,193.76) +/- (5.49,20.16))
17:39:16 - 240.0591 0 0 0 0 0 0 0 0 
17:39:21 - 1: L (172.54,220.52) +/- (0.48,0.43), R (347.11,188.74) +/- (0.36,0.29))
17:39:21 - 240.0591 172.5371 0 0 0 0 0 0 0 
17:39:26 - 2: L (84.66,239.06) +/- (2.59,0.51), R (256.60,201.67) +/- (0.74,0.33))
17:39:26 - 240.0591 172.5371 84.66147 0 0 0 0 0 0 
17:39:30 - 3: L (262.71,278.65) +/- (1.13,2.65), R (429.06,244.24) +/- (1.91,1.01))
17:39:31 - 240.0591 172.5371 84.66147 262.7062 0 0 0 0 0 
17:39:35 - 4: L (176.39,264.03) +/- (6.18,7.35), R (348.51,228.66) +/- (3.10,3.27))
17:39:35 - 240.0591 172.5371 84.66147 262.7062 176.3944 0 0 0 0 
17:39:40 - 5: L (79.21,266.57) +/- (4.52,0.81), R (252.69,227.42) +/- (1.04,0.61))
17:39:40 - 240.0591 172.5371 84.66147 262.7062 176.3944 79.2085 0 0 0 
17:39:45 - 6: L (256.76,333.69) +/- (3.50,12.03), R (0.00,0.00) +/- (0.00,0.00))
17:39:45 - 240.0591 172.5371 84.66147 262.7062 176.3944 79.2085 256.7613 0 0 
17:39:50 - 7: L (182.88,336.32) +/- (7.24,240.57), R (203.54,197.10) +/- (25655.93,18768.27))
17:39:50 - 240.0591 172.5371 84.66147 262.7062 176.3944 79.2085 256.7613 182.882 0 
17:39:54 - 8: L (74.94,135.39) +/- (10086.33,28098.19), R (77.22,106.56) +/- (10951.50,18941.45))
17:39:55 - 240.0591 172.5371 84.66147 262.7062 176.3944 79.2085 256.7613 182.882 74.94413 
17:40:04 - Calibration finished
17:40:04 - Calibration loop finished.
17:41:16 - Finished head tracker loop.
17:41:29 - Verifying grabbing system.
17:41:29 - Running camera callback.
17:41:29 - Camera reports 0
17:42:25 - Finished head tracker loop.
18:48:52 - Verifying grabbing system.
18:48:52 - Running camera callback.
18:49:11 - Finished head tracker loop.
18:51:23 - Grabber loop finished.
18:51:23 - Process loop finished.
18:51:23 - Process loop finished.
18:51:23 - Process loop finished.
18:51:23 - Process loop finished.
18:51:23 - Output loop finished.
