19:20:03 - Initializing network service ...
19:20:05 - Initializing network service ... completed.
19:20:05 - Initializing complete.
19:20:09 - Verifying grabbing system.
19:20:09 - Running camera callback.
19:20:29 - Finished head tracker loop.
19:20:33 - Grabber loop finished.
19:20:33 - Process loop finished.
19:20:33 - Process loop finished.
19:20:33 - Process loop finished.
19:20:33 - Process loop finished.
19:20:33 - Output loop finished.
