08:23:34 - Initializing network service ...
08:23:34 - Initializing network service ... completed.
08:23:34 - Initializing complete.
08:23:47 - Verifying grabbing system.
08:23:47 - Running camera callback.
08:23:47 - Camera reports 0
08:24:13 - 2017-10-12-08:24:13.074 2511 M: KEYPRESS D: 
08:24:13 - 2017-10-12-08:24:13.244 2529 M: KEYPRESS D: 3
08:24:23 - 0: L (282.84,116.13) +/- (1.54,2.39), R (302.74,79.97) +/- (2.88,5.91))
08:24:23 - 282.8427 0 0 0 0 0 0 0 0 
08:24:30 - 1: L (257.37,114.73) +/- (1.07,4.02), R (274.27,80.53) +/- (3.66,5.67))
08:24:30 - 282.8427 257.3693 0 0 0 0 0 0 0 
08:24:39 - 2: L (230.19,112.58) +/- (0.20,1.39), R (244.70,82.15) +/- (0.08,0.19))
08:24:39 - 282.8427 257.3693 230.1895 0 0 0 0 0 0 
08:24:45 - 3: L (285.91,137.83) +/- (0.36,0.68), R (304.80,98.71) +/- (0.43,0.81))
08:24:45 - 282.8427 257.3693 230.1895 285.9053 0 0 0 0 0 
08:24:52 - 4: L (258.14,136.09) +/- (0.05,0.04), R (275.28,99.87) +/- (0.10,0.07))
08:24:52 - 282.8427 257.3693 230.1895 285.9053 258.1387 0 0 0 0 
08:24:58 - 5: L (229.90,136.04) +/- (0.06,0.19), R (244.98,102.88) +/- (0.03,0.12))
08:24:58 - 282.8427 257.3693 230.1895 285.9053 258.1387 229.8975 0 0 0 
08:25:04 - 6: L (287.32,161.88) +/- (0.10,0.04), R (303.97,123.86) +/- (0.43,1.37))
08:25:05 - 282.8427 257.3693 230.1895 285.9053 258.1387 229.8975 287.3215 0 0 
08:25:11 - 7: L (258.58,158.04) +/- (0.16,0.24), R (276.03,122.30) +/- (0.10,0.14))
08:25:11 - 282.8427 257.3693 230.1895 285.9053 258.1387 229.8975 287.3215 258.5783 0 
08:25:17 - 8: L (228.90,155.30) +/- (0.09,0.51), R (248.01,125.37) +/- (1.11,4.11))
08:25:17 - 282.8427 257.3693 230.1895 285.9053 258.1387 229.8975 287.3215 258.5783 228.898 
08:25:29 - Calibration finished
08:25:29 - Calibration loop finished.
08:32:18 - Finished EyeCollection`1 consumer  loop : 32492 frames queued; Queued: 18160-50651, Saved: 18160-50651
08:32:18 - Finished EyeTrackerDataAndImages consumer  loop : 31410 frames queued; Queued: 18160-50650, Saved: 18160-50650
08:32:18 - Finished EyeTrackerEvent consumer  loop : 0 frames queued; Queued: -1--1, Saved: -1--1
08:51:11 - Finished EyeCollection`1 consumer  loop : 110624 frames queued; Queued: 52248-162871, Saved: 52248-162871
08:51:11 - Finished EyeTrackerDataAndImages consumer  loop : 110343 frames queued; Queued: 52248-162871, Saved: 52248-162871
08:51:11 - Finished EyeTrackerEvent consumer  loop : 0 frames queued; Queued: -1--1, Saved: -1--1
08:54:21 - Calibration finished
08:54:21 - Calibration loop finished.
08:55:21 - Calibration finished
08:55:21 - Calibration loop finished.
08:59:13 - Calibration finished
08:59:13 - Calibration loop finished.
08:59:33 - Calibration finished
08:59:33 - Calibration loop finished.
08:59:34 - Calibration finished
08:59:34 - Calibration loop finished.
09:05:41 - Finished EyeCollection`1 consumer  loop : 86151 frames queued; Queued: 162951-249101, Saved: 162951-249101
09:05:41 - Finished EyeTrackerDataAndImages consumer  loop : 85606 frames queued; Queued: 162951-249101, Saved: 162951-249101
09:05:41 - Finished EyeTrackerEvent consumer  loop : 0 frames queued; Queued: -1--1, Saved: -1--1
09:13:01 - 0: L (92.87,64.19) +/- (12679.27,6067.78), R (103.50,54.37) +/- (15116.68,4256.70))
09:13:01 - 92.86951 0 0 0 0 0 0 0 0 
09:13:01 - An error occured, cannot finalize calibration implmentation.
09:13:01 - Calibration loop finished.
09:13:42 - Finished head tracker loop.
09:13:46 - Grabber loop finished.
09:13:46 - Process loop finished.
09:13:46 - Process loop finished.
09:13:46 - Process loop finished.
09:13:46 - Process loop finished.
09:13:46 - Output loop finished.
