17:17:10 - Initializing network service ...
17:17:10 - Initializing network service ... completed.
17:17:11 - Initializing complete.
17:17:14 - Error initializating the system, going into simulation mode.
17:17:14 - Object reference not set to an instance of an object.
17:17:19 - Grabber loop finished.
17:17:19 - Process loop finished.
17:17:19 - Process loop finished.
17:17:19 - Process loop finished.
17:17:19 - Process loop finished.
17:17:19 - Output loop finished.
