12:16:27 - Initializing network service ...
12:16:27 - Initializing network service ... completed.
12:16:28 - Initializing complete.
12:17:03 - Verifying grabbing system.
12:17:03 - Camera reports 0
12:17:03 - 1: 0.00,0.00,0.00
12:17:03 - 2: -0.05,-0.29,-1.25
12:17:03 - 3: 0.43,-0.89,-1.51
12:17:03 - 4: 0.32,-0.93,-1.11
12:17:11 - Finished head tracker loop.
12:17:42 - Error in EyeTrackerSettingsForm: Object reference not set to an instance of an object.
12:21:43 - Verifying grabbing system.
12:21:52 - Finished head tracker loop.
12:21:58 - Error in EyeTrackerSettingsForm: Object reference not set to an instance of an object.
12:22:04 - Verifying grabbing system.
12:22:09 - Finished head tracker loop.
12:22:21 - Error initializating the system, going into simulation mode.
12:22:21 - Object reference not set to an instance of an object.
