13:12:08 - Initializing network service ...
13:12:08 - Initializing network service ... completed.
13:12:09 - Initializing complete.
13:12:11 - Verifying grabbing system.
13:12:11 - Running camera callback.
13:12:11 - Camera reports 0
13:14:01 - 2017-03-01-13:14:01.271 10971 M: KEYPRESS D: 
13:14:01 - 2017-03-01-13:14:01.565 11000 M: KEYPRESS D: 5
13:15:49 - 2017-03-01-13:15:49.303 21766 M: KEYPRESS D: 
13:15:49 - 2017-03-01-13:15:49.731 21809 M: KEYPRESS D: 8
13:16:13 - 2017-03-01-13:16:13.544 24189 M: KEYPRESS D: 
13:16:13 - 2017-03-01-13:16:13.805 24215 M: KEYPRESS D: 5
13:16:26 - 0: L (327.55,147.34) +/- (0.11,0.03), R (296.23,153.84) +/- (0.10,0.07))
13:16:26 - 327.5477 0 0 0 0 0 0 0 0 
13:16:32 - 1: L (301.25,149.55) +/- (0.11,0.04), R (266.07,153.97) +/- (0.02,0.01))
13:16:32 - 327.5477 301.2528 0 0 0 0 0 0 0 
13:16:38 - 2: L (271.99,151.08) +/- (0.08,0.04), R (236.56,154.16) +/- (0.04,0.08))
13:16:38 - 327.5477 301.2528 271.992 0 0 0 0 0 0 
13:16:44 - 3: L (331.11,174.12) +/- (0.06,0.04), R (295.58,177.85) +/- (0.06,0.07))
13:16:44 - 327.5477 301.2528 271.992 331.1128 0 0 0 0 0 
13:16:50 - 4: L (302.68,173.89) +/- (0.05,0.13), R (265.83,178.47) +/- (0.19,0.27))
13:16:50 - 327.5477 301.2528 271.992 331.1128 302.6846 0 0 0 0 
13:16:56 - 5: L (274.31,176.31) +/- (0.16,0.07), R (235.87,180.56) +/- (0.13,0.17))
13:16:56 - 327.5477 301.2528 271.992 331.1128 302.6846 274.3131 0 0 0 
13:17:02 - 6: L (331.91,198.87) +/- (0.06,0.40), R (294.48,204.37) +/- (0.09,0.14))
13:17:02 - 327.5477 301.2528 271.992 331.1128 302.6846 274.3131 331.9144 0 0 
13:17:08 - 7: L (304.63,199.85) +/- (0.07,0.04), R (265.44,205.20) +/- (0.23,0.11))
13:17:08 - 327.5477 301.2528 271.992 331.1128 302.6846 274.3131 331.9144 304.6294 0 
13:17:13 - 8: L (276.15,200.68) +/- (0.10,0.15), R (236.21,205.68) +/- (0.07,0.09))
13:17:14 - 327.5477 301.2528 271.992 331.1128 302.6846 274.3131 331.9144 304.6294 276.1491 
13:17:32 - Calibration finished
13:17:32 - Calibration loop finished.
13:33:46 - Finished EyeCollection`1 consumer  loop : 79511 frames queued; Queued: 49931-129441, Saved: 49931-129441
13:33:46 - Finished EyeTrackerDataAndImages consumer  loop : 79512 frames queued; Queued: 49931-129442, Saved: 49931-129442
13:33:46 - Finished EyeTrackerEvent consumer  loop : 0 frames queued; Queued: -1--1, Saved: -1--1
13:36:20 - Error details: lastRawFrameNumber: 144871, currentFrameNumber: 0
13:36:20 - Error grabbing: Frame counter is not consistently growing!.
13:36:21 - FATAL ERROR: FlyCapture2Managed.FC2Exception: Low level failure reading register 0x1100. Error: 0x15.
   at FlyCapture2Managed.ManagedCameraBase.ReadRegister(UInt32 address)
   at OculomotorLab.VOG.ImageGrabbing.CameraEyePointGreyLabyrinth.ReadSensors() in c:\VOG\Labyrinth VOG Software - MVI Working Version - Testing Software Trigger\labyrinth\LabryinthVOG\ImageGrabbing\CameraEyePointGreyLabyrinth.cs:line 696
   at OculomotorLab.VOG.ImageGrabbing.CameraEyePointGreyLabyrinth.HeadSensorLabyrinth.GrabHeadData(Boolean SoftwareTriggerOn) in c:\VOG\Labyrinth VOG Software - MVI Working Version - Testing Software Trigger\labyrinth\LabryinthVOG\HeadTracking\HeadSensorLabyrinth.cs:line 62
   at OculomotorLab.VOG.EyeTrackerHeadTracker.TrackingLoop() in c:\VOG\Labyrinth VOG Software - MVI Working Version - Testing Software Trigger\source\VOGLib\HeadTracking\EyeTrackerHeadTracker.cs:line 235
13:36:21 - FATAL ERROR: System.InvalidOperationException: Frame counter is not consistently growing!.
   at OculomotorLab.VOG.ImageGrabbing.CameraEyePointGreyLabyrinth.GrabImageEye() in c:\VOG\Labyrinth VOG Software - MVI Working Version - Testing Software Trigger\labyrinth\LabryinthVOG\ImageGrabbing\CameraEyePointGreyLabyrinth.cs:line 639
   at OculomotorLab.VOG.EyeTrackerImageGrabber.GrabImages() in c:\VOG\Labyrinth VOG Software - MVI Working Version - Testing Software Trigger\source\VOGLib\EyeTrackerImageGrabber.cs:line 552
   at OculomotorLab.VOG.EyeTrackerImageGrabber.GrabLoop() in c:\VOG\Labyrinth VOG Software - MVI Working Version - Testing Software Trigger\source\VOGLib\EyeTrackerImageGrabber.cs:line 478
13:36:38 - Finished EyeCollection`1 consumer  loop : 3507 frames queued; Queued: 141340-144846, Saved: 141340-144846
13:36:38 - Finished EyeTrackerDataAndImages consumer  loop : 3507 frames queued; Queued: 141340-144846, Saved: 141340-144846
13:36:38 - Finished EyeTrackerEvent consumer  loop : 0 frames queued; Queued: -1--1, Saved: -1--1
