14:42:08 - Initializing network service ...
14:42:08 - Initializing network service ... completed.
14:42:08 - Initializing complete.
14:42:14 - Verifying grabbing system.
14:42:14 - Running camera callback.
14:42:14 - Camera reports 0
14:49:50 - Finished head tracker loop.
14:49:50 - Error details: lastRawFrameNumber: 67638, currentFrameNumber: 0
14:49:52 - Verifying grabbing system.
14:49:52 - Running camera callback.
14:49:52 - Camera reports 0
14:50:00 - Finished head tracker loop.
14:51:27 - Verifying grabbing system.
14:51:27 - Running camera callback.
14:51:27 - Camera reports 0
14:51:53 - Error in EyeTrackerSettingsForm: Object reference not set to an instance of an object.
14:52:20 - Finished head tracker loop.
14:52:46 - Grabber loop finished.
14:52:46 - Process loop finished.
14:52:46 - Process loop finished.
14:52:46 - Process loop finished.
14:52:46 - Process loop finished.
14:52:46 - Output loop finished.
