13:23:56 - Initializing network service ...
13:23:56 - Initializing network service ... completed.
13:23:56 - Initializing complete.
13:24:47 - Verifying grabbing system.
13:24:47 - Running camera callback.
13:24:47 - Camera reports 0
13:27:06 - Calibration finished
13:27:06 - Calibration loop finished.
13:42:15 - Finished EyeCollection`1 consumer  loop : 16285 frames queued; Queued: 88480-104764, Saved: 88480-104764
13:42:15 - Finished EyeTrackerDataAndImages consumer  loop : 16284 frames queued; Queued: 88480-104763, Saved: 88480-104763
13:42:15 - Finished EyeTrackerEvent consumer  loop : 0 frames queued; Queued: -1--1, Saved: -1--1
13:50:28 - Finished EyeCollection`1 consumer  loop : 49258 frames queued; Queued: 104832-154089, Saved: 104832-154089
13:50:28 - Finished EyeTrackerDataAndImages consumer  loop : 49256 frames queued; Queued: 104832-154087, Saved: 104832-154087
13:50:28 - Finished EyeTrackerEvent consumer  loop : 0 frames queued; Queued: -1--1, Saved: -1--1
13:54:52 - Finished head tracker loop.
13:55:46 - Error initializating the system, going into simulation mode.
13:55:46 - Object reference not set to an instance of an object.
13:56:43 - Error initializating the system, going into simulation mode.
13:56:43 - Object reference not set to an instance of an object.
13:56:47 - Grabber loop finished.
13:56:47 - Process loop finished.
13:56:47 - Process loop finished.
13:56:47 - Process loop finished.
13:56:47 - Process loop finished.
13:56:47 - Output loop finished.
