20:33:00 - Initializing network service ...
20:33:01 - Initializing network service ... completed.
20:33:02 - Initializing complete.
20:46:36 - 2016-08-07-20:46:36.764 0 M: KEYPRESS D: -
20:46:37 - 2016-08-07-20:46:37.031 0 M: KEYPRESS D: 1
20:46:37 - 2016-08-07-20:46:37.337 0 M: KEYPRESS D: 
20:46:39 - 2016-08-07-20:46:39.853 0 M: KEYPRESS D: -
20:46:39 - 2016-08-07-20:46:39.948 0 M: KEYPRESS D: 1
20:46:40 - 2016-08-07-20:46:40.086 0 M: KEYPRESS D: 
