15:49:02 - Initializing network service ...
15:49:02 - Initializing network service ... completed.
15:49:02 - Initializing complete.
15:49:03 - Verifying grabbing system.
15:49:03 - Running camera callback.
15:49:04 - Camera reports 1
15:49:24 - Finished EyeCollection`1 consumer  loop : 1645 frames queued; Queued: 419-2063, Saved: 419-2063
15:49:24 - Finished EyeTrackerDataAndImages consumer  loop : 1644 frames queued; Queued: 419-2062, Saved: 419-2062
15:49:24 - Finished EyeTrackerEvent consumer  loop : 0 frames queued; Queued: -1--1, Saved: -1--1
15:49:41 - Finished EyeCollection`1 consumer  loop : 1489 frames queued; Queued: 2241-3729, Saved: 2241-3729
15:49:41 - Finished EyeTrackerDataAndImages consumer  loop : 1488 frames queued; Queued: 2241-3728, Saved: 2241-3728
15:49:41 - Finished EyeTrackerEvent consumer  loop : 0 frames queued; Queued: -1--1, Saved: -1--1
15:50:01 - Finished EyeCollection`1 consumer  loop : 1541 frames queued; Queued: 4167-5707, Saved: 4167-5707
15:50:01 - Finished EyeTrackerDataAndImages consumer  loop : 1540 frames queued; Queued: 4167-5706, Saved: 4167-5706
15:50:01 - Finished EyeTrackerEvent consumer  loop : 0 frames queued; Queued: -1--1, Saved: -1--1
15:52:46 - Finished EyeCollection`1 consumer  loop : 525 frames queued; Queued: 21594-22118, Saved: 21594-22118
15:52:46 - Finished EyeTrackerDataAndImages consumer  loop : 525 frames queued; Queued: 21594-22118, Saved: 21594-22118
15:52:46 - Finished EyeTrackerEvent consumer  loop : 0 frames queued; Queued: -1--1, Saved: -1--1
15:52:54 - Finished EyeCollection`1 consumer  loop : 466 frames queued; Queued: 22439-22904, Saved: 22439-22904
15:52:54 - Finished EyeTrackerDataAndImages consumer  loop : 465 frames queued; Queued: 22439-22903, Saved: 22439-22903
15:52:54 - Finished EyeTrackerEvent consumer  loop : 0 frames queued; Queued: -1--1, Saved: -1--1
15:53:05 - Finished EyeCollection`1 consumer  loop : 443 frames queued; Queued: 23551-23993, Saved: 23551-23993
15:53:05 - Finished EyeTrackerDataAndImages consumer  loop : 442 frames queued; Queued: 23551-23992, Saved: 23551-23992
15:53:05 - Finished EyeTrackerEvent consumer  loop : 0 frames queued; Queued: -1--1, Saved: -1--1
15:53:11 - Finished EyeCollection`1 consumer  loop : 488 frames queued; Queued: 24169-24656, Saved: 24169-24656
15:53:11 - Finished EyeTrackerDataAndImages consumer  loop : 487 frames queued; Queued: 24169-24655, Saved: 24169-24655
15:53:11 - Finished EyeTrackerEvent consumer  loop : 0 frames queued; Queued: -1--1, Saved: -1--1
15:53:22 - Finished EyeCollection`1 consumer  loop : 469 frames queued; Queued: 25243-25711, Saved: 25243-25711
15:53:22 - Finished EyeTrackerDataAndImages consumer  loop : 468 frames queued; Queued: 25243-25710, Saved: 25243-25710
15:53:22 - Finished EyeTrackerEvent consumer  loop : 0 frames queued; Queued: -1--1, Saved: -1--1
15:53:27 - Finished EyeCollection`1 consumer  loop : 403 frames queued; Queued: 25842-26244, Saved: 25842-26244
15:53:27 - Finished EyeTrackerDataAndImages consumer  loop : 402 frames queued; Queued: 25842-26243, Saved: 25842-26243
15:53:27 - Finished EyeTrackerEvent consumer  loop : 0 frames queued; Queued: -1--1, Saved: -1--1
15:53:35 - Finished EyeCollection`1 consumer  loop : 510 frames queued; Queued: 26462-26971, Saved: 26462-26971
15:53:35 - Finished EyeTrackerDataAndImages consumer  loop : 510 frames queued; Queued: 26462-26971, Saved: 26462-26971
15:53:35 - Finished EyeTrackerEvent consumer  loop : 0 frames queued; Queued: -1--1, Saved: -1--1
15:53:42 - Finished EyeCollection`1 consumer  loop : 494 frames queued; Queued: 27209-27702, Saved: 27209-27702
15:53:42 - Finished EyeTrackerDataAndImages consumer  loop : 494 frames queued; Queued: 27209-27702, Saved: 27209-27702
15:53:42 - Finished EyeTrackerEvent consumer  loop : 0 frames queued; Queued: -1--1, Saved: -1--1
15:56:21 - Finished EyeCollection`1 consumer  loop : 477 frames queued; Queued: 43042-43518, Saved: 43042-43518
15:56:21 - Finished EyeTrackerDataAndImages consumer  loop : 476 frames queued; Queued: 43042-43517, Saved: 43042-43517
15:56:21 - Finished EyeTrackerEvent consumer  loop : 0 frames queued; Queued: -1--1, Saved: -1--1
15:57:31 - Finished head tracker loop.
