21:16:50 - Initializing network service ...
21:16:51 - Error starting service: There is already a listener on IP endpoint 0.0.0.0:9000. This could happen if there is another application already listening on this endpoint or if you have multiple service endpoints in your service host with the same IP endpoint but with incompatible binding configurations.
21:16:51 - Initializing network service ... completed.
21:16:52 - Initializing complete.
21:16:54 - Grabber loop finished.
21:16:54 - Process loop finished.
21:16:54 - Process loop finished.
21:16:54 - Process loop finished.
21:16:54 - Process loop finished.
21:16:54 - Output loop finished.
