16:04:15 - Initializing network service ...
16:04:16 - Initializing network service ... completed.
16:04:16 - Initializing complete.
16:04:31 - Waiting for camera...
16:04:31 - Waiting for camera...
16:04:31 - Verifying grabbing system.
16:04:31 - Running camera callback.
16:04:31 - Camera reports 0
16:04:38 - 0: L (236.89,216.16) +/- (2.88,3.27), R (272.89,116.38) +/- (1.02,1.81))
16:04:38 - 236.8878 0 0 0 0 0 0 0 0 
16:04:41 - 1: L (219.97,216.29) +/- (136.99,0.74), R (254.86,116.93) +/- (153.46,0.16))
16:04:41 - 236.8878 219.9652 0 0 0 0 0 0 0 
16:04:44 - 2: L (193.27,217.30) +/- (120.85,1.12), R (226.99,116.81) +/- (127.32,0.63))
16:04:44 - 236.8878 219.9652 193.2689 0 0 0 0 0 0 
16:04:46 - 3: L (228.24,234.86) +/- (386.14,60.85), R (260.99,136.71) +/- (379.69,80.18))
16:04:46 - 236.8878 219.9652 193.2689 228.2419 0 0 0 0 0 
16:04:49 - 4: L (218.34,238.71) +/- (98.22,0.12), R (250.02,140.39) +/- (107.09,0.22))
16:04:49 - 236.8878 219.9652 193.2689 228.2419 218.3444 0 0 0 0 
16:04:52 - 5: L (189.41,239.31) +/- (0.11,0.24), R (221.00,140.27) +/- (0.07,0.17))
16:04:52 - 236.8878 219.9652 193.2689 228.2419 218.3444 189.4077 0 0 0 
16:04:55 - 6: L (240.02,258.86) +/- (0.48,0.60), R (272.24,162.88) +/- (2.49,0.75))
16:04:55 - 236.8878 219.9652 193.2689 228.2419 218.3444 189.4077 240.021 0 0 
16:04:57 - 7: L (214.68,259.36) +/- (0.07,0.09), R (245.34,162.07) +/- (0.14,0.21))
16:04:57 - 236.8878 219.9652 193.2689 228.2419 218.3444 189.4077 240.021 214.6789 0 
16:05:00 - 8: L (189.19,258.99) +/- (0.05,0.09), R (221.72,160.12) +/- (0.04,0.46))
16:05:03 - 236.8878 219.9652 193.2689 228.2419 218.3444 189.4077 240.021 214.6789 189.1931 
16:05:06 - Calibration error: Error using dlmwrite (line 130)
Could not open file C:\VOG\Data\Scripts\Calibration\SESSION-2016Aug07-160503_Polynomial.txt
